[gd_scene load_steps=2 format=2]

[ext_resource path="res://scripts/LevelGenDemo.gd" type="Script" id=1]

[node name="Node2D" type="Node2D"]
script = ExtResource( 1 )

[node name="Camera2D" type="Camera2D" parent="."]
current = true
