[gd_scene load_steps=3 format=2]

[ext_resource path="res://scenes/ChatBox.gd" type="Script" id=1]

[sub_resource type="RectangleShape2D" id=1]

[node name="ChatBox" type="Node2D"]
script = ExtResource( 1 )

[node name="Popup" type="Popup" parent="."]
pause_mode = 2

[node name="ColorRect" type="ColorRect" parent="Popup"]
margin_top = 880.0
margin_right = 1920.0
margin_bottom = 1080.0
color = Color( 0.277344, 0.277344, 0.277344, 1 )

[node name="RichTextLabel" type="RichTextLabel" parent="Popup/ColorRect"]
margin_right = 200.0
margin_bottom = 1080.0
grow_horizontal = 2
grow_vertical = 2
bbcode_enabled = true
bbcode_text = "Hello, World! How are you?"
tab_size = 5
text = "Hello, World! How are you?"
fit_content_height = true
scroll_active = false

[node name="ColorRect" type="ColorRect" parent="Popup/ColorRect"]
margin_left = 20.0
margin_top = 20.0
margin_right = 180.0
margin_bottom = 180.0

[node name="Area2D" type="Area2D" parent="."]

[node name="CollisionShape2D" type="CollisionShape2D" parent="Area2D"]
shape = SubResource( 1 )
[connection signal="body_entered" from="Area2D" to="." method="_on_Area2D_body_entered"]
