[gd_resource type="ShaderMaterial" load_steps=2 format=2]

[sub_resource type="Shader" id=1]
code = "shader_type canvas_item;
uniform bool reversing;

void fragment() {
	if (reversing) {
    	vec3 col = -8.0 * texture(TEXTURE, SCREEN_UV).xyz;
    	col += texture(TEXTURE, SCREEN_UV + vec2(0.0, SCREEN_PIXEL_SIZE.y)).xyz;
    	col += texture(TEXTURE, SCREEN_UV + vec2(0.0, -SCREEN_PIXEL_SIZE.y)).xyz;
    	col += texture(TEXTURE, SCREEN_UV + vec2(SCREEN_PIXEL_SIZE.x, 0.0)).xyz;
    	col += texture(TEXTURE, SCREEN_UV + vec2(-SCREEN_PIXEL_SIZE.x, 0.0)).xyz;
    	col += texture(TEXTURE, SCREEN_UV + SCREEN_PIXEL_SIZE.xy).xyz;
    	col += texture(TEXTURE, SCREEN_UV - SCREEN_PIXEL_SIZE.xy).xyz;
    	col += texture(TEXTURE, SCREEN_UV + vec2(-SCREEN_PIXEL_SIZE.x, SCREEN_PIXEL_SIZE.y)).xyz;
    	col += texture(TEXTURE, SCREEN_UV + vec2(SCREEN_PIXEL_SIZE.x, -SCREEN_PIXEL_SIZE.y)).xyz;
    	COLOR.xyz = col;		
	} else {
		COLOR.xyz = texture(TEXTURE, SCREEN_UV).xyz
	}

}"

[resource]
shader = SubResource( 1 )
shader_param/reversing = null
