[gd_scene load_steps=9 format=2]

[ext_resource path="res://sprites/mock/Testing_tile_sets.tres" type="TileSet" id=1]
[ext_resource path="res://scenes/obstacles/Spikes.tscn" type="PackedScene" id=2]
[ext_resource path="res://scenes/obstacles/Coin.tscn" type="PackedScene" id=3]
[ext_resource path="res://scenes/obstacles/HorizontalMovingPlatform.tscn" type="PackedScene" id=4]
[ext_resource path="res://scenes/obstacles/TimeReversalCharge.tscn" type="PackedScene" id=5]
[ext_resource path="res://scenes/obstacles/BreakablePlatform.tscn" type="PackedScene" id=6]
[ext_resource path="res://scenes/obstacles/Rocket.tscn" type="PackedScene" id=7]
[ext_resource path="res://scenes/obstacles/Spikes_Corner.tscn" type="PackedScene" id=8]

[node name="1_009_2_N" type="Node2D"]

[node name="TileMap" type="TileMap" parent="."]
scale = Vector2( 0.5, 0.5 )
tile_set = ExtResource( 1 )
cell_size = Vector2( 128, 128 )
cell_custom_transform = Transform2D( 0, 0, 0, 0, 0, 0 )
format = 1
tile_data = PoolIntArray( 262148, -1073741807, 0, 262149, 17, 0, 262153, -1073741807, 0, 262154, 13, 0, 262155, 13, 0, 262156, 13, 0, 262157, 13, 0, 262158, 13, 0, 262159, 13, 0, 262160, 13, 0, 262161, 13, 0, 262162, 13, 0, 262163, 13, 0, 262164, 13, 0, 262165, 13, 0, 262166, 13, 0, 262167, 13, 0, 262168, 13, 0, 262169, 13, 0, 262170, 13, 0, 262171, 17, 0, 327684, -1073741811, 0, 327685, -1610612723, 0, 327689, -1073741811, 0, 327690, 12, 0, 327691, 12, 0, 327692, 12, 0, 327693, 12, 0, 327694, 12, 0, 327695, 12, 0, 327696, 12, 0, 327697, 12, 0, 327698, 12, 0, 327699, 12, 0, 327700, 12, 0, 327701, 12, 0, 327702, 12, 0, 327703, 12, 0, 327704, 12, 0, 327705, 12, 0, 327706, 12, 0, 327707, -1610612723, 0, 393220, -1073741811, 0, 393221, -1610612723, 0, 393225, -1073741811, 0, 393226, 12, 0, 393227, 12, 0, 393228, 12, 0, 393229, 12, 0, 393230, 12, 0, 393231, 12, 0, 393232, 12, 0, 393233, 12, 0, 393234, 12, 0, 393235, 12, 0, 393236, 12, 0, 393237, 12, 0, 393238, 12, 0, 393239, 12, 0, 393240, 12, 0, 393241, 12, 0, 393242, 12, 0, 393243, -1610612723, 0, 458756, -1073741811, 0, 458757, -1610612723, 0, 458761, -1073741811, 0, 458762, 12, 0, 458763, 12, 0, 458764, 12, 0, 458765, 12, 0, 458766, 12, 0, 458767, 12, 0, 458768, 12, 0, 458769, 12, 0, 458770, 12, 0, 458771, 12, 0, 458772, 12, 0, 458773, 12, 0, 458774, 12, 0, 458775, 12, 0, 458776, 12, 0, 458777, 12, 0, 458778, 12, 0, 458779, -1610612723, 0, 524292, -1073741811, 0, 524293, 1610612754, 0, 524294, 13, 0, 524295, 13, 0, 524296, 13, 0, 524297, -1610612718, 0, 524298, 12, 0, 524299, 12, 0, 524300, 12, 0, 524301, 12, 0, 524302, 12, 0, 524303, 12, 0, 524304, 12, 0, 524305, 12, 0, 524306, 12, 0, 524307, 12, 0, 524308, 12, 0, 524309, 12, 0, 524310, 12, 0, 524311, 12, 0, 524312, 12, 0, 524313, 12, 0, 524314, 12, 0, 524315, -1610612723, 0, 589828, -1073741811, 0, 589829, 12, 0, 589830, 12, 0, 589831, 12, 0, 589832, 12, 0, 589833, 12, 0, 589834, 12, 0, 589835, 12, 0, 589836, 12, 0, 589837, 12, 0, 589838, 12, 0, 589839, 12, 0, 589840, 12, 0, 589841, 12, 0, 589842, 12, 0, 589843, 12, 0, 589844, 12, 0, 589845, 12, 0, 589846, 12, 0, 589847, 12, 0, 589848, 12, 0, 589849, 12, 0, 589850, 12, 0, 589851, -1610612723, 0, 655364, -1073741811, 0, 655365, 12, 0, 655366, 12, 0, 655367, 12, 0, 655368, 12, 0, 655369, 12, 0, 655370, 12, 0, 655371, 12, 0, 655372, 12, 0, 655373, 12, 0, 655374, 12, 0, 655375, 12, 0, 655376, 12, 0, 655377, 12, 0, 655378, 12, 0, 655379, 12, 0, 655380, 12, 0, 655381, 12, 0, 655382, 12, 0, 655383, 12, 0, 655384, 12, 0, 655385, 12, 0, 655386, 12, 0, 655387, -1610612723, 0, 720900, -1073741811, 0, 720901, 12, 0, 720902, 12, 0, 720903, 12, 0, 720904, 12, 0, 720905, 12, 0, 720906, 12, 0, 720907, 12, 0, 720908, 12, 0, 720909, 12, 0, 720910, 12, 0, 720911, 12, 0, 720912, 12, 0, 720913, 12, 0, 720914, 12, 0, 720915, 12, 0, 720916, 12, 0, 720917, 12, 0, 720918, 12, 0, 720919, 12, 0, 720920, 12, 0, 720921, 12, 0, 720922, 12, 0, 720923, -1610612723, 0, 786436, -1073741811, 0, 786437, 12, 0, 786438, 12, 0, 786439, 12, 0, 786440, 12, 0, 786441, 12, 0, 786442, 12, 0, 786443, 12, 0, 786444, 12, 0, 786445, 12, 0, 786446, 12, 0, 786447, 12, 0, 786448, 12, 0, 786449, 12, 0, 786450, 12, 0, 786451, 12, 0, 786452, 12, 0, 786453, 12, 0, 786454, 12, 0, 786455, 12, 0, 786456, 12, 0, 786457, 12, 0, 786458, 12, 0, 786459, -1610612723, 0, 851972, -1073741811, 0, 851973, 12, 0, 851974, 12, 0, 851975, 12, 0, 851976, 12, 0, 851977, 12, 0, 851978, 12, 0, 851979, 12, 0, 851980, 12, 0, 851981, 12, 0, 851982, 12, 0, 851983, 12, 0, 851984, 12, 0, 851985, 12, 0, 851986, 12, 0, 851987, 12, 0, 851988, 12, 0, 851989, 12, 0, 851990, 12, 0, 851991, 12, 0, 851992, 12, 0, 851993, 12, 0, 851994, 12, 0, 851995, -1610612723, 0, 917508, -1073741811, 0, 917509, 12, 0, 917510, 12, 0, 917511, 12, 0, 917512, 12, 0, 917513, 12, 0, 917514, 12, 0, 917515, 12, 0, 917516, 12, 0, 917517, 12, 0, 917518, 12, 0, 917519, 12, 0, 917520, 12, 0, 917521, 12, 0, 917522, 12, 0, 917523, 12, 0, 917524, 12, 0, 917525, 12, 0, 917526, 12, 0, 917527, 12, 0, 917528, 12, 0, 917529, 12, 0, 917530, 12, 0, 917531, -1610612723, 0, 983044, -1073741811, 0, 983045, 12, 0, 983046, 12, 0, 983047, 12, 0, 983048, 12, 0, 983049, 12, 0, 983050, 12, 0, 983051, 12, 0, 983052, 12, 0, 983053, 12, 0, 983054, 12, 0, 983055, 12, 0, 983056, 12, 0, 983057, 12, 0, 983058, 12, 0, 983059, 12, 0, 983060, 12, 0, 983061, 12, 0, 983062, 12, 0, 983063, 12, 0, 983064, 12, 0, 983065, 12, 0, 983066, 12, 0, 983067, -1610612723, 0, 1048580, 1610612753, 0, 1048581, 1610612749, 0, 1048582, 1610612749, 0, 1048583, 1610612749, 0, 1048584, 1610612749, 0, 1048585, 1610612749, 0, 1048586, 1610612749, 0, 1048587, 1610612749, 0, 1048588, 1610612749, 0, 1048589, 18, 0, 1048590, 12, 0, 1048591, 12, 0, 1048592, 12, 0, 1048593, 12, 0, 1048594, -1073741806, 0, 1048595, 1610612749, 0, 1048596, 1610612749, 0, 1048597, 1610612749, 0, 1048598, 1610612749, 0, 1048599, 1610612749, 0, 1048600, 1610612749, 0, 1048601, 1610612749, 0, 1048602, 18, 0, 1048603, -1610612723, 0, 1114125, -1073741811, 0, 1114126, 12, 0, 1114127, 12, 0, 1114128, 12, 0, 1114129, 12, 0, 1114130, -1610612723, 0, 1114138, -1073741811, 0, 1114139, -1610612723, 0, 1179661, -1073741811, 0, 1179662, 12, 0, 1179663, 12, 0, 1179664, 12, 0, 1179665, 12, 0, 1179666, -1610612723, 0, 1179674, -1073741811, 0, 1179675, -1610612723, 0, 1245197, -1073741811, 0, 1245198, 12, 0, 1245199, 12, 0, 1245200, 12, 0, 1245201, 12, 0, 1245202, -1610612723, 0, 1245210, 1610612753, 0, 1245211, -1610612719, 0, 1310733, -1073741811, 0, 1310734, 12, 0, 1310735, 12, 0, 1310736, 12, 0, 1310737, 12, 0, 1310738, -1610612723, 0, 1376269, -1073741811, 0, 1376270, 12, 0, 1376271, 12, 0, 1376272, 12, 0, 1376273, 12, 0, 1376274, -1610612723, 0, 1441805, -1073741811, 0, 1441806, 12, 0, 1441807, 12, 0, 1441808, 12, 0, 1441809, 12, 0, 1441810, -1610612723, 0, 1507341, -1073741811, 0, 1507342, 12, 0, 1507343, 12, 0, 1507344, 12, 0, 1507345, 12, 0, 1507346, -1610612723, 0, 1572877, -1073741811, 0, 1572878, 12, 0, 1572879, 12, 0, 1572880, 12, 0, 1572881, 12, 0, 1572882, -1610612723, 0, 1638413, -1073741811, 0, 1638414, 12, 0, 1638415, 12, 0, 1638416, 12, 0, 1638417, 12, 0, 1638418, -1610612723, 0, 1703949, -1073741811, 0, 1703950, 12, 0, 1703951, 12, 0, 1703952, 12, 0, 1703953, 12, 0, 1703954, -1610612723, 0, 1769485, -1073741811, 0, 1769486, 12, 0, 1769487, 12, 0, 1769488, 12, 0, 1769489, 12, 0, 1769490, -1610612723, 0, 1835021, -1073741811, 0, 1835022, 12, 0, 1835023, 12, 0, 1835024, 12, 0, 1835025, 12, 0, 1835026, -1610612723, 0, 1900557, -1073741811, 0, 1900558, 12, 0, 1900559, 12, 0, 1900560, 12, 0, 1900561, 12, 0, 1900562, -1610612723, 0, 1966093, -1073741811, 0, 1966094, 12, 0, 1966095, 12, 0, 1966096, 12, 0, 1966097, 12, 0, 1966098, -1610612723, 0, 2031616, 13, 0, 2031617, 13, 0, 2031618, 13, 0, 2031619, 13, 0, 2031620, 13, 0, 2031621, 13, 0, 2031622, 13, 0, 2031623, 13, 0, 2031624, 13, 0, 2031625, 13, 0, 2031626, 13, 0, 2031627, 13, 0, 2031628, 13, 0, 2031629, -1610612718, 0, 2031630, 1610612748, 0, 2031631, 1610612748, 0, 2031632, 1610612748, 0, 2031633, 1610612748, 0, 2031634, 1610612754, 0, 2031635, 13, 0, 2031636, 13, 0, 2031637, 13, 0, 2031638, 13, 0, 2031639, 13, 0, 2031640, 13, 0, 2031641, 13, 0, 2031642, 13, 0, 2031643, 13, 0, 2031644, 13, 0, 2031645, 13, 0, 2031646, 13, 0, 2031647, 13, 0 )

[node name="Coin90" parent="." instance=ExtResource( 3 )]
position = Vector2( 1728, 192 )

[node name="Coin91" parent="." instance=ExtResource( 3 )]
position = Vector2( 192, 960 )

[node name="Coin92" parent="." instance=ExtResource( 3 )]
position = Vector2( 448, 448 )

[node name="Coin93" parent="." instance=ExtResource( 3 )]
position = Vector2( 512, 448 )

[node name="Coin8" parent="." instance=ExtResource( 3 )]
position = Vector2( 480, 1408 )

[node name="Coin17" parent="." instance=ExtResource( 3 )]
position = Vector2( 480, 1536 )

[node name="Coin19" parent="." instance=ExtResource( 3 )]
position = Vector2( 608, 1536 )

[node name="Coin11" parent="." instance=ExtResource( 3 )]
position = Vector2( 608, 1408 )

[node name="HorizontalMovingPlatform" parent="." instance=ExtResource( 4 )]
position = Vector2( 128, 1472 )
rotation = 1.57079

[node name="HorizontalMovingPlatform2" parent="." instance=ExtResource( 4 )]
position = Vector2( 1920, 1472 )
rotation = 1.57079

[node name="TimeReversalCharge" parent="." instance=ExtResource( 5 )]
position = Vector2( 544, 1472 )

[node name="Coin4" parent="." instance=ExtResource( 3 )]
position = Vector2( 1504, 1376 )

[node name="Coin7" parent="." instance=ExtResource( 3 )]
position = Vector2( 1504, 1568 )

[node name="Coin22" parent="." instance=ExtResource( 3 )]
position = Vector2( 1408, 1472 )

[node name="Coin24" parent="." instance=ExtResource( 3 )]
position = Vector2( 1600, 1472 )

[node name="TimeReversalCharge2" parent="." instance=ExtResource( 5 )]
position = Vector2( 1504, 1472 )

[node name="Rocket" parent="." instance=ExtResource( 7 )]
position = Vector2( 1408, 1728 )

[node name="Rocket2" parent="." instance=ExtResource( 7 )]
position = Vector2( 1504, 1760 )

[node name="Rocket3" parent="." instance=ExtResource( 7 )]
position = Vector2( 1600, 1728 )

[node name="BreakablePlatform" parent="." instance=ExtResource( 6 )]
position = Vector2( 416, 480 )

[node name="BreakablePlatform2" parent="." instance=ExtResource( 6 )]
position = Vector2( 416, 416 )

[node name="BreakablePlatform3" parent="." instance=ExtResource( 6 )]
position = Vector2( 480, 416 )

[node name="BreakablePlatform4" parent="." instance=ExtResource( 6 )]
position = Vector2( 480, 480 )

[node name="BreakablePlatform5" parent="." instance=ExtResource( 6 )]
position = Vector2( 544, 480 )

[node name="BreakablePlatform6" parent="." instance=ExtResource( 6 )]
position = Vector2( 544, 416 )

[node name="BreakablePlatform7" parent="." instance=ExtResource( 6 )]
position = Vector2( 544, 352 )

[node name="BreakablePlatform8" parent="." instance=ExtResource( 6 )]
position = Vector2( 480, 352 )

[node name="BreakablePlatform9" parent="." instance=ExtResource( 6 )]
position = Vector2( 416, 352 )

[node name="BreakablePlatform10" parent="." instance=ExtResource( 6 )]
position = Vector2( 416, 288 )

[node name="BreakablePlatform11" parent="." instance=ExtResource( 6 )]
position = Vector2( 480, 288 )

[node name="BreakablePlatform12" parent="." instance=ExtResource( 6 )]
position = Vector2( 544, 288 )

[node name="Spikes" parent="." instance=ExtResource( 2 )]
position = Vector2( 224, 928 )
rotation = 3.14159

[node name="Spikes2" parent="." instance=ExtResource( 2 )]
position = Vector2( 224, 992 )
rotation = 3.14159

[node name="Spikes3" parent="." instance=ExtResource( 2 )]
position = Vector2( 800, 1248 )
rotation = 3.14159

[node name="Spikes4" parent="." instance=ExtResource( 2 )]
position = Vector2( 800, 1312 )
rotation = 3.14159

[node name="Spikes5" parent="." instance=ExtResource( 2 )]
position = Vector2( 800, 1376 )
rotation = 3.14159

[node name="Spikes6" parent="." instance=ExtResource( 2 )]
position = Vector2( 800, 1440 )
rotation = 3.14159

[node name="Spikes7" parent="." instance=ExtResource( 2 )]
position = Vector2( 800, 1504 )
rotation = 3.14159

[node name="Spikes8" parent="." instance=ExtResource( 2 )]
position = Vector2( 800, 1568 )
rotation = 3.14159

[node name="Spikes9" parent="." instance=ExtResource( 2 )]
position = Vector2( 800, 1632 )
rotation = 3.14159

[node name="Spikes10" parent="." instance=ExtResource( 2 )]
position = Vector2( 800, 1696 )
rotation = 3.14159

[node name="Spikes11" parent="." instance=ExtResource( 2 )]
position = Vector2( 800, 1760 )
rotation = 3.14159

[node name="Spikes12" parent="." instance=ExtResource( 2 )]
position = Vector2( 800, 1824 )
rotation = 3.14159

[node name="Spikes13" parent="." instance=ExtResource( 2 )]
position = Vector2( 1248, 1248 )
rotation = 6.28318

[node name="Spikes14" parent="." instance=ExtResource( 2 )]
position = Vector2( 1248, 1312 )
rotation = 6.28318

[node name="Spikes15" parent="." instance=ExtResource( 2 )]
position = Vector2( 1248, 1376 )
rotation = 6.28318

[node name="Spikes23" parent="." instance=ExtResource( 2 )]
position = Vector2( 1568, 1120 )
rotation = 1.57079

[node name="Spikes26" parent="." instance=ExtResource( 2 )]
position = Vector2( 1504, 1120 )
rotation = 1.57079

[node name="Spikes27" parent="." instance=ExtResource( 2 )]
position = Vector2( 1440, 1120 )
rotation = 1.57079

[node name="Spikes28" parent="." instance=ExtResource( 2 )]
position = Vector2( 1376, 1120 )
rotation = 1.57079

[node name="Spikes34" parent="." instance=ExtResource( 2 )]
position = Vector2( 1760, 224 )
rotation = 4.71238

[node name="Spikes35" parent="." instance=ExtResource( 2 )]
position = Vector2( 1696, 224 )
rotation = 4.71238

[node name="Spikes29" parent="." instance=ExtResource( 2 )]
position = Vector2( 672, 1120 )
rotation = 1.57079

[node name="Spikes30" parent="." instance=ExtResource( 2 )]
position = Vector2( 608, 1120 )
rotation = 1.57079

[node name="Spikes31" parent="." instance=ExtResource( 2 )]
position = Vector2( 544, 1120 )
rotation = 1.57079

[node name="Spikes32" parent="." instance=ExtResource( 2 )]
position = Vector2( 480, 1120 )
rotation = 1.57079

[node name="Spikes33" parent="." instance=ExtResource( 2 )]
position = Vector2( 416, 1120 )
rotation = 1.57079

[node name="Spikes24" parent="." instance=ExtResource( 2 )]
position = Vector2( 1632, 1184 )
rotation = 3.14159

[node name="Spikes25" parent="." instance=ExtResource( 2 )]
position = Vector2( 1632, 1248 )
rotation = 3.14159

[node name="Spikes16" parent="." instance=ExtResource( 2 )]
position = Vector2( 1248, 1440 )
rotation = 6.28318

[node name="Spikes17" parent="." instance=ExtResource( 2 )]
position = Vector2( 1248, 1504 )
rotation = 6.28318

[node name="Spikes18" parent="." instance=ExtResource( 2 )]
position = Vector2( 1248, 1568 )
rotation = 6.28318

[node name="Spikes19" parent="." instance=ExtResource( 2 )]
position = Vector2( 1248, 1632 )
rotation = 6.28318

[node name="Spikes20" parent="." instance=ExtResource( 2 )]
position = Vector2( 1248, 1696 )
rotation = 6.28318

[node name="Spikes21" parent="." instance=ExtResource( 2 )]
position = Vector2( 1248, 1760 )
rotation = 6.28318

[node name="Spikes22" parent="." instance=ExtResource( 2 )]
position = Vector2( 1248, 1824 )
rotation = 6.28318

[node name="Spikes_Corner" parent="." instance=ExtResource( 8 )]
position = Vector2( 1632, 1120 )
rotation = -3.14159
