[gd_scene load_steps=9 format=2]

[ext_resource path="res://scenes/obstacles/TimeReversalCharge.tscn" type="PackedScene" id=1]
[ext_resource path="res://scenes/obstacles/Spikes.tscn" type="PackedScene" id=2]
[ext_resource path="res://scenes/obstacles/PressurePlateDoor.tscn" type="PackedScene" id=3]
[ext_resource path="res://scenes/obstacles/Rocket.tscn" type="PackedScene" id=4]
[ext_resource path="res://scenes/obstacles/Switch.tscn" type="PackedScene" id=5]
[ext_resource path="res://scenes/obstacles/Key.tscn" type="PackedScene" id=6]
[ext_resource path="res://scenes/obstacles/Coin.tscn" type="PackedScene" id=7]
[ext_resource path="res://sprites/mock/Testing_tile_sets.tres" type="TileSet" id=8]

[node name="2P_003_2_K" type="Node2D"]

[node name="TileMap" type="TileMap" parent="."]
scale = Vector2( 0.5, 0.5 )
tile_set = ExtResource( 8 )
cell_size = Vector2( 128, 128 )
cell_custom_transform = Transform2D( 0, 0, 0, 0, 0, 0 )
format = 1
tile_data = PoolIntArray( 0, 1610612749, 0, 1, 1610612749, 0, 2, 18, 0, 3, 12, 0, 4, -1073741806, 0, 5, 1610612749, 0, 6, 1610612749, 0, 7, 1610612749, 0, 8, 1610612749, 0, 9, 1610612749, 0, 10, 18, 0, 11, 12, 0, 12, 12, 0, 13, 12, 0, 14, 12, 0, 15, 12, 0, 16, 12, 0, 17, 12, 0, 18, 12, 0, 19, 12, 0, 20, 12, 0, 21, 12, 0, 22, 12, 0, 23, -1073741806, 0, 24, 1610612749, 0, 25, 1610612749, 0, 26, 1610612749, 0, 27, 18, 0, 28, 1610612748, 0, 29, -1073741806, 0, 30, 1610612749, 0, 31, 1610612749, 0, 65538, -1073741811, 0, 65539, -1610612724, 0, 65540, -1610612723, 0, 65546, -1073741811, 0, 65547, -1610612724, 0, 65548, -1610612724, 0, 65549, -1610612724, 0, 65550, -1610612724, 0, 65551, 12, 0, 65552, 12, 0, 65553, 12, 0, 65554, 12, 0, 65555, 12, 0, 65556, 12, 0, 65557, 12, 0, 65558, -1610612724, 0, 65559, -1610612723, 0, 65563, -1073741811, 0, 65564, -1610612724, 0, 65565, -1610612723, 0, 131074, -1073741811, 0, 131075, -1610612724, 0, 131076, -1610612723, 0, 131082, 1610612753, 0, 131083, 1610612749, 0, 131084, 1610612749, 0, 131085, 1610612749, 0, 131086, 1610612749, 0, 131087, 1610612749, 0, 131088, 1610612749, 0, 131089, 1610612749, 0, 131090, 1610612749, 0, 131091, 1610612749, 0, 131092, 1610612749, 0, 131093, 18, 0, 131094, -1610612724, 0, 131095, -1610612723, 0, 131099, 1610612753, 0, 131100, 1610612749, 0, 131101, -1610612719, 0, 196610, -1073741811, 0, 196611, -1610612724, 0, 196612, -1610612723, 0, 196629, -1073741811, 0, 196630, -1610612724, 0, 196631, -1610612723, 0, 262146, -1073741811, 0, 262147, -1610612724, 0, 262148, -1610612723, 0, 262165, -1073741811, 0, 262166, -1610612724, 0, 262167, -1610612723, 0, 327682, -1073741811, 0, 327683, -1610612724, 0, 327684, -1610612723, 0, 327701, -1073741811, 0, 327702, -1610612724, 0, 327703, -1610612723, 0, 393218, -1073741811, 0, 393219, -1610612724, 0, 393220, 1610612754, 0, 393221, 13, 0, 393222, 13, 0, 393223, 13, 0, 393224, 13, 0, 393225, 13, 0, 393226, 13, 0, 393227, 13, 0, 393228, 13, 0, 393229, 13, 0, 393230, 13, 0, 393231, 13, 0, 393232, 13, 0, 393233, 17, 0, 393237, -1073741811, 0, 393238, -1610612724, 0, 393239, -1610612723, 0, 458754, -1073741811, 0, 458755, -1610612724, 0, 458756, -1073741806, 0, 458757, 1610612749, 0, 458758, 1610612749, 0, 458759, 1610612749, 0, 458760, 1610612749, 0, 458761, 1610612749, 0, 458762, 1610612749, 0, 458763, 1610612749, 0, 458764, 1610612749, 0, 458765, 1610612749, 0, 458766, 1610612749, 0, 458767, 1610612749, 0, 458768, 1610612749, 0, 458769, -1610612719, 0, 458773, -1073741811, 0, 458774, -1610612724, 0, 458775, -1610612723, 0, 524290, -1073741811, 0, 524291, -1610612724, 0, 524292, -1610612723, 0, 524309, -1073741811, 0, 524310, -1610612724, 0, 524311, -1610612723, 0, 524315, -1073741807, 0, 524316, 13, 0, 524317, 17, 0, 589826, -1073741811, 0, 589827, -1610612724, 0, 589828, -1610612723, 0, 589845, -1073741811, 0, 589846, -1610612724, 0, 589847, -1610612723, 0, 589851, -1073741811, 0, 589852, 12, 0, 589853, -1610612723, 0, 655362, -1073741811, 0, 655363, -1610612724, 0, 655364, -1610612723, 0, 655381, -1073741811, 0, 655382, -1610612724, 0, 655383, -1610612723, 0, 655387, -1073741811, 0, 655388, -1610612724, 0, 655389, -1610612723, 0, 720898, -1073741811, 0, 720899, -1610612724, 0, 720900, -1610612723, 0, 720904, -1073741807, 0, 720905, 13, 0, 720906, 13, 0, 720907, 13, 0, 720908, 13, 0, 720909, 13, 0, 720910, 13, 0, 720911, 13, 0, 720912, 13, 0, 720913, 13, 0, 720914, 13, 0, 720915, 13, 0, 720916, 13, 0, 720917, -1610612718, 0, 720918, -1610612724, 0, 720919, -1610612723, 0, 720923, -1073741811, 0, 720924, -1610612724, 0, 720925, -1610612723, 0, 786434, -1073741811, 0, 786435, -1610612724, 0, 786436, -1610612723, 0, 786440, 1610612753, 0, 786441, 1610612749, 0, 786442, 1610612749, 0, 786443, 1610612749, 0, 786444, 1610612749, 0, 786445, 1610612749, 0, 786446, 1610612749, 0, 786447, 1610612749, 0, 786448, 1610612749, 0, 786449, 1610612749, 0, 786450, 1610612749, 0, 786451, 1610612749, 0, 786452, 1610612749, 0, 786453, 18, 0, 786454, -1610612724, 0, 786455, -1610612723, 0, 786459, -1073741811, 0, 786460, -1610612724, 0, 786461, -1610612723, 0, 851970, -1073741811, 0, 851971, -1610612724, 0, 851972, -1610612723, 0, 851989, -1073741811, 0, 851990, -1610612724, 0, 851991, -1610612723, 0, 851995, -1073741811, 0, 851996, -1610612724, 0, 851997, -1610612723, 0, 917506, -1073741811, 0, 917507, -1610612724, 0, 917508, -1610612723, 0, 917525, -1073741811, 0, 917526, -1610612724, 0, 917527, -1610612723, 0, 917531, -1073741811, 0, 917532, -1610612724, 0, 917533, -1610612723, 0, 983042, -1073741811, 0, 983043, -1610612724, 0, 983044, -1610612723, 0, 983061, -1073741811, 0, 983062, -1610612724, 0, 983063, -1610612723, 0, 983067, -1073741811, 0, 983068, -1610612724, 0, 983069, -1610612723, 0, 1048578, -1073741811, 0, 1048579, -1610612724, 0, 1048580, 1610612754, 0, 1048581, 13, 0, 1048582, 13, 0, 1048583, 13, 0, 1048584, 13, 0, 1048585, 13, 0, 1048586, 13, 0, 1048587, 13, 0, 1048588, 17, 0, 1048597, -1073741811, 0, 1048598, -1073741812, 0, 1048599, -1610612723, 0, 1048603, -1073741811, 0, 1048604, -1610612724, 0, 1048605, -1610612723, 0, 1114114, -1073741811, 0, 1114115, -1610612724, 0, 1114116, -1073741806, 0, 1114117, 1610612749, 0, 1114118, 1610612749, 0, 1114119, 1610612749, 0, 1114120, 1610612749, 0, 1114121, 1610612749, 0, 1114122, 1610612749, 0, 1114123, 1610612749, 0, 1114124, -1610612719, 0, 1114133, -1073741811, 0, 1114134, -1073741812, 0, 1114135, -1610612723, 0, 1114139, -1073741811, 0, 1114140, -1610612724, 0, 1114141, -1610612723, 0, 1179650, -1073741811, 0, 1179651, -1610612724, 0, 1179652, -1610612723, 0, 1179664, -1073741807, 0, 1179665, 17, 0, 1179669, -1073741811, 0, 1179670, -1073741812, 0, 1179671, -1610612723, 0, 1179675, -1073741811, 0, 1179676, -1610612724, 0, 1179677, -1610612723, 0, 1245186, -1073741811, 0, 1245187, -1610612724, 0, 1245188, -1610612723, 0, 1245200, -1073741811, 0, 1245201, -1610612723, 0, 1245205, -1073741811, 0, 1245206, -1610612724, 0, 1245207, -1610612723, 0, 1245211, -1073741811, 0, 1245212, -1610612724, 0, 1245213, -1610612723, 0, 1310722, -1073741811, 0, 1310723, -1610612724, 0, 1310724, -1610612723, 0, 1310736, -1073741811, 0, 1310737, -1610612723, 0, 1310741, -1073741811, 0, 1310742, -1610612724, 0, 1310743, -1610612723, 0, 1310747, -1073741811, 0, 1310748, -1610612724, 0, 1310749, -1610612723, 0, 1376258, -1073741811, 0, 1376259, -1610612724, 0, 1376260, 1610612754, 0, 1376261, 13, 0, 1376262, 13, 0, 1376263, 13, 0, 1376264, 13, 0, 1376265, 13, 0, 1376266, 13, 0, 1376267, 13, 0, 1376268, 17, 0, 1376272, -1073741811, 0, 1376273, -1610612723, 0, 1376277, -1073741811, 0, 1376278, -1610612724, 0, 1376279, -1610612723, 0, 1376283, -1073741811, 0, 1376284, -1610612724, 0, 1376285, -1610612723, 0, 1441794, -1073741811, 0, 1441795, -1610612724, 0, 1441796, -1610612723, 0, 1441797, 1610612749, 0, 1441798, 1610612749, 0, 1441799, 1610612749, 0, 1441800, 18, 0, 1441801, -1073741806, 0, 1441802, 1610612749, 0, 1441803, 1610612749, 0, 1441804, -1610612719, 0, 1441808, -1073741811, 0, 1441809, -1610612723, 0, 1441813, -1073741811, 0, 1441814, -1610612724, 0, 1441815, -1610612723, 0, 1441819, -1073741811, 0, 1441820, -1610612724, 0, 1441821, -1610612723, 0, 1507330, 1610612753, 0, 1507331, 1610612749, 0, 1507332, -1610612719, 0, 1507336, -1073741811, 0, 1507337, -1610612723, 0, 1507344, -1073741811, 0, 1507345, -1610612723, 0, 1507349, -1073741811, 0, 1507350, -1610612724, 0, 1507351, -1610612723, 0, 1507355, -1073741811, 0, 1507356, -1610612724, 0, 1507357, -1610612723, 0, 1572872, -1073741811, 0, 1572873, -1610612723, 0, 1572880, -1073741811, 0, 1572881, -1610612723, 0, 1572885, -1073741811, 0, 1572886, -1610612724, 0, 1572887, -1610612723, 0, 1572891, -1073741811, 0, 1572892, -1610612724, 0, 1572893, -1610612723, 0, 1638408, -1073741811, 0, 1638409, -1610612723, 0, 1638416, -1073741811, 0, 1638417, -1610612723, 0, 1638421, -1073741811, 0, 1638422, -1610612724, 0, 1638423, -1610612723, 0, 1638427, -1073741811, 0, 1638428, -1610612724, 0, 1638429, -1610612723, 0, 1703944, -1073741811, 0, 1703945, -1610612723, 0, 1703949, -1073741807, 0, 1703950, 13, 0, 1703951, 13, 0, 1703952, -1610612718, 0, 1703953, -1610612723, 0, 1703957, -1073741811, 0, 1703958, -1610612724, 0, 1703959, -1610612723, 0, 1703963, -1073741811, 0, 1703964, -1610612724, 0, 1703965, -1610612723, 0, 1769480, 1610612753, 0, 1769481, -1610612719, 0, 1769485, -1073741811, 0, 1769486, -1073741806, 0, 1769487, 1610612749, 0, 1769488, 1610612749, 0, 1769489, -1610612719, 0, 1769493, 1610612753, 0, 1769494, 1610612749, 0, 1769495, -1610612719, 0, 1769499, -1073741811, 0, 1769500, -1610612724, 0, 1769501, -1610612723, 0, 1835021, -1073741811, 0, 1835022, -1610612723, 0, 1835035, -1073741811, 0, 1835036, -1610612724, 0, 1835037, -1610612723, 0, 1900546, -1073741807, 0, 1900547, 13, 0, 1900548, 17, 0, 1900557, -1073741811, 0, 1900558, -1610612723, 0, 1900571, -1073741811, 0, 1900572, -1610612724, 0, 1900573, -1610612723, 0, 1966082, -1073741811, 0, 1966083, 12, 0, 1966084, -1610612723, 0, 1966093, -1073741811, 0, 1966094, -1610612723, 0, 1966107, -2147483635, 0, 1966108, -1610612724, 0, 1966109, -536870899, 0, 2031616, 13, 0, 2031617, 13, 0, 2031618, -1610612718, 0, 2031619, 1610612748, 0, 2031620, 1610612754, 0, 2031621, 13, 0, 2031622, 13, 0, 2031623, 13, 0, 2031624, 13, 0, 2031625, 13, 0, 2031626, 13, 0, 2031627, 13, 0, 2031628, 13, 0, 2031629, -1610612718, 0, 2031630, 1610612754, 0, 2031631, 13, 0, 2031632, 13, 0, 2031633, 13, 0, 2031634, 13, 0, 2031635, 13, 0, 2031636, 13, 0, 2031637, 13, 0, 2031638, 13, 0, 2031639, 13, 0, 2031640, 13, 0, 2031641, 13, 0, 2031642, 13, 0, 2031643, -1610612718, 0, 2031644, 1610612748, 0, 2031645, 1610612754, 0, 2031646, 13, 0, 2031647, 13, 0 )

[node name="Key" parent="." instance=ExtResource( 6 )]
position = Vector2( 1056, 1888 )

[node name="Coin4" parent="." instance=ExtResource( 7 )]
position = Vector2( 480, 288 )

[node name="Coin7" parent="." instance=ExtResource( 7 )]
position = Vector2( 544, 224 )

[node name="Coin11" parent="." instance=ExtResource( 7 )]
position = Vector2( 1120, 1888 )

[node name="Coin8" parent="." instance=ExtResource( 7 )]
position = Vector2( 416, 224 )

[node name="Coin40" parent="." instance=ExtResource( 7 )]
position = Vector2( 384, 1216 )

[node name="Coin41" parent="." instance=ExtResource( 7 )]
position = Vector2( 384, 1280 )

[node name="Coin42" parent="." instance=ExtResource( 7 )]
position = Vector2( 448, 1248 )

[node name="TimeReversalCharge" parent="." instance=ExtResource( 1 )]
position = Vector2( 480, 224 )

[node name="TimeReversalCharge3" parent="." instance=ExtResource( 1 )]
position = Vector2( 992, 1888 )

[node name="Rocket" parent="." instance=ExtResource( 4 )]
position = Vector2( 384, 1920 )

[node name="Rocket2" parent="." instance=ExtResource( 4 )]
position = Vector2( 696, 1536 )

[node name="Rocket3" parent="." instance=ExtResource( 4 )]
position = Vector2( 640, 983 )

[node name="Rocket4" parent="." instance=ExtResource( 4 )]
position = Vector2( 896, 671 )

[node name="Rocket5" parent="." instance=ExtResource( 4 )]
position = Vector2( 1185, 448 )

[node name="Rocket6" parent="." instance=ExtResource( 4 )]
position = Vector2( 1695, 608 )

[node name="Rocket7" parent="." instance=ExtResource( 4 )]
position = Vector2( 1569, 1056 )

[node name="Rocket8" parent="." instance=ExtResource( 4 )]
position = Vector2( 1695, 1504 )

[node name="Rocket9" parent="." instance=ExtResource( 4 )]
position = Vector2( 1600, 1951 )

[node name="Node2D" parent="." instance=ExtResource( 5 )]
position = Vector2( 96, 1504 )
rotation = -1.57079

[node name="Node2D2" parent="." instance=ExtResource( 5 )]
position = Vector2( 1568, 288.001 )
rotation = -4.71238

[node name="Node2D3" parent="." instance=ExtResource( 5 )]
position = Vector2( 480, 96 )
rotation = 3.14159

[node name="PressurePlateDoor" parent="." instance=ExtResource( 3 )]
position = Vector2( 224, 1696 )
rotation = -1.57079

[node name="AnimatedSprite" parent="PressurePlateDoor" index="0"]
frame = 0

[node name="DoorTriggerShape" parent="PressurePlateDoor" index="1"]
position = Vector2( 192, -128 )

[node name="PressurePlateDoor3" parent="." instance=ExtResource( 3 )]
position = Vector2( 1088, 992 )
rotation = -1.57079

[node name="AnimatedSprite" parent="PressurePlateDoor3" index="0"]
frame = 8

[node name="DoorTriggerShape" parent="PressurePlateDoor3" index="1"]
position = Vector2( 895.999, -608.002 )

[node name="PressurePlateDoor2" parent="." instance=ExtResource( 3 )]
position = Vector2( 1824, 352 )
rotation = -1.57079

[node name="DoorTriggerShape" parent="PressurePlateDoor2" index="1"]
position = Vector2( 63.9994, -256 )

[node name="Spikes" parent="." instance=ExtResource( 2 )]
position = Vector2( 1184, 1760 )

[node name="Spikes2" parent="." instance=ExtResource( 2 )]
position = Vector2( 1184, 1696 )

[node name="Spikes5" parent="." instance=ExtResource( 2 )]
position = Vector2( 800, 1184 )
rotation = 1.57079

[node name="Spikes6" parent="." instance=ExtResource( 2 )]
position = Vector2( 800, 1312 )
rotation = 4.71238

[node name="Spikes7" parent="." instance=ExtResource( 2 )]
position = Vector2( 736, 1184 )
rotation = 1.57079

[node name="Spikes8" parent="." instance=ExtResource( 2 )]
position = Vector2( 736, 1312 )
rotation = 4.71238

[node name="Spikes9" parent="." instance=ExtResource( 2 )]
position = Vector2( 672, 1184 )
rotation = 1.57079

[node name="Spikes10" parent="." instance=ExtResource( 2 )]
position = Vector2( 672, 1312 )
rotation = 4.71238

[node name="Spikes11" parent="." instance=ExtResource( 2 )]
position = Vector2( 608, 1184 )
rotation = 1.57079

[node name="Spikes12" parent="." instance=ExtResource( 2 )]
position = Vector2( 608, 1312 )
rotation = 4.71238

[node name="Spikes13" parent="." instance=ExtResource( 2 )]
position = Vector2( 864, 224 )
rotation = 1.57079

[node name="Spikes14" parent="." instance=ExtResource( 2 )]
position = Vector2( 864, 352 )
rotation = 4.71238

[node name="Spikes15" parent="." instance=ExtResource( 2 )]
position = Vector2( 800, 224 )
rotation = 1.57079

[node name="Spikes16" parent="." instance=ExtResource( 2 )]
position = Vector2( 800, 352 )
rotation = 4.71238

[node name="Spikes21" parent="." instance=ExtResource( 2 )]
position = Vector2( 992, 224 )
rotation = 1.57079

[node name="Spikes22" parent="." instance=ExtResource( 2 )]
position = Vector2( 992, 352 )
rotation = 4.71238

[node name="Spikes23" parent="." instance=ExtResource( 2 )]
position = Vector2( 928, 224 )
rotation = 1.57079

[node name="Spikes24" parent="." instance=ExtResource( 2 )]
position = Vector2( 928, 352 )
rotation = 4.71238

[node name="Spikes17" parent="." instance=ExtResource( 2 )]
position = Vector2( 736, 224 )
rotation = 1.57079

[node name="Spikes18" parent="." instance=ExtResource( 2 )]
position = Vector2( 736, 352 )
rotation = 4.71238

[node name="Spikes19" parent="." instance=ExtResource( 2 )]
position = Vector2( 672, 224 )
rotation = 1.57079

[node name="Spikes20" parent="." instance=ExtResource( 2 )]
position = Vector2( 672, 352 )
rotation = 4.71238

[node name="Spikes3" parent="." instance=ExtResource( 2 )]
position = Vector2( 1312, 1760 )
rotation = -3.14159

[node name="Spikes4" parent="." instance=ExtResource( 2 )]
position = Vector2( 1312, 1696 )
rotation = -3.14159

[editable path="PressurePlateDoor"]

[editable path="PressurePlateDoor3"]

[editable path="PressurePlateDoor2"]
