[gd_scene load_steps=2 format=2]

[ext_resource path="res://sprites/TileSets/CrustTiles.tres" type="TileSet" id=1]

[node name="Room_3_###" type="Node2D"]

[node name="TileMap" type="TileMap" parent="."]
tile_set = ExtResource( 1 )
cell_custom_transform = Transform2D( 0, 0, 0, 0, 0, 0 )
format = 1
tile_data = PoolIntArray( 0, 1610612749, 0, 1, 1610612749, 0, 2, 1610612749, 0, 3, 1610612749, 0, 4, 1610612749, 0, 5, 1610612749, 0, 6, 1610612749, 0, 7, 1610612749, 0, 8, 1610612749, 0, 9, 1610612749, 0, 10, 1610612749, 0, 11, 1610612749, 0, 12, 1610612749, 0, 13, 1610612749, 0, 14, 1610612749, 0, 15, 1610612749, 0, 16, 1610612749, 0, 17, 1610612749, 0, 18, 1610612749, 0, 19, 1610612749, 0, 20, 1610612749, 0, 21, 1610612749, 0, 22, 1610612749, 0, 23, 1610612749, 0, 24, 1610612749, 0, 25, 1610612749, 0, 26, 1610612749, 0, 27, 1610612749, 0, 28, 1610612749, 0, 29, 1610612749, 0, 30, 1610612749, 0, 31, 18, 0, 65567, -1073741811, 0, 131103, -1073741811, 0, 196639, -1073741811, 0, 262175, -1073741811, 0, 327711, -1073741811, 0, 393247, -1073741811, 0, 458783, -1073741811, 0, 524319, -1073741811, 0, 589855, -1073741811, 0, 655391, -1073741811, 0, 720927, -1073741811, 0, 786463, -1073741811, 0, 851999, -1073741811, 0, 917535, -1073741811, 0, 983071, -1073741811, 0, 1048607, -1073741811, 0, 1114143, -1073741811, 0, 1179679, -1073741811, 0, 1245215, -1073741811, 0, 1310751, -1073741811, 0, 1376287, -1073741811, 0, 1441823, -1073741811, 0, 1507359, -1073741811, 0, 1572895, -1073741811, 0, 1638431, -1073741811, 0, 1703967, -1073741811, 0, 1769503, -1073741811, 0, 1835039, -1073741811, 0, 1900575, -1073741811, 0, 1966111, -1073741811, 0, 2031616, 13, 0, 2031617, 13, 0, 2031618, 13, 0, 2031619, 13, 0, 2031620, 13, 0, 2031621, 13, 0, 2031622, 13, 0, 2031623, 13, 0, 2031624, 13, 0, 2031625, 13, 0, 2031626, 13, 0, 2031627, 13, 0, 2031628, 13, 0, 2031629, 13, 0, 2031630, 13, 0, 2031631, 13, 0, 2031632, 13, 0, 2031633, 13, 0, 2031634, 13, 0, 2031635, 13, 0, 2031636, 13, 0, 2031637, 13, 0, 2031638, 13, 0, 2031639, 13, 0, 2031640, 13, 0, 2031641, 13, 0, 2031642, 13, 0, 2031643, 13, 0, 2031644, 13, 0, 2031645, 13, 0, 2031646, 13, 0, 2031647, -1610612718, 0 )
