[gd_scene load_steps=14 format=2]

[ext_resource path="res://sprites/mock/Testing_tile_sets.tres" type="TileSet" id=1]
[ext_resource path="res://scenes/obstacles/Button.tscn" type="PackedScene" id=2]
[ext_resource path="res://scenes/obstacles/Spikes.tscn" type="PackedScene" id=5]
[ext_resource path="res://scenes/obstacles/Turret.tscn" type="PackedScene" id=6]
[ext_resource path="res://scenes/obstacles/Switch.tscn" type="PackedScene" id=7]
[ext_resource path="res://scenes/obstacles/HorizontalMovingPlatform.tscn" type="PackedScene" id=8]
[ext_resource path="res://scenes/obstacles/TimeReversalCharge.tscn" type="PackedScene" id=9]
[ext_resource path="res://scenes/obstacles/VerticalMovingPlatform.tscn" type="PackedScene" id=10]
[ext_resource path="res://scenes/obstacles/Rocket.tscn" type="PackedScene" id=11]
[ext_resource path="res://scenes/obstacles/SpringyPlatform.tscn" type="PackedScene" id=12]
[ext_resource path="res://scenes/obstacles/Door_Boss.tscn" type="PackedScene" id=33]
[ext_resource path="res://scenes/obstacles/Final Objective Item/DNA Sequencer.tscn" type="PackedScene" id=34]
[ext_resource path="res://scenes/obstacles/Spikes_Corner.tscn" type="PackedScene" id=35]

[node name="Puzzle_004" type="Node2D"]

[node name="TileMap" type="TileMap" parent="."]
scale = Vector2( 0.5, 0.5 )
tile_set = ExtResource( 1 )
cell_size = Vector2( 128, 128 )
cell_custom_transform = Transform2D( 0, 0, 0, 0, 0, 0 )
format = 1
tile_data = PoolIntArray( 0, -1073741812, 0, 1, 12, 0, 2, 12, 0, 3, 12, 0, 4, 12, 0, 5, 12, 0, 6, 12, 0, 7, 12, 0, 8, -1073741806, 0, 9, 1610612749, 0, 10, 1610612749, 0, 11, 1610612749, 0, 12, 1610612749, 0, 13, 1610612749, 0, 14, 18, 0, 15, 12, 0, 16, 12, 0, 17, 12, 0, 18, 12, 0, 19, 12, 0, 20, 12, 0, 21, 12, 0, 22, 12, 0, 23, 12, 0, 24, 12, 0, 25, 12, 0, 26, -1073741806, 0, 27, 1610612749, 0, 28, 1610612749, 0, 29, 18, 0, 30, 12, 0, 31, 12, 0, 32, 12, 0, 33, 12, 0, 34, 12, 0, 35, 12, 0, 36, 12, 0, 37, 12, 0, 38, 12, 0, 39, 12, 0, 40, 12, 0, 41, 12, 0, 42, 12, 0, 43, 12, 0, 44, 12, 0, 45, 12, 0, 46, 12, 0, 47, 12, 0, 48, 12, 0, 49, 12, 0, 50, 12, 0, 51, 12, 0, 52, 12, 0, 53, 12, 0, 54, 12, 0, 55, 12, 0, 56, 12, 0, 57, 12, 0, 58, 12, 0, 59, 12, 0, 60, 12, 0, 61, 12, 0, 62, 12, 0, 63, 12, 0, 65536, -1073741812, 0, 65537, -1073741812, 0, 65538, -1073741812, 0, 65539, -1073741812, 0, 65540, -1073741812, 0, 65541, -1073741812, 0, 65542, -1073741812, 0, 65543, -1073741806, 0, 65544, -1610612719, 0, 65550, 1610612753, 0, 65551, 1610612749, 0, 65552, 1610612749, 0, 65553, 1610612749, 0, 65554, 1610612749, 0, 65555, 1610612749, 0, 65556, 1610612749, 0, 65557, 1610612749, 0, 65558, 1610612749, 0, 65559, 1610612749, 0, 65560, -536870894, 0, 65561, -1073741806, 0, 65562, -1610612719, 0, 65565, 1610612753, 0, 65566, 18, 0, 65567, 12, 0, 65568, 12, 0, 65569, 12, 0, 65570, 12, 0, 65571, 12, 0, 65572, 12, 0, 65573, 12, 0, 65574, 12, 0, 65575, 12, 0, 65576, 12, 0, 65577, 12, 0, 65578, 12, 0, 65579, 12, 0, 65580, 12, 0, 65581, 12, 0, 65582, 12, 0, 65583, 12, 0, 65584, 12, 0, 65585, 12, 0, 65586, 12, 0, 65587, 12, 0, 65588, 12, 0, 65589, 12, 0, 65590, 12, 0, 65591, 12, 0, 65592, 12, 0, 65593, 12, 0, 65594, 12, 0, 65595, 12, 0, 65596, 12, 0, 65597, 12, 0, 65598, 12, 0, 65599, 12, 0, 131072, -1073741812, 0, 131073, -1073741812, 0, 131074, -1073741812, 0, 131075, -1073741812, 0, 131076, -1073741806, 0, 131077, 1610612749, 0, 131078, 1610612749, 0, 131079, -1610612719, 0, 131096, -2147483635, 0, 131097, -1610612723, 0, 131102, -1073741811, 0, 131103, 12, 0, 131104, 12, 0, 131105, 12, 0, 131106, 12, 0, 131107, 12, 0, 131108, 12, 0, 131109, 12, 0, 131110, 12, 0, 131111, 12, 0, 131112, 12, 0, 131113, 12, 0, 131114, 12, 0, 131115, 12, 0, 131116, 12, 0, 131117, 12, 0, 131118, 12, 0, 131119, 12, 0, 131120, 12, 0, 131121, 12, 0, 131122, 12, 0, 131123, 12, 0, 131124, 12, 0, 131125, 12, 0, 131126, 12, 0, 131127, 12, 0, 131128, 12, 0, 131129, 12, 0, 131130, 12, 0, 131131, 12, 0, 131132, 12, 0, 131133, 12, 0, 131134, 12, 0, 131135, 12, 0, 196608, -1073741812, 0, 196609, -1073741812, 0, 196610, -1073741812, 0, 196611, -1073741806, 0, 196612, -1610612719, 0, 196632, -2147483635, 0, 196633, -536870899, 0, 196638, -1073741811, 0, 196639, 12, 0, 196640, 12, 0, 196641, 12, 0, 196642, 12, 0, 196643, 12, 0, 196644, 12, 0, 196645, 12, 0, 196646, 12, 0, 196647, 12, 0, 196648, 12, 0, 196649, 12, 0, 196650, 12, 0, 196651, 12, 0, 196652, 12, 0, 196653, 12, 0, 196654, 12, 0, 196655, 12, 0, 196656, 12, 0, 196657, 12, 0, 196658, 12, 0, 196659, 12, 0, 196660, 12, 0, 196661, 12, 0, 196662, 12, 0, 196663, 12, 0, 196664, 12, 0, 196665, 12, 0, 196666, 12, 0, 196667, 12, 0, 196668, 12, 0, 196669, 12, 0, 196670, 12, 0, 196671, 12, 0, 262144, -1073741812, 0, 262145, -1073741806, 0, 262146, 1610612749, 0, 262147, -1610612719, 0, 262168, -2147483635, 0, 262169, -536870899, 0, 262174, -1073741811, 0, 262175, 12, 0, 262176, 12, 0, 262177, 12, 0, 262178, 12, 0, 262179, 12, 0, 262180, 12, 0, 262181, 12, 0, 262182, 12, 0, 262183, 12, 0, 262184, 12, 0, 262185, 12, 0, 262186, 12, 0, 262187, 12, 0, 262188, 12, 0, 262189, 12, 0, 262190, 12, 0, 262191, 12, 0, 262192, 12, 0, 262193, 12, 0, 262194, 12, 0, 262195, 12, 0, 262196, 12, 0, 262197, 12, 0, 262198, 12, 0, 262199, 12, 0, 262200, 12, 0, 262201, 12, 0, 262202, 12, 0, 262203, 12, 0, 262204, 12, 0, 262205, 12, 0, 262206, 12, 0, 262207, 12, 0, 327681, -1610612723, 0, 327704, -2147483635, 0, 327705, -536870899, 0, 327709, 1610612752, 0, 327710, -1610612712, 0, 327711, 12, 0, 327712, 12, 0, 327713, 12, 0, 327714, 12, 0, 327715, 12, 0, 327716, 12, 0, 327717, 12, 0, 327718, 12, 0, 327719, 12, 0, 327720, 12, 0, 327721, 12, 0, 327722, 12, 0, 327723, 12, 0, 327724, 12, 0, 327725, 12, 0, 327726, 12, 0, 327727, 12, 0, 327728, 12, 0, 327729, 12, 0, 327730, 12, 0, 327731, 12, 0, 327732, 12, 0, 327733, 12, 0, 327734, 12, 0, 327735, 12, 0, 327736, 12, 0, 327737, 12, 0, 327738, 12, 0, 327739, 12, 0, 327740, 12, 0, 327741, 12, 0, 327742, 12, 0, 327743, 12, 0, 393216, -1073741812, 0, 393217, -1610612723, 0, 393225, 536870929, 0, 393226, 536870925, 0, 393227, 536870925, 0, 393228, 536870925, 0, 393229, 536870925, 0, 393230, 536870925, 0, 393231, 536870925, 0, 393232, 536870925, 0, 393233, 536870925, 0, 393234, 536870925, 0, 393235, -536870895, 0, 393240, -2147483635, 0, 393241, -536870899, 0, 393246, -1073741811, 0, 393247, 12, 0, 393248, 12, 0, 393249, 12, 0, 393250, 12, 0, 393251, 12, 0, 393252, 12, 0, 393253, 12, 0, 393254, 12, 0, 393255, 12, 0, 393256, 12, 0, 393257, 12, 0, 393258, 12, 0, 393259, 12, 0, 393260, 12, 0, 393261, 12, 0, 393262, 12, 0, 393263, 12, 0, 393264, 12, 0, 393265, 12, 0, 393266, 12, 0, 393267, 12, 0, 393268, 12, 0, 393269, 12, 0, 393270, 12, 0, 393271, 12, 0, 393272, 12, 0, 393273, 12, 0, 393274, 12, 0, 393275, 12, 0, 393276, 12, 0, 393277, 12, 0, 393278, 12, 0, 393279, 12, 0, 458752, -1073741812, 0, 458753, -1610612723, 0, 458760, -1073741807, 0, 458761, -1610612718, 0, 458762, 536870930, 0, 458763, 1073741837, 0, 458764, 1073741837, 0, 458765, 1073741837, 0, 458766, 1073741837, 0, 458767, 1073741837, 0, 458768, 1073741837, 0, 458769, 1073741837, 0, 458770, 1073741837, 0, 458771, 1073741841, 0, 458776, -2147483635, 0, 458777, -536870899, 0, 458782, -1073741811, 0, 458783, 12, 0, 458784, 12, 0, 458785, 12, 0, 458786, 12, 0, 458787, 12, 0, 458788, 12, 0, 458789, 12, 0, 458790, 12, 0, 458791, 12, 0, 458792, 12, 0, 458793, 12, 0, 458794, 12, 0, 458795, 12, 0, 458796, 12, 0, 458797, 12, 0, 458798, 12, 0, 458799, 12, 0, 458800, 12, 0, 458801, 12, 0, 458802, 12, 0, 458803, 12, 0, 458804, 12, 0, 458805, 12, 0, 458806, 12, 0, 458807, 12, 0, 458808, 12, 0, 458809, 12, 0, 458810, 12, 0, 458811, 12, 0, 458812, 12, 0, 458813, 12, 0, 458814, 12, 0, 458815, 12, 0, 524288, -1073741812, 0, 524289, -1610612723, 0, 524296, -1073741811, 0, 524297, -536870900, 0, 524298, -536870899, 0, 524312, -2147483635, 0, 524313, -1073741800, 0, 524314, 16, 0, 524318, -1073741811, 0, 524319, 12, 0, 524320, 12, 0, 524321, 12, 0, 524322, 12, 0, 524323, 12, 0, 524324, 12, 0, 524325, 12, 0, 524326, 12, 0, 524327, 12, 0, 524328, 12, 0, 524329, 12, 0, 524330, 12, 0, 524331, 12, 0, 524332, 12, 0, 524333, 12, 0, 524334, 12, 0, 524335, 12, 0, 524336, 12, 0, 524337, 12, 0, 524338, 12, 0, 524339, 12, 0, 524340, 12, 0, 524341, 12, 0, 524342, 12, 0, 524343, 12, 0, 524344, 12, 0, 524345, 12, 0, 524346, 12, 0, 524347, 12, 0, 524348, 12, 0, 524349, 12, 0, 524350, 12, 0, 524351, 12, 0, 589824, -1073741812, 0, 589825, 1610612754, 0, 589826, 17, 0, 589832, 1610612753, 0, 589833, 18, 0, 589834, -536870899, 0, 589848, -2147483635, 0, 589849, -536870899, 0, 589854, -1073741811, 0, 589855, 12, 0, 589856, 12, 0, 589857, 12, 0, 589858, 12, 0, 589859, 12, 0, 589860, 12, 0, 589861, 12, 0, 589862, 12, 0, 589863, 12, 0, 589864, 12, 0, 589865, 12, 0, 589866, 12, 0, 589867, 12, 0, 589868, 12, 0, 589869, 12, 0, 589870, 12, 0, 589871, 12, 0, 589872, 12, 0, 589873, 12, 0, 589874, 12, 0, 589875, 12, 0, 589876, 12, 0, 589877, 12, 0, 589878, 12, 0, 589879, 12, 0, 589880, 12, 0, 589881, 12, 0, 589882, 12, 0, 589883, 12, 0, 589884, 12, 0, 589885, 12, 0, 589886, 12, 0, 589887, 12, 0, 655360, -1073741812, 0, 655361, -536870900, 0, 655362, -1610612723, 0, 655369, -2147483635, 0, 655370, -536870899, 0, 655384, -2147483635, 0, 655385, -536870899, 0, 655390, -1073741811, 0, 655391, 12, 0, 655392, 12, 0, 655393, 12, 0, 655394, 12, 0, 655395, 12, 0, 655396, 12, 0, 655397, 12, 0, 655398, 12, 0, 655399, 12, 0, 655400, 12, 0, 655401, 12, 0, 655402, 12, 0, 655403, 12, 0, 655404, 12, 0, 655405, 12, 0, 655406, 12, 0, 655407, 12, 0, 655408, 12, 0, 655409, 12, 0, 655410, 12, 0, 655411, 12, 0, 655412, 12, 0, 655413, 12, 0, 655414, 12, 0, 655415, 12, 0, 655416, 12, 0, 655417, 12, 0, 655418, 12, 0, 655419, 12, 0, 655420, 12, 0, 655421, 12, 0, 655422, 12, 0, 655423, 12, 0, 720896, -1073741812, 0, 720897, -536870900, 0, 720898, -1610612723, 0, 720905, -2147483635, 0, 720906, -536870899, 0, 720920, -2147483635, 0, 720921, -536870899, 0, 720925, 1610612752, 0, 720926, -1610612712, 0, 720927, 12, 0, 720928, 12, 0, 720929, 12, 0, 720930, 12, 0, 720931, 12, 0, 720932, 12, 0, 720933, 12, 0, 720934, 12, 0, 720935, 12, 0, 720936, 12, 0, 720937, 12, 0, 720938, 12, 0, 720939, 12, 0, 720940, 12, 0, 720941, 12, 0, 720942, 12, 0, 720943, 12, 0, 720944, 12, 0, 720945, 12, 0, 720946, 12, 0, 720947, 12, 0, 720948, 12, 0, 720949, 12, 0, 720950, 12, 0, 720951, 12, 0, 720952, 12, 0, 720953, 12, 0, 720954, 12, 0, 720955, 12, 0, 720956, 12, 0, 720957, 12, 0, 720958, 12, 0, 720959, 12, 0, 786432, -1073741812, 0, 786433, -536870900, 0, 786434, 1610612754, 0, 786435, 17, 0, 786441, -2147483635, 0, 786442, -536870899, 0, 786447, 536870929, 0, 786448, 536870925, 0, 786449, 536870925, 0, 786450, 536870925, 0, 786451, 536870925, 0, 786452, 536870925, 0, 786453, 536870925, 0, 786454, 536870925, 0, 786455, 536870925, 0, 786456, 1073741842, 0, 786457, -536870899, 0, 786462, -1073741811, 0, 786463, 12, 0, 786464, 12, 0, 786465, 12, 0, 786466, 12, 0, 786467, 12, 0, 786468, 12, 0, 786469, 12, 0, 786470, 12, 0, 786471, 12, 0, 786472, 12, 0, 786473, 12, 0, 786474, 12, 0, 786475, 12, 0, 786476, 12, 0, 786477, 12, 0, 786478, 12, 0, 786479, 12, 0, 786480, 12, 0, 786481, 12, 0, 786482, 12, 0, 786483, 12, 0, 786484, 12, 0, 786485, 12, 0, 786486, 12, 0, 786487, 12, 0, 786488, 12, 0, 786489, 12, 0, 786490, 12, 0, 786491, 12, 0, 786492, 12, 0, 786493, 12, 0, 786494, 12, 0, 786495, 12, 0, 851968, -1073741812, 0, 851969, -1073741806, 0, 851970, 1610612749, 0, 851971, -1610612719, 0, 851977, -2147483635, 0, 851978, -536870899, 0, 851983, -2147483631, 0, 851984, 1073741837, 0, 851985, 1073741837, 0, 851986, 1073741837, 0, 851987, 1073741837, 0, 851988, 1073741837, 0, 851989, 1073741837, 0, 851990, 1073741837, 0, 851991, 1073741837, 0, 851992, 1073741837, 0, 851993, 14, 0, 851994, 17, 0, 851998, -1073741811, 0, 851999, 12, 0, 852000, 12, 0, 852001, 12, 0, 852002, 12, 0, 852003, 12, 0, 852004, 12, 0, 852005, 12, 0, 852006, 12, 0, 852007, 12, 0, 852008, 12, 0, 852009, 12, 0, 852010, 12, 0, 852011, 12, 0, 852012, 12, 0, 852013, 12, 0, 852014, 12, 0, 852015, 12, 0, 852016, 12, 0, 852017, 12, 0, 852018, 12, 0, 852019, 12, 0, 852020, 12, 0, 852021, 12, 0, 852022, 12, 0, 852023, 12, 0, 852024, 12, 0, 852025, 12, 0, 852026, 12, 0, 852027, 12, 0, 852028, 12, 0, 852029, 12, 0, 852030, 12, 0, 852031, 12, 0, 917504, -1073741812, 0, 917505, -1610612723, 0, 917513, -2147483635, 0, 917514, -536870899, 0, 917529, 1610612753, 0, 917530, -1610612719, 0, 917534, -1073741811, 0, 917535, 12, 0, 917536, 12, 0, 917537, 12, 0, 917538, 12, 0, 917539, 12, 0, 917540, 12, 0, 917541, 12, 0, 917542, 12, 0, 917543, 12, 0, 917544, 12, 0, 917545, 12, 0, 917546, 12, 0, 917547, 12, 0, 917548, 12, 0, 917549, 12, 0, 917550, 12, 0, 917551, 12, 0, 917552, 12, 0, 917553, 12, 0, 917554, 12, 0, 917555, 12, 0, 917556, 12, 0, 917557, 12, 0, 917558, 12, 0, 917559, 12, 0, 917560, 12, 0, 917561, 12, 0, 917562, 12, 0, 917563, 12, 0, 917564, 12, 0, 917565, 12, 0, 917566, 12, 0, 917567, 12, 0, 983040, -1073741812, 0, 983041, -1610612723, 0, 983049, -2147483635, 0, 983050, -536870899, 0, 983070, -1073741811, 0, 983071, 12, 0, 983072, 12, 0, 983073, 12, 0, 983074, 12, 0, 983075, 12, 0, 983076, 12, 0, 983077, 12, 0, 983078, 12, 0, 983079, 12, 0, 983080, 12, 0, 983081, 12, 0, 983082, 12, 0, 983083, 12, 0, 983084, 12, 0, 983085, 12, 0, 983086, 12, 0, 983087, 12, 0, 983088, 12, 0, 983089, 12, 0, 983090, 12, 0, 983091, 12, 0, 983092, 12, 0, 983093, 12, 0, 983094, 12, 0, 983095, 12, 0, 983096, 12, 0, 983097, 12, 0, 983098, 12, 0, 983099, 12, 0, 983100, 12, 0, 983101, 12, 0, 983102, 12, 0, 983103, 12, 0, 1048576, -1073741812, 0, 1048577, -1073741800, 0, 1048578, 16, 0, 1048584, -1073741807, 0, 1048585, 1073741842, 0, 1048586, -536870899, 0, 1048606, -1073741811, 0, 1048607, 12, 0, 1048608, 12, 0, 1048609, 12, 0, 1048610, 12, 0, 1048611, 12, 0, 1048612, 12, 0, 1048613, 12, 0, 1048614, 12, 0, 1048615, 12, 0, 1048616, 12, 0, 1048617, 12, 0, 1048618, 12, 0, 1048619, 12, 0, 1048620, 12, 0, 1048621, 12, 0, 1048622, 12, 0, 1048623, 12, 0, 1048624, 12, 0, 1048625, 12, 0, 1048626, 12, 0, 1048627, 12, 0, 1048628, 12, 0, 1048629, 12, 0, 1048630, 12, 0, 1048631, 12, 0, 1048632, 12, 0, 1048633, 12, 0, 1048634, 12, 0, 1048635, 12, 0, 1048636, 12, 0, 1048637, 12, 0, 1048638, 12, 0, 1048639, 12, 0, 1114112, -1073741812, 0, 1114113, -1610612723, 0, 1114120, -1073741811, 0, 1114121, -536870900, 0, 1114122, -536870899, 0, 1114142, -1073741811, 0, 1114143, 1610612748, 0, 1114144, 1610612748, 0, 1114145, 1610612748, 0, 1114146, 1610612748, 0, 1114147, 1610612748, 0, 1114148, 1610612748, 0, 1114149, 1610612748, 0, 1114150, 1610612748, 0, 1114151, 1610612748, 0, 1114152, 1610612748, 0, 1114153, 1610612748, 0, 1114154, 1610612748, 0, 1114155, 1610612748, 0, 1114156, 1610612748, 0, 1114157, 1610612748, 0, 1114158, 1610612748, 0, 1114159, 1610612748, 0, 1114160, 1610612748, 0, 1114161, 1610612748, 0, 1114162, 1610612748, 0, 1114163, 1610612748, 0, 1114164, 1610612748, 0, 1114165, 1610612748, 0, 1114166, 1610612748, 0, 1114167, 1610612748, 0, 1114168, 1610612748, 0, 1114169, 1610612748, 0, 1114170, 1610612748, 0, 1114171, 1610612748, 0, 1114172, 1610612748, 0, 1114173, 1610612748, 0, 1114174, 1610612748, 0, 1114175, 12, 0, 1179648, -1073741812, 0, 1179649, -1610612723, 0, 1179656, 1610612753, 0, 1179657, -536870894, 0, 1179658, -2147483630, 0, 1179659, 536870925, 0, 1179660, 536870925, 0, 1179661, 536870925, 0, 1179662, 536870925, 0, 1179663, 536870925, 0, 1179664, 536870925, 0, 1179665, 536870925, 0, 1179666, 536870925, 0, 1179667, 17, 0, 1179673, -1073741807, 0, 1179674, 13, 0, 1179675, 13, 0, 1179676, 13, 0, 1179677, 13, 0, 1179678, -1610612718, 0, 1179679, 1610612748, 0, 1179680, 1610612748, 0, 1179681, 1610612748, 0, 1179682, 1610612748, 0, 1179683, 1610612748, 0, 1179684, -1073741806, 0, 1179685, 1073741837, 0, 1179686, 1073741837, 0, 1179687, 1073741837, 0, 1179688, 1073741837, 0, 1179689, 1073741837, 0, 1179690, 18, 0, 1179691, 1610612748, 0, 1179692, 1610612748, 0, 1179693, 1610612748, 0, 1179694, 1610612748, 0, 1179695, 1610612748, 0, 1179696, 1610612748, 0, 1179697, 1610612748, 0, 1179698, 1610612748, 0, 1179699, 1610612748, 0, 1179700, 1610612748, 0, 1179701, 1610612748, 0, 1179702, 1610612748, 0, 1179703, 1610612748, 0, 1179704, 1610612748, 0, 1179705, 1610612748, 0, 1179706, 1610612748, 0, 1179707, 1610612748, 0, 1179708, 1610612748, 0, 1179709, 1610612748, 0, 1179710, 1610612748, 0, 1179711, 12, 0, 1245184, -1073741812, 0, 1245185, -1610612723, 0, 1245193, -2147483631, 0, 1245194, 1073741837, 0, 1245195, 1073741837, 0, 1245196, 1073741837, 0, 1245197, 1073741837, 0, 1245198, 1073741837, 0, 1245199, 1073741837, 0, 1245200, 18, 0, 1245201, -1610612724, 0, 1245202, -1610612724, 0, 1245203, -1610612723, 0, 1245209, -2147483631, 0, 1245210, 18, 0, 1245211, 1610612748, 0, 1245212, 1610612748, 0, 1245213, 1610612748, 0, 1245214, 1610612748, 0, 1245215, -1073741806, 0, 1245216, 1073741837, 0, 1245217, 1073741837, 0, 1245218, 1073741837, 0, 1245219, 1073741837, 0, 1245220, 23, 0, 1245226, -1073741811, 0, 1245227, 1610612748, 0, 1245228, 1610612748, 0, 1245229, 1610612748, 0, 1245230, 1610612748, 0, 1245231, 1610612748, 0, 1245232, 1610612748, 0, 1245233, 1610612748, 0, 1245234, 1610612748, 0, 1245235, 1610612748, 0, 1245236, 1610612748, 0, 1245237, 1610612748, 0, 1245238, 1610612748, 0, 1245239, 1610612748, 0, 1245240, 1610612748, 0, 1245241, 1610612748, 0, 1245242, 1610612748, 0, 1245243, 1610612748, 0, 1245244, 1610612748, 0, 1245245, 1610612748, 0, 1245246, 1610612748, 0, 1245247, 12, 0, 1310720, -1073741812, 0, 1310721, -536870899, 0, 1310736, -1073741811, 0, 1310737, -1610612724, 0, 1310738, -1610612724, 0, 1310739, -1610612723, 0, 1310746, -2147483631, 0, 1310747, 18, 0, 1310748, 1610612748, 0, 1310749, 1610612748, 0, 1310750, -1073741806, 0, 1310751, 1073741841, 0, 1310756, -2147483632, 0, 1310762, -2147483631, 0, 1310763, 18, 0, 1310764, 1610612748, 0, 1310765, 1610612748, 0, 1310766, 1610612748, 0, 1310767, 1610612748, 0, 1310768, 1610612748, 0, 1310769, 1610612748, 0, 1310770, 1610612748, 0, 1310771, 1610612748, 0, 1310772, 1610612748, 0, 1310773, 1610612748, 0, 1310774, 1610612748, 0, 1310775, 1610612748, 0, 1310776, 1610612748, 0, 1310777, 1610612748, 0, 1310778, 1610612748, 0, 1310779, 1610612748, 0, 1310780, 1610612748, 0, 1310781, 1610612748, 0, 1310782, 1610612748, 0, 1310783, 12, 0, 1376256, -1073741812, 0, 1376257, -2147483630, 0, 1376258, -536870895, 0, 1376272, 1610612753, 0, 1376273, 18, 0, 1376274, -1610612724, 0, 1376275, -1610612723, 0, 1376283, -2147483631, 0, 1376284, 1073741837, 0, 1376285, 1073741837, 0, 1376286, 1073741841, 0, 1376299, -2147483635, 0, 1376300, 1610612748, 0, 1376301, 1610612748, 0, 1376302, 1610612748, 0, 1376303, 1610612748, 0, 1376304, 1610612748, 0, 1376305, 1610612748, 0, 1376306, 1610612748, 0, 1376307, 1610612748, 0, 1376308, 1610612748, 0, 1376309, 1610612748, 0, 1376310, 1610612748, 0, 1376311, 1610612748, 0, 1376312, 1610612748, 0, 1376313, 1610612748, 0, 1376314, 1610612748, 0, 1376315, 1610612748, 0, 1376316, 1610612748, 0, 1376317, 1610612748, 0, 1376318, 1610612748, 0, 1376319, 1610612748, 0, 1441792, -1073741812, 0, 1441793, -536870900, 0, 1441794, -2147483630, 0, 1441795, -536870895, 0, 1441809, 1610612753, 0, 1441810, 18, 0, 1441811, -1610612723, 0, 1441835, -2147483635, 0, 1441836, 1610612748, 0, 1441837, 1610612748, 0, 1441838, 1610612748, 0, 1441839, 1610612748, 0, 1441840, 1610612748, 0, 1441841, 1610612748, 0, 1441842, 1610612748, 0, 1441843, 1610612748, 0, 1441844, 1610612748, 0, 1441845, 1610612748, 0, 1441846, 1610612748, 0, 1441847, 1610612748, 0, 1441848, 1610612748, 0, 1441849, 1610612748, 0, 1441850, 1610612748, 0, 1441851, 1610612748, 0, 1441852, 1610612748, 0, 1441853, 1610612748, 0, 1441854, 1610612748, 0, 1441855, 1610612748, 0, 1507328, -1073741812, 0, 1507329, -536870900, 0, 1507330, -536870900, 0, 1507331, -2147483630, 0, 1507332, -536870895, 0, 1507346, -1073741811, 0, 1507347, 1610612754, 0, 1507348, 536870925, 0, 1507349, -536870895, 0, 1507361, 536870929, 0, 1507362, 536870925, 0, 1507363, -536870895, 0, 1507371, -2147483635, 0, 1507372, 1610612748, 0, 1507373, 1610612748, 0, 1507374, 1610612748, 0, 1507375, 1610612748, 0, 1507376, 1610612748, 0, 1507377, 1610612748, 0, 1507378, 1610612748, 0, 1507379, 1610612748, 0, 1507380, 1610612748, 0, 1507381, 1610612748, 0, 1507382, 1610612748, 0, 1507383, 1610612748, 0, 1507384, 1610612748, 0, 1507385, 1610612748, 0, 1507386, 1610612748, 0, 1507387, 1610612748, 0, 1507388, 1610612748, 0, 1507389, 1610612748, 0, 1507390, 1610612748, 0, 1507391, 1610612748, 0, 1572864, 1610612749, 0, 1572865, 1073741837, 0, 1572866, -536870894, 0, 1572867, -536870900, 0, 1572868, -2147483630, 0, 1572869, 536870925, 0, 1572870, 13, 0, 1572871, 13, 0, 1572872, 13, 0, 1572873, 13, 0, 1572874, 13, 0, 1572875, 13, 0, 1572876, 13, 0, 1572877, -536870895, 0, 1572882, -1073741811, 0, 1572883, 1610612748, 0, 1572884, 536870924, 0, 1572885, 1610612754, 0, 1572886, 536870925, 0, 1572887, 536870925, 0, 1572888, 536870925, 0, 1572889, -536870895, 0, 1572896, 536870929, 0, 1572897, -1610612718, 0, 1572898, 1610612748, 0, 1572899, -1610612723, 0, 1572907, -2147483635, 0, 1572908, 1610612748, 0, 1572909, 1610612748, 0, 1572910, 1610612748, 0, 1572911, 1610612748, 0, 1572912, 1610612748, 0, 1572913, 1610612748, 0, 1572914, 1610612748, 0, 1572915, 1610612748, 0, 1572916, 1610612748, 0, 1572917, 1610612748, 0, 1572918, 1610612748, 0, 1572919, 1610612748, 0, 1572920, 1610612748, 0, 1572921, 1610612748, 0, 1572922, 1610612748, 0, 1572923, 1610612748, 0, 1572924, 1610612748, 0, 1572925, 1610612748, 0, 1572926, 1610612748, 0, 1572927, 12, 0, 1638402, -2147483631, 0, 1638403, 1610612749, 0, 1638404, 1610612749, 0, 1638405, 1610612749, 0, 1638406, 1610612749, 0, 1638407, 1610612749, 0, 1638408, 1610612749, 0, 1638409, 1610612749, 0, 1638410, 1610612749, 0, 1638411, 1610612749, 0, 1638412, 1610612749, 0, 1638413, 1073741841, 0, 1638418, -1073741811, 0, 1638419, 1610612748, 0, 1638420, 1610612748, 0, 1638421, -1073741806, 0, 1638422, 1073741837, 0, 1638423, 1073741837, 0, 1638424, 1073741837, 0, 1638425, -2147483625, 0, 1638426, 15, 0, 1638427, 15, 0, 1638428, 15, 0, 1638429, 15, 0, 1638430, 15, 0, 1638431, 15, 0, 1638432, -1610612713, 0, 1638433, 1073741837, 0, 1638434, 1073741837, 0, 1638435, -2147483625, 0, 1638436, 16, 0, 1638442, 1610612752, 0, 1638443, -1610612713, 0, 1638444, 1610612749, 0, 1638445, 1610612749, 0, 1638446, 1610612749, 0, 1638447, 1610612749, 0, 1638448, 1610612749, 0, 1638449, 1610612749, 0, 1638450, 1610612749, 0, 1638451, 1610612749, 0, 1638452, 1610612749, 0, 1638453, 1610612749, 0, 1638454, 1610612749, 0, 1638455, 1610612749, 0, 1638456, 1610612749, 0, 1638457, 18, 0, 1638458, 1610612748, 0, 1638459, 536870924, 0, 1638460, 1610612748, 0, 1638461, 1610612748, 0, 1638462, 1610612748, 0, 1638463, 12, 0, 1703954, -1073741811, 0, 1703955, 1610612748, 0, 1703956, 1610612748, 0, 1703957, -536870899, 0, 1703993, -1073741811, 0, 1703994, 1610612748, 0, 1703995, 536870924, 0, 1703996, 536870924, 0, 1703997, 1610612748, 0, 1703998, 1610612748, 0, 1703999, 1610612748, 0, 1769490, -1073741811, 0, 1769491, 1610612748, 0, 1769492, 1610612748, 0, 1769493, -536870899, 0, 1769529, -2147483635, 0, 1769530, 536870924, 0, 1769531, 536870924, 0, 1769532, 536870924, 0, 1769533, 536870924, 0, 1769534, 1610612748, 0, 1769535, 12, 0, 1835025, -1073741807, 0, 1835026, 1073741838, 0, 1835027, 1073741837, 0, 1835028, 1073741837, 0, 1835029, 1073741841, 0, 1835065, -2147483631, 0, 1835066, 1073741837, 0, 1835067, 1073741837, 0, 1835068, 18, 0, 1835069, 536870924, 0, 1835070, 1610612748, 0, 1835071, 12, 0, 1900559, -1073741807, 0, 1900560, 13, 0, 1900561, -1610612718, 0, 1900562, -536870899, 0, 1900604, -1073741811, 0, 1900605, 536870924, 0, 1900606, 536870924, 0, 1900607, 12, 0, 1966080, -1073741807, 0, 1966081, 13, 0, 1966082, 13, 0, 1966083, 13, 0, 1966084, 13, 0, 1966085, 13, 0, 1966086, 13, 0, 1966087, 13, 0, 1966088, 13, 0, 1966089, 13, 0, 1966090, 13, 0, 1966091, 13, 0, 1966092, 13, 0, 1966093, 13, 0, 1966094, 13, 0, 1966095, -1610612718, 0, 1966096, -1073741812, 0, 1966097, -1073741812, 0, 1966098, -536870899, 0, 1966140, -1073741811, 0, 1966141, 536870924, 0, 1966142, 536870924, 0, 1966143, 12, 0, 2031616, -1610612718, 0, 2031617, 12, 0, 2031618, 12, 0, 2031619, 12, 0, 2031620, 12, 0, 2031621, 12, 0, 2031622, 12, 0, 2031623, 12, 0, 2031624, 12, 0, 2031625, 12, 0, 2031626, 12, 0, 2031627, 12, 0, 2031628, 12, 0, 2031629, 12, 0, 2031630, 12, 0, 2031631, 12, 0, 2031632, 12, 0, 2031633, 1610612748, 0, 2031634, -536870899, 0, 2031676, -1073741811, 0, 2031677, 536870924, 0, 2031678, 536870924, 0, 2031679, 12, 0, 2097152, 12, 0, 2097153, 12, 0, 2097154, 12, 0, 2097155, 12, 0, 2097156, 12, 0, 2097157, 12, 0, 2097158, 12, 0, 2097159, 12, 0, 2097160, 12, 0, 2097161, 12, 0, 2097162, 12, 0, 2097163, 12, 0, 2097164, 12, 0, 2097165, 12, 0, 2097166, 12, 0, 2097167, 12, 0, 2097168, 12, 0, 2097169, 1610612748, 0, 2097170, -536870899, 0, 2097212, -1073741811, 0, 2097213, 536870924, 0, 2097214, 536870924, 0, 2097215, 12, 0, 2162688, 12, 0, 2162689, 12, 0, 2162690, 12, 0, 2162691, 12, 0, 2162692, 12, 0, 2162693, 12, 0, 2162694, 12, 0, 2162695, 12, 0, 2162696, 12, 0, 2162697, 12, 0, 2162698, 12, 0, 2162699, 12, 0, 2162700, 12, 0, 2162701, 12, 0, 2162702, 12, 0, 2162703, 12, 0, 2162704, 12, 0, 2162705, 1610612748, 0, 2162706, -536870899, 0, 2162748, -1073741811, 0, 2162749, 536870924, 0, 2162750, 536870924, 0, 2162751, 12, 0, 2228224, 12, 0, 2228225, 12, 0, 2228226, 12, 0, 2228227, 12, 0, 2228228, 12, 0, 2228229, 12, 0, 2228230, 12, 0, 2228231, 12, 0, 2228232, 12, 0, 2228233, 12, 0, 2228234, 12, 0, 2228235, 12, 0, 2228236, 12, 0, 2228237, 12, 0, 2228238, 12, 0, 2228239, 12, 0, 2228240, 1610612748, 0, 2228241, 1610612748, 0, 2228242, -536870899, 0, 2228284, -1073741811, 0, 2228285, 536870924, 0, 2228286, 536870924, 0, 2228287, 12, 0, 2293760, 12, 0, 2293761, 12, 0, 2293762, 12, 0, 2293763, 12, 0, 2293764, 12, 0, 2293765, 12, 0, 2293766, 12, 0, 2293767, 12, 0, 2293768, 12, 0, 2293769, 12, 0, 2293770, 12, 0, 2293771, 12, 0, 2293772, 12, 0, 2293773, 12, 0, 2293774, 12, 0, 2293775, 12, 0, 2293776, 1610612748, 0, 2293777, 1610612748, 0, 2293778, -536870899, 0, 2293820, -1073741811, 0, 2293821, 536870924, 0, 2293822, 536870924, 0, 2293823, 12, 0, 2359296, 12, 0, 2359297, 12, 0, 2359298, 12, 0, 2359299, 12, 0, 2359300, 12, 0, 2359301, 12, 0, 2359302, 12, 0, 2359303, 12, 0, 2359304, 12, 0, 2359305, 12, 0, 2359306, 12, 0, 2359307, 12, 0, 2359308, 12, 0, 2359309, 12, 0, 2359310, 12, 0, 2359311, 12, 0, 2359312, 1610612748, 0, 2359313, 1610612748, 0, 2359314, -536870899, 0, 2359356, -1073741811, 0, 2359357, 536870924, 0, 2359358, 536870924, 0, 2359359, 12, 0, 2424832, 12, 0, 2424833, 12, 0, 2424834, 12, 0, 2424835, 12, 0, 2424836, 12, 0, 2424837, 12, 0, 2424838, 12, 0, 2424839, 12, 0, 2424840, 12, 0, 2424841, 12, 0, 2424842, 12, 0, 2424843, 12, 0, 2424844, 12, 0, 2424845, 12, 0, 2424846, 12, 0, 2424847, 12, 0, 2424848, 1610612748, 0, 2424849, 1610612748, 0, 2424850, -536870899, 0, 2424892, -1073741811, 0, 2424893, 536870924, 0, 2424894, 536870924, 0, 2424895, 12, 0, 2490368, 12, 0, 2490369, 12, 0, 2490370, 12, 0, 2490371, 12, 0, 2490372, 12, 0, 2490373, 12, 0, 2490374, 12, 0, 2490375, 12, 0, 2490376, 12, 0, 2490377, 12, 0, 2490378, 12, 0, 2490379, 12, 0, 2490380, 12, 0, 2490381, 12, 0, 2490382, 12, 0, 2490383, 12, 0, 2490384, 1610612748, 0, 2490385, 1610612748, 0, 2490386, -536870899, 0, 2490428, -1073741811, 0, 2490429, 536870924, 0, 2490430, 536870924, 0, 2490431, 12, 0, 2555904, 12, 0, 2555905, 12, 0, 2555906, 12, 0, 2555907, 12, 0, 2555908, 12, 0, 2555909, 12, 0, 2555910, 12, 0, 2555911, 12, 0, 2555912, 12, 0, 2555913, 12, 0, 2555914, 12, 0, 2555915, 12, 0, 2555916, 12, 0, 2555917, 12, 0, 2555918, 12, 0, 2555919, 12, 0, 2555920, 1610612748, 0, 2555921, 1610612748, 0, 2555922, -536870899, 0, 2555964, -1073741811, 0, 2555965, 536870924, 0, 2555966, 536870924, 0, 2555967, 12, 0, 2621440, 12, 0, 2621441, 12, 0, 2621442, 12, 0, 2621443, 12, 0, 2621444, 12, 0, 2621445, 12, 0, 2621446, 12, 0, 2621447, 12, 0, 2621448, 12, 0, 2621449, 12, 0, 2621450, 12, 0, 2621451, 12, 0, 2621452, 12, 0, 2621453, 12, 0, 2621454, 12, 0, 2621455, 12, 0, 2621456, 1610612748, 0, 2621457, 1610612748, 0, 2621458, -536870899, 0, 2621500, -1073741811, 0, 2621501, 536870924, 0, 2621502, 536870924, 0, 2621503, 12, 0, 2686976, 12, 0, 2686977, 12, 0, 2686978, 12, 0, 2686979, 12, 0, 2686980, 12, 0, 2686981, 12, 0, 2686982, 12, 0, 2686983, 12, 0, 2686984, 12, 0, 2686985, 12, 0, 2686986, 12, 0, 2686987, 12, 0, 2686988, 12, 0, 2686989, 12, 0, 2686990, 12, 0, 2686991, 12, 0, 2686992, 1610612748, 0, 2686993, 1610612748, 0, 2686994, -536870899, 0, 2687036, -1073741811, 0, 2687037, 536870924, 0, 2687038, 536870924, 0, 2687039, 12, 0, 2752512, 12, 0, 2752513, 12, 0, 2752514, 12, 0, 2752515, 12, 0, 2752516, 12, 0, 2752517, 12, 0, 2752518, 12, 0, 2752519, 12, 0, 2752520, 12, 0, 2752521, 12, 0, 2752522, 12, 0, 2752523, 12, 0, 2752524, 12, 0, 2752525, 12, 0, 2752526, 12, 0, 2752527, 12, 0, 2752528, 12, 0, 2752529, 1610612748, 0, 2752530, -536870899, 0, 2752572, -1073741811, 0, 2752573, 536870924, 0, 2752574, 536870924, 0, 2752575, 12, 0, 2818048, 12, 0, 2818049, 12, 0, 2818050, 12, 0, 2818051, 12, 0, 2818052, 12, 0, 2818053, 12, 0, 2818054, 12, 0, 2818055, 12, 0, 2818056, 12, 0, 2818057, 12, 0, 2818058, 12, 0, 2818059, 12, 0, 2818060, 12, 0, 2818061, 12, 0, 2818062, 12, 0, 2818063, 12, 0, 2818064, 12, 0, 2818065, 1610612748, 0, 2818066, -536870899, 0, 2818108, -1073741811, 0, 2818109, 536870924, 0, 2818110, 536870924, 0, 2818111, 12, 0, 2883584, 12, 0, 2883585, 12, 0, 2883586, 12, 0, 2883587, 12, 0, 2883588, 12, 0, 2883589, 12, 0, 2883590, 12, 0, 2883591, 12, 0, 2883592, 12, 0, 2883593, 12, 0, 2883594, 12, 0, 2883595, 12, 0, 2883596, 12, 0, 2883597, 12, 0, 2883598, 12, 0, 2883599, 12, 0, 2883600, 12, 0, 2883601, 1610612748, 0, 2883602, -536870899, 0, 2883644, -1073741811, 0, 2883645, 536870924, 0, 2883646, 536870924, 0, 2883647, 12, 0, 2949120, 12, 0, 2949121, 12, 0, 2949122, 12, 0, 2949123, 12, 0, 2949124, 12, 0, 2949125, 12, 0, 2949126, 12, 0, 2949127, 12, 0, 2949128, 12, 0, 2949129, 12, 0, 2949130, 12, 0, 2949131, 12, 0, 2949132, 12, 0, 2949133, 12, 0, 2949134, 12, 0, 2949135, 12, 0, 2949136, 12, 0, 2949137, 1610612748, 0, 2949138, -536870899, 0, 2949180, -1073741811, 0, 2949181, 536870924, 0, 2949182, 536870924, 0, 2949183, 12, 0, 3014656, 12, 0, 3014657, 12, 0, 3014658, 12, 0, 3014659, 12, 0, 3014660, 12, 0, 3014661, 12, 0, 3014662, 12, 0, 3014663, 12, 0, 3014664, 12, 0, 3014665, 12, 0, 3014666, 12, 0, 3014667, 12, 0, 3014668, 12, 0, 3014669, 12, 0, 3014670, 12, 0, 3014671, 12, 0, 3014672, 12, 0, 3014673, 1610612748, 0, 3014674, -536870899, 0, 3014716, -1073741811, 0, 3014717, 536870924, 0, 3014718, 536870924, 0, 3014719, 12, 0, 3080192, 12, 0, 3080193, 12, 0, 3080194, 12, 0, 3080195, 12, 0, 3080196, 12, 0, 3080197, 12, 0, 3080198, 12, 0, 3080199, 12, 0, 3080200, 12, 0, 3080201, 12, 0, 3080202, 12, 0, 3080203, 12, 0, 3080204, 12, 0, 3080205, 12, 0, 3080206, 12, 0, 3080207, 12, 0, 3080208, 12, 0, 3080209, 1610612748, 0, 3080210, -536870899, 0, 3080252, -1073741811, 0, 3080253, 536870924, 0, 3080254, 536870924, 0, 3080255, 12, 0, 3145728, 12, 0, 3145729, 12, 0, 3145730, 12, 0, 3145731, 12, 0, 3145732, 12, 0, 3145733, 12, 0, 3145734, 12, 0, 3145735, 12, 0, 3145736, 12, 0, 3145737, 12, 0, 3145738, 12, 0, 3145739, 12, 0, 3145740, 12, 0, 3145741, 12, 0, 3145742, 12, 0, 3145743, 12, 0, 3145744, 12, 0, 3145745, 1610612748, 0, 3145746, -536870899, 0, 3145788, -1073741811, 0, 3145789, 536870924, 0, 3145790, 536870924, 0, 3145791, 12, 0, 3211264, 12, 0, 3211265, 12, 0, 3211266, 12, 0, 3211267, 12, 0, 3211268, 12, 0, 3211269, 12, 0, 3211270, 12, 0, 3211271, 12, 0, 3211272, 12, 0, 3211273, 12, 0, 3211274, 12, 0, 3211275, 12, 0, 3211276, 12, 0, 3211277, 12, 0, 3211278, 12, 0, 3211279, 12, 0, 3211280, 12, 0, 3211281, 1610612748, 0, 3211282, -536870899, 0, 3211324, -1073741811, 0, 3211325, 536870924, 0, 3211326, 536870924, 0, 3211327, 12, 0, 3276800, 12, 0, 3276801, 12, 0, 3276802, 12, 0, 3276803, 12, 0, 3276804, 12, 0, 3276805, 12, 0, 3276806, 12, 0, 3276807, 12, 0, 3276808, 12, 0, 3276809, 12, 0, 3276810, 12, 0, 3276811, 12, 0, 3276812, 12, 0, 3276813, 12, 0, 3276814, 12, 0, 3276815, 12, 0, 3276816, 12, 0, 3276817, 1610612748, 0, 3276818, -536870899, 0, 3276860, -1073741811, 0, 3276861, 536870924, 0, 3276862, 536870924, 0, 3276863, 12, 0, 3342336, 12, 0, 3342337, 12, 0, 3342338, 12, 0, 3342339, 12, 0, 3342340, 12, 0, 3342341, 12, 0, 3342342, 12, 0, 3342343, 12, 0, 3342344, 12, 0, 3342345, 12, 0, 3342346, 12, 0, 3342347, 12, 0, 3342348, 12, 0, 3342349, 12, 0, 3342350, 12, 0, 3342351, 12, 0, 3342352, 12, 0, 3342353, 1610612748, 0, 3342354, -536870899, 0, 3342396, -1073741811, 0, 3342397, 536870924, 0, 3342398, 536870924, 0, 3342399, 12, 0, 3407872, 12, 0, 3407873, 12, 0, 3407874, 12, 0, 3407875, 12, 0, 3407876, 12, 0, 3407877, 12, 0, 3407878, 12, 0, 3407879, 12, 0, 3407880, 12, 0, 3407881, 12, 0, 3407882, 12, 0, 3407883, 12, 0, 3407884, 12, 0, 3407885, 12, 0, 3407886, 12, 0, 3407887, 12, 0, 3407888, 12, 0, 3407889, 1610612748, 0, 3407890, -536870899, 0, 3407932, -1073741811, 0, 3407933, 536870924, 0, 3407934, 536870924, 0, 3407935, 12, 0, 3473408, 12, 0, 3473409, 12, 0, 3473410, 12, 0, 3473411, 12, 0, 3473412, 12, 0, 3473413, 12, 0, 3473414, 12, 0, 3473415, 12, 0, 3473416, 12, 0, 3473417, 12, 0, 3473418, 12, 0, 3473419, 12, 0, 3473420, 12, 0, 3473421, 12, 0, 3473422, 12, 0, 3473423, 12, 0, 3473424, 12, 0, 3473425, 1610612748, 0, 3473426, -536870899, 0, 3473468, -1073741811, 0, 3473469, 536870924, 0, 3473470, 536870924, 0, 3473471, -1073741812, 0, 3538944, 12, 0, 3538945, 12, 0, 3538946, 12, 0, 3538947, 12, 0, 3538948, 12, 0, 3538949, 12, 0, 3538950, 12, 0, 3538951, 12, 0, 3538952, 12, 0, 3538953, 12, 0, 3538954, 12, 0, 3538955, 12, 0, 3538956, 12, 0, 3538957, 12, 0, 3538958, 12, 0, 3538959, 12, 0, 3538960, 12, 0, 3538961, 1610612748, 0, 3538962, -536870899, 0, 3539004, -1073741811, 0, 3539005, 536870924, 0, 3539006, 536870924, 0, 3539007, -1073741812, 0, 3604480, 12, 0, 3604481, 12, 0, 3604482, 12, 0, 3604483, 12, 0, 3604484, 12, 0, 3604485, 12, 0, 3604486, 12, 0, 3604487, 12, 0, 3604488, 12, 0, 3604489, 12, 0, 3604490, 12, 0, 3604491, 12, 0, 3604492, 12, 0, 3604493, 12, 0, 3604494, 12, 0, 3604495, 12, 0, 3604496, 12, 0, 3604497, 1610612748, 0, 3604498, -536870899, 0, 3604540, -1073741811, 0, 3604541, 536870924, 0, 3604542, 536870924, 0, 3604543, -1073741812, 0, 3670016, 12, 0, 3670017, 12, 0, 3670018, 12, 0, 3670019, 12, 0, 3670020, 12, 0, 3670021, 12, 0, 3670022, 12, 0, 3670023, 12, 0, 3670024, 12, 0, 3670025, 12, 0, 3670026, 12, 0, 3670027, 12, 0, 3670028, 12, 0, 3670029, 12, 0, 3670030, 12, 0, 3670031, 12, 0, 3670032, 12, 0, 3670033, 1610612748, 0, 3670034, -536870899, 0, 3670076, -1073741811, 0, 3670077, 536870924, 0, 3670078, 536870924, 0, 3670079, -1073741812, 0, 3735552, 12, 0, 3735553, 12, 0, 3735554, 12, 0, 3735555, 12, 0, 3735556, 12, 0, 3735557, 12, 0, 3735558, 12, 0, 3735559, 12, 0, 3735560, 12, 0, 3735561, 12, 0, 3735562, 12, 0, 3735563, 12, 0, 3735564, 12, 0, 3735565, 12, 0, 3735566, 12, 0, 3735567, 12, 0, 3735568, 12, 0, 3735569, 12, 0, 3735570, -536870899, 0, 3735612, -1073741811, 0, 3735613, 536870924, 0, 3735614, 536870924, 0, 3735615, -1073741812, 0, 3801088, 12, 0, 3801089, 12, 0, 3801090, 12, 0, 3801091, 12, 0, 3801092, 12, 0, 3801093, 12, 0, 3801094, 12, 0, 3801095, 12, 0, 3801096, 12, 0, 3801097, 12, 0, 3801098, 12, 0, 3801099, 12, 0, 3801100, 12, 0, 3801101, 12, 0, 3801102, 12, 0, 3801103, 12, 0, 3801104, 12, 0, 3801105, 12, 0, 3801106, -536870899, 0, 3801148, -1073741811, 0, 3801149, 536870924, 0, 3801150, 536870924, 0, 3801151, -1073741812, 0, 3866624, 12, 0, 3866625, 12, 0, 3866626, 12, 0, 3866627, 12, 0, 3866628, 12, 0, 3866629, 12, 0, 3866630, 12, 0, 3866631, 12, 0, 3866632, 12, 0, 3866633, 12, 0, 3866634, 12, 0, 3866635, 12, 0, 3866636, 12, 0, 3866637, 12, 0, 3866638, 12, 0, 3866639, 12, 0, 3866640, 12, 0, 3866641, 12, 0, 3866642, 1610612754, 0, 3866643, 536870925, 0, 3866644, 536870925, 0, 3866645, -536870895, 0, 3866681, 536870929, 0, 3866682, 13, 0, 3866683, 536870925, 0, 3866684, -1610612718, 0, 3866685, 1610612748, 0, 3866686, -1073741812, 0, 3866687, -1073741812, 0, 3932160, 12, 0, 3932161, 12, 0, 3932162, 12, 0, 3932163, 12, 0, 3932164, 12, 0, 3932165, 12, 0, 3932166, 12, 0, 3932167, 12, 0, 3932168, 12, 0, 3932169, 12, 0, 3932170, 12, 0, 3932171, 12, 0, 3932172, 12, 0, 3932173, 12, 0, 3932174, 12, 0, 3932175, 12, 0, 3932176, 12, 0, 3932177, 1610612748, 0, 3932178, 1610612748, 0, 3932179, 1610612748, 0, 3932180, 1610612748, 0, 3932181, -536870899, 0, 3932217, -1073741811, 0, 3932218, 536870924, 0, 3932219, 536870924, 0, 3932220, 1610612748, 0, 3932221, 1610612748, 0, 3932222, -1073741812, 0, 3932223, -1073741812, 0, 3997696, 12, 0, 3997697, 12, 0, 3997698, 12, 0, 3997699, 12, 0, 3997700, 12, 0, 3997701, 12, 0, 3997702, 12, 0, 3997703, 12, 0, 3997704, 12, 0, 3997705, 12, 0, 3997706, 12, 0, 3997707, 12, 0, 3997708, 12, 0, 3997709, 12, 0, 3997710, 12, 0, 3997711, 12, 0, 3997712, 12, 0, 3997713, 12, 0, 3997714, 12, 0, 3997715, 12, 0, 3997716, 1610612748, 0, 3997717, -1610612723, 0, 3997753, -1073741811, 0, 3997754, -1610612724, 0, 3997755, -1610612724, 0, 3997756, -1610612724, 0, 3997757, -1610612724, 0, 3997758, -1073741812, 0, 3997759, -1073741812, 0, 4063232, 12, 0, 4063233, 12, 0, 4063234, 12, 0, 4063235, 12, 0, 4063236, 12, 0, 4063237, 12, 0, 4063238, 12, 0, 4063239, 12, 0, 4063240, 12, 0, 4063241, 12, 0, 4063242, 12, 0, 4063243, 12, 0, 4063244, 12, 0, 4063245, 12, 0, 4063246, 12, 0, 4063247, 12, 0, 4063248, 12, 0, 4063249, 12, 0, 4063250, 12, 0, 4063251, 12, 0, 4063252, 12, 0, 4063253, 1610612754, 0, 4063254, 13, 0, 4063255, 13, 0, 4063256, 13, 0, 4063257, 13, 0, 4063258, 13, 0, 4063259, 13, 0, 4063260, 13, 0, 4063261, 13, 0, 4063262, 13, 0, 4063263, 13, 0, 4063264, 13, 0, 4063265, 13, 0, 4063266, 13, 0, 4063267, 13, 0, 4063268, 17, 0, 4063274, 536870928, 0, 4063275, 536870927, 0, 4063276, -536870889, 0, 4063277, 13, 0, 4063278, 13, 0, 4063279, 13, 0, 4063280, 13, 0, 4063281, 13, 0, 4063282, 13, 0, 4063283, 13, 0, 4063284, 13, 0, 4063285, 13, 0, 4063286, 13, 0, 4063287, 13, 0, 4063288, 13, 0, 4063289, -1610612718, 0, 4063290, -1610612724, 0, 4063291, -1610612724, 0, 4063292, -1610612724, 0, 4063293, -1610612724, 0, 4063294, -1073741812, 0, 4063295, -1073741812, 0, 4128768, 12, 0, 4128769, 12, 0, 4128770, 12, 0, 4128771, 12, 0, 4128772, 12, 0, 4128773, 12, 0, 4128774, 12, 0, 4128775, 12, 0, 4128776, 12, 0, 4128777, 12, 0, 4128778, 12, 0, 4128779, 12, 0, 4128780, 12, 0, 4128781, 12, 0, 4128782, 12, 0, 4128783, 12, 0, 4128784, 12, 0, 4128785, 12, 0, 4128786, 12, 0, 4128787, 12, 0, 4128788, 12, 0, 4128789, 12, 0, 4128790, 12, 0, 4128791, 12, 0, 4128792, 12, 0, 4128793, 12, 0, 4128794, 12, 0, 4128795, 12, 0, 4128796, 12, 0, 4128797, 12, 0, 4128798, 12, 0, 4128799, 12, 0, 4128800, 12, 0, 4128801, 1610612748, 0, 4128802, 1610612748, 0, 4128803, 1610612748, 0, 4128804, -1610612723, 0, 4128812, 1610612753, 0, 4128813, 18, 0, 4128814, 1610612748, 0, 4128815, 12, 0, 4128816, 12, 0, 4128817, -1610612724, 0, 4128818, -1610612724, 0, 4128819, -1610612724, 0, 4128820, -1610612724, 0, 4128821, -1610612724, 0, 4128822, -1610612724, 0, 4128823, -1610612724, 0, 4128824, -1610612724, 0, 4128825, -1610612724, 0, 4128826, -1610612724, 0, 4128827, -1610612724, 0, 4128828, -1610612724, 0, 4128829, -1610612724, 0, 4128830, -1073741812, 0, 4128831, -1073741812, 0, 4194337, -1073741812, 0, 4194338, -1073741812, 0, 4194339, -1073741812, 0, 4194340, -1610612723, 0, 4194349, -1073741811, 0, 4194350, -1073741812, 0, 4259873, -1073741812, 0, 4259874, -1073741812, 0, 4259875, -1073741812, 0, 4259876, -1610612723, 0, 4259885, -1073741811, 0, 4259886, -1073741812, 0, 4325409, -1073741812, 0, 4325410, -1073741812, 0, 4325411, -1073741812, 0, 4325412, -1610612723, 0, 4325421, -1073741811, 0, 4325422, -1073741812, 0, 4390945, -1073741812, 0, 4390946, -1073741812, 0, 4390947, -1073741812, 0, 4390948, -1610612723, 0, 4390957, -1073741811, 0, 4390958, -1073741812, 0, 4456481, -1073741812, 0, 4456482, -1073741812, 0, 4456483, -1073741812, 0, 4456484, -1610612723, 0, 4456492, -1073741807, 0, 4456493, -1610612718, 0, 4456494, -1073741812, 0, 4522017, -1073741812, 0, 4522018, -1073741812, 0, 4522019, -1073741812, 0, 4522020, -1610612723, 0, 4522026, -1073741807, 0, 4522027, 13, 0, 4522028, -1610612718, 0, 4522029, -1073741812, 0, 4522030, -1073741812, 0, 4587553, -1073741812, 0, 4587554, -1073741812, 0, 4587555, -1073741812, 0, 4587556, -1610612723, 0, 4587562, -1073741811, 0, 4587563, -1073741812, 0, 4587564, -1073741812, 0, 4587565, -1073741812, 0, 4587566, -1073741812, 0, 4653089, -1073741812, 0, 4653090, -1073741812, 0, 4653091, -1073741812, 0, 4653092, -1610612723, 0, 4653098, -1073741811, 0, 4653099, -1073741812, 0, 4653100, -1073741812, 0, 4653101, -1073741812, 0, 4653102, -1073741812, 0, 4718625, -1073741812, 0, 4718626, -1073741812, 0, 4718627, -1073741812, 0, 4718628, -1610612723, 0, 4718634, -1073741811, 0, 4718635, -1073741812, 0, 4718636, -1073741812, 0, 4718637, -1073741812, 0, 4718638, -1073741812, 0, 4784161, -1073741812, 0, 4784162, -1073741812, 0, 4784163, -1073741812, 0, 4784164, -1610612723, 0, 4784170, -1073741811, 0, 4784171, -1073741812, 0, 4784172, -1073741812, 0, 4784173, -1073741812, 0, 4784174, -1073741812, 0, 4849697, -1073741812, 0, 4849698, -1073741812, 0, 4849699, -1073741812, 0, 4849700, -1073741800, 0, 4849701, 16, 0, 4849705, 1610612752, 0, 4849706, -1610612712, 0, 4849707, -1073741812, 0, 4849708, -1073741812, 0, 4849709, -1073741812, 0, 4849710, -1073741812, 0, 4915233, -1073741812, 0, 4915234, -1073741806, 0, 4915235, 1610612749, 0, 4915236, -1610612719, 0, 4915242, 1610612753, 0, 4915243, 1610612749, 0, 4915244, 18, 0, 4915245, -1073741812, 0, 4915246, -1073741812, 0, 4980769, -1073741812, 0, 4980770, -1610612723, 0, 4980780, -1073741811, 0, 4980781, -1073741812, 0, 4980782, -1073741812, 0, 5046305, -1073741812, 0, 5046306, -1610612723, 0, 5046316, -1073741811, 0, 5046317, -1073741812, 0, 5046318, -1073741812, 0, 5111841, -1073741812, 0, 5111842, 1610612754, 0, 5111843, 17, 0, 5111851, -1073741807, 0, 5111852, -1610612718, 0, 5111853, -1073741812, 0, 5111854, -1073741812, 0, 5177377, -1073741812, 0, 5177378, -1073741812, 0, 5177379, 1610612754, 0, 5177380, 17, 0, 5177386, -1073741807, 0, 5177387, -1610612718, 0, 5177388, -1073741812, 0, 5177389, -1073741812, 0, 5177390, -1073741812, 0, 5242913, -1073741812, 0, 5242914, -1073741812, 0, 5242915, -1073741812, 0, 5242916, 1610612754, 0, 5242917, 13, 0, 5242918, 13, 0, 5242919, 13, 0, 5242920, 13, 0, 5242921, 13, 0, 5242922, -1610612718, 0, 5242923, -1073741812, 0, 5242924, -1073741812, 0, 5242925, -1073741812, 0, 5242926, -1073741812, 0, 5308449, -1073741812, 0, 5308450, 12, 0, 5308451, 12, 0, 5308452, 12, 0, 5308453, 12, 0, 5308454, 12, 0, 5308455, 12, 0, 5308456, 12, 0, 5308457, 12, 0, 5308458, 12, 0, 5308459, -1073741812, 0, 5308460, -1073741812, 0, 5308461, -1073741812, 0, 5308462, -1073741812, 0 )

[node name="Button" parent="." instance=ExtResource( 2 )]
position = Vector2( 1888, 224 )
rotation = 4.71238

[node name="Turret" parent="." instance=ExtResource( 6 )]
position = Vector2( 480, 1184 )
rotation = -1.57079

[node name="Turret2" parent="." instance=ExtResource( 6 )]
position = Vector2( 480, 544 )
rotation = -1.57079

[node name="Turret4" parent="." instance=ExtResource( 6 )]
position = Vector2( 1504, 640 )
rotation = -1.57079

[node name="Turret6" parent="." instance=ExtResource( 6 )]
position = Vector2( 736, 1024 )
rotation = 1.57079

[node name="Switch" parent="." instance=ExtResource( 7 )]
position = Vector2( 160, 928 )
rotation = 1.57079

[node name="Switch2" parent="." instance=ExtResource( 7 )]
position = Vector2( 384, 224 )
rotation = -3.14159

[node name="HorizontalMovingPlatform3" parent="." instance=ExtResource( 8 )]
position = Vector2( 976, 808 )
Amplitude = 140
Frequency = 0.3
Phase = 3.142
Anti = true

[node name="HorizontalMovingPlatform4" parent="." instance=ExtResource( 8 )]
position = Vector2( 976, 856 )
rotation = 3.14159
Amplitude = 140
Frequency = 0.3
Anti = true

[node name="HorizontalMovingPlatform5" parent="." instance=ExtResource( 8 )]
position = Vector2( 1256, 424 )
Amplitude = 140
Frequency = 0.4
Phase = 3.142
Anti = true

[node name="HorizontalMovingPlatform6" parent="." instance=ExtResource( 8 )]
position = Vector2( 1256, 472 )
rotation = 3.14159
Amplitude = 140
Frequency = 0.4
Anti = true

[node name="TimeReversalCharge2" parent="." instance=ExtResource( 9 )]
position = Vector2( 1120, 256 )

[node name="TimeReversalCharge3" parent="." instance=ExtResource( 9 )]
position = Vector2( 800, 608 )

[node name="TimeReversalCharge4" parent="." instance=ExtResource( 9 )]
position = Vector2( 1440, 1024 )

[node name="VerticalMovingPlatform" parent="." instance=ExtResource( 10 )]
position = Vector2( 1792, 736 )
Amplitude = 448

[node name="Rocket" parent="." instance=ExtResource( 11 )]
position = Vector2( 288, 1856 )

[node name="Rocket2" parent="." instance=ExtResource( 11 )]
position = Vector2( 544, 1728 )

[node name="Rocket3" parent="." instance=ExtResource( 11 )]
position = Vector2( 800, 1856 )

[node name="Rocket4" parent="." instance=ExtResource( 11 )]
position = Vector2( 960, 1600 )

[node name="Rocket5" parent="." instance=ExtResource( 11 )]
position = Vector2( 768, 1472 )

[node name="Door_Boss" parent="." instance=ExtResource( 33 )]
position = Vector2( 96, 1760 )
rotation = -1.57079

[node name="DNA Sequencer" parent="." instance=ExtResource( 34 )]
position = Vector2( 2528, 5048 )
z_index = -2

[node name="Spikes_Corner9" parent="." instance=ExtResource( 35 )]
position = Vector2( 552, 424 )
rotation = 4.71238

[node name="Spikes_Corner10" parent="." instance=ExtResource( 35 )]
position = Vector2( 536, 152 )
rotation = 7.85397

[node name="Spikes_Corner11" parent="." instance=ExtResource( 35 )]
position = Vector2( 600, 88 )
rotation = 7.85397

[node name="Spikes_Corner14" parent="." instance=ExtResource( 35 )]
position = Vector2( 1696, 800 )
rotation = 6.28318

[node name="Spikes_Corner15" parent="." instance=ExtResource( 35 )]
position = Vector2( 1568, 928 )
rotation = 3.14159

[node name="Spikes_Corner3" parent="." instance=ExtResource( 35 )]
position = Vector2( 344, 1512 )

[node name="Spikes_Corner4" parent="." instance=ExtResource( 35 )]
position = Vector2( 552, 1240 )
rotation = 3.14159

[node name="Spikes10" parent="." instance=ExtResource( 5 )]
position = Vector2( 1752, 544 )

[node name="Spikes15" parent="." instance=ExtResource( 5 )]
position = Vector2( 1832, 352 )
rotation = 3.14159

[node name="Spikes11" parent="." instance=ExtResource( 5 )]
position = Vector2( 1696, 608 )
rotation = 1.57079

[node name="Spikes12" parent="." instance=ExtResource( 5 )]
position = Vector2( 1696, 480 )
rotation = 4.71238

[node name="Spikes13" parent="." instance=ExtResource( 5 )]
position = Vector2( 1888, 416 )
rotation = 1.57079

[node name="Spikes16" parent="." instance=ExtResource( 5 )]
position = Vector2( 1824, 736 )
rotation = 3.14159

[node name="Spikes17" parent="." instance=ExtResource( 5 )]
position = Vector2( 1888, 800 )
rotation = 1.57079

[node name="Spikes19" parent="." instance=ExtResource( 5 )]
position = Vector2( 1632, 984 )
rotation = 1.57079

[node name="Spikes20" parent="." instance=ExtResource( 5 )]
position = Vector2( 1696, 984 )
rotation = 1.57079

[node name="Spikes21" parent="." instance=ExtResource( 5 )]
position = Vector2( 1752, 928 )

[node name="Spikes22" parent="." instance=ExtResource( 5 )]
position = Vector2( 1752, 864 )

[node name="Spikes18" parent="." instance=ExtResource( 5 )]
position = Vector2( 1888, 672 )
rotation = 4.71238

[node name="SpringyPlatform" parent="." instance=ExtResource( 12 )]
position = Vector2( 1568, 1824 )

[node name="SpringyPlatform2" parent="." instance=ExtResource( 12 )]
position = Vector2( 1888, 1824 )

[node name="SpringyPlatform3" parent="." instance=ExtResource( 12 )]
position = Vector2( 2208, 1824 )

[node name="SpringyPlatform4" parent="." instance=ExtResource( 12 )]
position = Vector2( 3488, 1824 )

[node name="SpringyPlatform5" parent="." instance=ExtResource( 12 )]
position = Vector2( 3168, 1824 )

[node name="SpringyPlatform6" parent="." instance=ExtResource( 12 )]
position = Vector2( 2848, 1824 )

[node name="SpringyPlatform7" parent="." instance=ExtResource( 12 )]
position = Vector2( 2528, 1312 )

[node name="SpringyPlatform8" parent="." instance=ExtResource( 12 )]
position = Vector2( 1568, 3808 )

[node name="SpringyPlatform14" parent="." instance=ExtResource( 12 )]
position = Vector2( 1376, 3616 )
rotation = 1.57079

[node name="SpringyPlatform15" parent="." instance=ExtResource( 12 )]
position = Vector2( 1376, 3296 )
rotation = 1.57079

[node name="SpringyPlatform16" parent="." instance=ExtResource( 12 )]
position = Vector2( 1376, 2976 )
rotation = 1.57079

[node name="SpringyPlatform17" parent="." instance=ExtResource( 12 )]
position = Vector2( 1376, 2656 )
rotation = 1.57079

[node name="SpringyPlatform18" parent="." instance=ExtResource( 12 )]
position = Vector2( 1376, 2336 )
rotation = 1.57079

[node name="SpringyPlatform19" parent="." instance=ExtResource( 12 )]
position = Vector2( 1376, 2016 )
rotation = 1.57079

[node name="SpringyPlatform20" parent="." instance=ExtResource( 12 )]
position = Vector2( 3680, 3616 )
rotation = 1.57079

[node name="SpringyPlatform21" parent="." instance=ExtResource( 12 )]
position = Vector2( 3680, 3296 )
rotation = 1.57079

[node name="SpringyPlatform22" parent="." instance=ExtResource( 12 )]
position = Vector2( 3680, 2976 )
rotation = 1.57079

[node name="SpringyPlatform23" parent="." instance=ExtResource( 12 )]
position = Vector2( 3680, 2656 )
rotation = 1.57079

[node name="SpringyPlatform24" parent="." instance=ExtResource( 12 )]
position = Vector2( 3680, 2336 )
rotation = 1.57079

[node name="SpringyPlatform25" parent="." instance=ExtResource( 12 )]
position = Vector2( 3680, 2016 )
rotation = 1.57079

[node name="SpringyPlatform9" parent="." instance=ExtResource( 12 )]
position = Vector2( 1888, 3808 )

[node name="SpringyPlatform10" parent="." instance=ExtResource( 12 )]
position = Vector2( 2208, 3808 )

[node name="SpringyPlatform26" parent="." instance=ExtResource( 12 )]
position = Vector2( 2528, 4192 )

[node name="SpringyPlatform11" parent="." instance=ExtResource( 12 )]
position = Vector2( 3488, 3808 )

[node name="SpringyPlatform12" parent="." instance=ExtResource( 12 )]
position = Vector2( 3168, 3808 )

[node name="SpringyPlatform13" parent="." instance=ExtResource( 12 )]
position = Vector2( 2848, 3808 )
