[gd_scene load_steps=10 format=2]

[ext_resource path="res://sprites/TileSets/CrustTiles.tres" type="TileSet" id=1]
[ext_resource path="res://scenes/obstacles/SpringyPlatform.tscn" type="PackedScene" id=3]
[ext_resource path="res://scenes/obstacles/Rocket.tscn" type="PackedScene" id=4]
[ext_resource path="res://scenes/obstacles/Switch.tscn" type="PackedScene" id=5]
[ext_resource path="res://scenes/obstacles/Final Objective Item/Non-Newtonian Fluid.tscn" type="PackedScene" id=26]
[ext_resource path="res://scenes/obstacles/PressurePlateDoor.tscn" type="PackedScene" id=27]

[sub_resource type="RectangleShape2D" id=1]
extents = Vector2( 32, 32 )

[sub_resource type="RectangleShape2D" id=2]
extents = Vector2( 32, 32 )

[sub_resource type="RectangleShape2D" id=3]
extents = Vector2( 32, 32 )

[node name="Puzzle_001" type="Node2D"]

[node name="TileMap" type="TileMap" parent="."]
tile_set = ExtResource( 1 )
cell_custom_transform = Transform2D( 0, 0, 0, 0, 0, 0 )
format = 1
tile_data = PoolIntArray( 0, -2147483636, 0, 1, 1610612748, 0, 2, 1610612748, 0, 3, 1610612748, 0, 4, 1610612748, 0, 5, 12, 0, 6, 1610612748, 0, 7, 12, 0, 8, 12, 0, 9, 12, 0, 10, 12, 0, 11, 12, 0, 12, 12, 0, 13, 12, 0, 14, 12, 0, 15, 12, 0, 16, 12, 0, 17, 12, 0, 18, 12, 0, 19, 12, 0, 20, 12, 0, 21, 12, 0, 22, 12, 0, 23, 12, 0, 24, 12, 0, 25, 12, 0, 26, 12, 0, 27, 12, 0, 28, 12, 0, 29, 12, 0, 30, 12, 0, 31, 12, 0, 65536, -2147483636, 0, 65537, -2147483636, 0, 65538, -2147483636, 0, 65539, -2147483636, 0, 65540, -2147483636, 0, 65541, -2147483636, 0, 65542, -2147483636, 0, 65543, -2147483636, 0, 65544, -2147483636, 0, 65545, -2147483636, 0, 65546, -2147483636, 0, 65547, 1610612748, 0, 65548, 1610612748, 0, 65549, 1610612748, 0, 65550, 1610612748, 0, 65551, 1610612748, 0, 65552, 1610612748, 0, 65553, 1610612748, 0, 65554, 1610612748, 0, 65555, -2147483636, 0, 65556, -2147483636, 0, 65557, -2147483636, 0, 65558, -2147483636, 0, 65559, -2147483636, 0, 65560, -2147483636, 0, 65561, -2147483636, 0, 65562, -2147483636, 0, 65563, -2147483636, 0, 65564, -2147483636, 0, 65565, -2147483636, 0, 65566, -2147483636, 0, 65567, 12, 0, 131072, -2147483636, 0, 131073, -1073741806, 0, 131074, 1610612749, 0, 131075, 1610612749, 0, 131076, 1610612749, 0, 131077, 1610612749, 0, 131078, 1610612749, 0, 131079, 1610612749, 0, 131080, 1610612749, 0, 131081, 1610612749, 0, 131082, 1610612749, 0, 131083, 1610612749, 0, 131084, 1610612749, 0, 131085, 1610612749, 0, 131086, 1610612749, 0, 131087, 1610612749, 0, 131088, 1610612749, 0, 131089, 1610612749, 0, 131090, 1610612749, 0, 131091, 1610612749, 0, 131092, 1610612749, 0, 131093, 1610612749, 0, 131094, 1610612749, 0, 131095, 1610612749, 0, 131096, 1610612749, 0, 131097, 1610612749, 0, 131098, 1610612749, 0, 131099, 1610612749, 0, 131100, 1610612749, 0, 131101, 1610612749, 0, 131102, -536870894, 0, 131103, 12, 0, 196608, -536870894, 0, 196609, -1610612723, 0, 196638, -1073741811, 0, 196639, 12, 0, 262144, -1073741811, 0, 262145, -1610612723, 0, 262174, -1073741811, 0, 262175, 12, 0, 327680, -1073741811, 0, 327681, -1610612723, 0, 327710, -1073741811, 0, 327711, 12, 0, 393216, -1073741811, 0, 393217, -1610612723, 0, 393246, -1073741811, 0, 393247, 12, 0, 458752, -1073741811, 0, 458753, -1610612723, 0, 458782, -1073741811, 0, 458783, 12, 0, 524288, -1073741811, 0, 524289, -1610612723, 0, 524318, -1073741811, 0, 524319, 12, 0, 589824, -1073741811, 0, 589825, -1610612723, 0, 589854, -1073741811, 0, 589855, 12, 0, 655360, -1073741811, 0, 655361, -1610612723, 0, 655390, -1073741811, 0, 655391, 12, 0, 720896, -1073741811, 0, 720897, -1610612723, 0, 720926, -1073741811, 0, 720927, 12, 0, 786432, -1073741811, 0, 786433, -1610612723, 0, 786462, -1073741811, 0, 786463, 12, 0, 851968, -1073741811, 0, 851969, -1610612723, 0, 851998, -1073741811, 0, 851999, 12, 0, 917504, -1073741811, 0, 917505, -1610612723, 0, 917534, -1073741811, 0, 917535, 12, 0, 983040, -1073741811, 0, 983041, -1610612723, 0, 983070, -1073741811, 0, 983071, 12, 0, 1048576, -1073741811, 0, 1048577, -1610612723, 0, 1048606, -1073741811, 0, 1048607, 12, 0, 1114112, -1073741811, 0, 1114113, -1610612723, 0, 1114142, -1073741811, 0, 1114143, 12, 0, 1179648, -1073741811, 0, 1179649, -1610612723, 0, 1179678, -1073741811, 0, 1179679, 12, 0, 1245184, -1073741811, 0, 1245185, -1610612723, 0, 1245214, -1073741811, 0, 1245215, 12, 0, 1310720, -1073741811, 0, 1310721, -1610612723, 0, 1310750, -1073741811, 0, 1310751, 12, 0, 1376256, -2147483631, 0, 1376257, 1073741841, 0, 1376286, -1073741811, 0, 1376287, 12, 0, 1441822, -1073741811, 0, 1441823, 12, 0, 1507358, -1073741811, 0, 1507359, 12, 0, 1572894, -1073741811, 0, 1572895, 12, 0, 1638430, -1073741811, 0, 1638431, 12, 0, 1703966, -1073741811, 0, 1703967, 12, 0, 1769472, 536870925, 0, 1769473, -536870895, 0, 1769502, -1073741811, 0, 1769503, 12, 0, 1835008, 536870924, 0, 1835009, -536870899, 0, 1835038, -1073741811, 0, 1835039, 12, 0, 1900544, 536870924, 0, 1900545, -536870899, 0, 1900574, -1073741811, 0, 1900575, 12, 0, 1966080, 536870924, 0, 1966081, -536870899, 0, 1966110, -1073741811, 0, 1966111, 12, 0, 2031616, 536870924, 0, 2031617, -536870899, 0, 2031646, -1073741811, 0, 2031647, 12, 0, 2097152, 536870924, 0, 2097153, -536870899, 0, 2097182, -1073741811, 0, 2097183, 12, 0, 2162688, 536870924, 0, 2162689, -536870899, 0, 2162718, -1073741811, 0, 2162719, 12, 0, 2228224, 536870924, 0, 2228225, -536870899, 0, 2228254, -1073741811, 0, 2228255, 12, 0, 2293760, 536870924, 0, 2293761, -2147483630, 0, 2293762, 536870925, 0, 2293763, 536870925, 0, 2293764, 536870925, 0, 2293765, 536870925, 0, 2293766, 536870925, 0, 2293767, 536870925, 0, 2293768, 536870925, 0, 2293769, 536870925, 0, 2293770, 536870925, 0, 2293771, 536870925, 0, 2293772, 536870925, 0, 2293773, -536870895, 0, 2293778, 536870929, 0, 2293779, 536870925, 0, 2293780, 536870925, 0, 2293781, 536870925, 0, 2293782, 536870925, 0, 2293783, 536870925, 0, 2293784, 536870925, 0, 2293785, 536870925, 0, 2293786, 536870925, 0, 2293787, 536870925, 0, 2293788, 536870925, 0, 2293789, 13, 0, 2293790, -1610612718, 0, 2293791, 12, 0, 2359296, 536870924, 0, 2359297, 12, 0, 2359298, 12, 0, 2359299, 12, 0, 2359300, 12, 0, 2359301, 12, 0, 2359302, 12, 0, 2359303, 12, 0, 2359304, 12, 0, 2359305, 12, 0, 2359306, 12, 0, 2359307, 12, 0, 2359308, 12, 0, 2359309, -1610612723, 0, 2359314, -1073741811, 0, 2359315, 12, 0, 2359316, 12, 0, 2359317, 12, 0, 2359318, 12, 0, 2359319, 12, 0, 2359320, 12, 0, 2359321, 12, 0, 2359322, 12, 0, 2359323, 12, 0, 2359324, 12, 0, 2359325, 536870924, 0, 2359326, 536870924, 0, 2359327, 12, 0, 2424832, 536870924, 0, 2424833, 12, 0, 2424834, 12, 0, 2424835, 12, 0, 2424836, 12, 0, 2424837, 12, 0, 2424838, 12, 0, 2424839, 12, 0, 2424840, 12, 0, 2424841, 12, 0, 2424842, 12, 0, 2424843, 12, 0, 2424844, 12, 0, 2424845, -1610612723, 0, 2424850, -1073741811, 0, 2424851, 12, 0, 2424852, 12, 0, 2424853, 12, 0, 2424854, 12, 0, 2424855, 12, 0, 2424856, 12, 0, 2424857, 12, 0, 2424858, 12, 0, 2424859, 12, 0, 2424860, 12, 0, 2424861, 536870924, 0, 2424862, 536870924, 0, 2424863, 12, 0, 2490368, 536870924, 0, 2490369, 12, 0, 2490370, 12, 0, 2490371, 12, 0, 2490372, 12, 0, 2490373, 12, 0, 2490374, 12, 0, 2490375, 12, 0, 2490376, 12, 0, 2490377, 12, 0, 2490378, 12, 0, 2490379, 12, 0, 2490380, 12, 0, 2490381, -1610612723, 0, 2490386, -1073741811, 0, 2490387, 12, 0, 2490388, 12, 0, 2490389, 12, 0, 2490390, 12, 0, 2490391, 12, 0, 2490392, 12, 0, 2490393, 12, 0, 2490394, 12, 0, 2490395, 12, 0, 2490396, 12, 0, 2490397, 536870924, 0, 2490398, 536870924, 0, 2490399, 12, 0, 2555904, 536870924, 0, 2555905, 12, 0, 2555906, 12, 0, 2555907, 12, 0, 2555908, 12, 0, 2555909, 12, 0, 2555910, 12, 0, 2555911, 12, 0, 2555912, 12, 0, 2555913, 12, 0, 2555914, 12, 0, 2555915, 12, 0, 2555916, 12, 0, 2555917, -1610612723, 0, 2555922, -1073741811, 0, 2555923, 12, 0, 2555924, 12, 0, 2555925, 12, 0, 2555926, 12, 0, 2555927, 12, 0, 2555928, 12, 0, 2555929, 12, 0, 2555930, 12, 0, 2555931, 12, 0, 2555932, 12, 0, 2555933, 536870924, 0, 2555934, 536870924, 0, 2555935, 12, 0, 2621440, 536870924, 0, 2621441, 12, 0, 2621442, 12, 0, 2621443, 12, 0, 2621444, 12, 0, 2621445, 12, 0, 2621446, 12, 0, 2621447, 12, 0, 2621448, 12, 0, 2621449, 12, 0, 2621450, 12, 0, 2621451, 12, 0, 2621452, 12, 0, 2621453, -1610612723, 0, 2621458, -1073741811, 0, 2621459, 12, 0, 2621460, 12, 0, 2621461, 12, 0, 2621462, 12, 0, 2621463, 12, 0, 2621464, 12, 0, 2621465, 12, 0, 2621466, 12, 0, 2621467, 12, 0, 2621468, 12, 0, 2621469, 536870924, 0, 2621470, 536870924, 0, 2621471, 12, 0, 2686976, 536870924, 0, 2686977, 12, 0, 2686978, 12, 0, 2686979, 12, 0, 2686980, 12, 0, 2686981, 12, 0, 2686982, 12, 0, 2686983, 12, 0, 2686984, 12, 0, 2686985, 12, 0, 2686986, 12, 0, 2686987, 12, 0, 2686988, 12, 0, 2686989, -1610612723, 0, 2686994, -1073741811, 0, 2686995, 12, 0, 2686996, 12, 0, 2686997, 12, 0, 2686998, 12, 0, 2686999, 12, 0, 2687000, 12, 0, 2687001, 12, 0, 2687002, 12, 0, 2687003, 12, 0, 2687004, 12, 0, 2687005, 536870924, 0, 2687006, 536870924, 0, 2687007, 12, 0, 2752512, 536870924, 0, 2752513, 12, 0, 2752514, 12, 0, 2752515, 12, 0, 2752516, 12, 0, 2752517, 12, 0, 2752518, 12, 0, 2752519, 12, 0, 2752520, 12, 0, 2752521, 12, 0, 2752522, 12, 0, 2752523, 12, 0, 2752524, 12, 0, 2752525, -1610612723, 0, 2752530, -1073741811, 0, 2752531, 12, 0, 2752532, 12, 0, 2752533, 12, 0, 2752534, 12, 0, 2752535, 12, 0, 2752536, 12, 0, 2752537, 12, 0, 2752538, 12, 0, 2752539, 12, 0, 2752540, 12, 0, 2752541, 536870924, 0, 2752542, 536870924, 0, 2752543, 12, 0, 2818048, 536870924, 0, 2818049, 12, 0, 2818050, 12, 0, 2818051, 12, 0, 2818052, 12, 0, 2818053, 12, 0, 2818054, 12, 0, 2818055, 12, 0, 2818056, 12, 0, 2818057, 12, 0, 2818058, 12, 0, 2818059, 12, 0, 2818060, 12, 0, 2818061, -1610612723, 0, 2818066, -1073741811, 0, 2818067, 12, 0, 2818068, 12, 0, 2818069, 12, 0, 2818070, 12, 0, 2818071, 12, 0, 2818072, 12, 0, 2818073, 12, 0, 2818074, 12, 0, 2818075, 12, 0, 2818076, 12, 0, 2818077, 536870924, 0, 2818078, 536870924, 0, 2818079, 12, 0, 2883584, 536870924, 0, 2883585, 12, 0, 2883586, 12, 0, 2883587, 12, 0, 2883588, 12, 0, 2883589, 12, 0, 2883590, 12, 0, 2883591, 12, 0, 2883592, 12, 0, 2883593, 12, 0, 2883594, 12, 0, 2883595, 12, 0, 2883596, 12, 0, 2883597, -1610612723, 0, 2883602, -1073741811, 0, 2883603, 12, 0, 2883604, 12, 0, 2883605, 12, 0, 2883606, 12, 0, 2883607, 12, 0, 2883608, 12, 0, 2883609, 12, 0, 2883610, 12, 0, 2883611, 12, 0, 2883612, 12, 0, 2883613, 536870924, 0, 2883614, 536870924, 0, 2883615, 12, 0, 2949120, 536870924, 0, 2949121, 12, 0, 2949122, 12, 0, 2949123, 12, 0, 2949124, 12, 0, 2949125, 12, 0, 2949126, 12, 0, 2949127, 12, 0, 2949128, 12, 0, 2949129, 12, 0, 2949130, 12, 0, 2949131, 12, 0, 2949132, 12, 0, 2949133, -1610612723, 0, 2949138, -1073741811, 0, 2949139, 12, 0, 2949140, 12, 0, 2949141, 12, 0, 2949142, 12, 0, 2949143, 12, 0, 2949144, 12, 0, 2949145, 12, 0, 2949146, 12, 0, 2949147, 12, 0, 2949148, 12, 0, 2949149, 536870924, 0, 2949150, 536870924, 0, 2949151, 12, 0, 3014656, 536870924, 0, 3014657, 12, 0, 3014658, 12, 0, 3014659, 12, 0, 3014660, 12, 0, 3014661, 12, 0, 3014662, 12, 0, 3014663, 12, 0, 3014664, 12, 0, 3014665, 12, 0, 3014666, 12, 0, 3014667, 12, 0, 3014668, 12, 0, 3014669, -1610612723, 0, 3014674, -1073741811, 0, 3014675, 12, 0, 3014676, 12, 0, 3014677, 12, 0, 3014678, 12, 0, 3014679, 12, 0, 3014680, 12, 0, 3014681, 12, 0, 3014682, 12, 0, 3014683, 12, 0, 3014684, 12, 0, 3014685, 536870924, 0, 3014686, 536870924, 0, 3014687, 12, 0, 3080192, 536870924, 0, 3080193, 12, 0, 3080194, 12, 0, 3080195, 12, 0, 3080196, 12, 0, 3080197, 12, 0, 3080198, 12, 0, 3080199, 12, 0, 3080200, 12, 0, 3080201, 12, 0, 3080202, 12, 0, 3080203, 12, 0, 3080204, 12, 0, 3080205, -1610612723, 0, 3080210, -1073741811, 0, 3080211, 12, 0, 3080212, 12, 0, 3080213, 12, 0, 3080214, 12, 0, 3080215, 12, 0, 3080216, 12, 0, 3080217, 12, 0, 3080218, 12, 0, 3080219, 12, 0, 3080220, 12, 0, 3080221, 536870924, 0, 3080222, 536870924, 0, 3080223, 12, 0, 3145728, 536870924, 0, 3145729, 12, 0, 3145730, 12, 0, 3145731, 12, 0, 3145732, 12, 0, 3145733, 12, 0, 3145734, 12, 0, 3145735, 12, 0, 3145736, 12, 0, 3145737, 12, 0, 3145738, 12, 0, 3145739, 12, 0, 3145740, 12, 0, 3145741, -2147483630, 0, 3145742, 536870925, 0, 3145743, 536870925, 0, 3145744, 536870925, 0, 3145745, 536870925, 0, 3145746, 1073741842, 0, 3145747, 12, 0, 3145748, 12, 0, 3145749, 12, 0, 3145750, 12, 0, 3145751, 12, 0, 3145752, 12, 0, 3145753, 12, 0, 3145754, 12, 0, 3145755, 12, 0, 3145756, 12, 0, 3145757, 536870924, 0, 3145758, 536870924, 0, 3145759, 12, 0, 3211264, 536870924, 0, 3211265, 12, 0, 3211266, 12, 0, 3211267, 12, 0, 3211268, 12, 0, 3211269, 12, 0, 3211270, 12, 0, 3211271, 12, 0, 3211272, 12, 0, 3211273, 12, 0, 3211274, 12, 0, 3211275, 12, 0, 3211276, 12, 0, 3211277, 1073741836, 0, 3211278, 1073741836, 0, 3211279, 1073741836, 0, 3211280, 1073741836, 0, 3211281, 1073741836, 0, 3211282, 1073741836, 0, 3211283, 12, 0, 3211284, 12, 0, 3211285, 12, 0, 3211286, 12, 0, 3211287, 12, 0, 3211288, 12, 0, 3211289, 12, 0, 3211290, 12, 0, 3211291, 12, 0, 3211292, 12, 0, 3211293, 536870924, 0, 3211294, 536870924, 0, 3211295, 12, 0, 3276800, 536870924, 0, 3276801, 12, 0, 3276802, 12, 0, 3276803, 12, 0, 3276804, 12, 0, 3276805, 12, 0, 3276806, 12, 0, 3276807, 12, 0, 3276808, 12, 0, 3276809, 12, 0, 3276810, 12, 0, 3276811, 12, 0, 3276812, 12, 0, 3276813, 12, 0, 3276814, 12, 0, 3276815, 12, 0, 3276816, 12, 0, 3276817, 12, 0, 3276818, 12, 0, 3276819, 12, 0, 3276820, 12, 0, 3276821, 12, 0, 3276822, 12, 0, 3276823, 12, 0, 3276824, 12, 0, 3276825, 12, 0, 3276826, 12, 0, 3276827, 12, 0, 3276828, 12, 0, 3276829, 12, 0, 3276830, 12, 0, 3276831, 12, 0, 3342336, 536870924, 0, 3342337, -1610612724, 0, 3342338, -1610612724, 0, 3342339, -1610612724, 0, 3342340, -1610612724, 0, 3342341, -1610612724, 0, 3342342, -1610612724, 0, 3342343, -1610612724, 0, 3342344, -1610612724, 0, 3342345, -1610612724, 0, 3342346, -1610612724, 0, 3342347, -1610612724, 0, 3342348, -1610612724, 0, 3342349, -1610612724, 0, 3342350, -1610612724, 0, 3342351, -1610612724, 0, 3342352, -1610612724, 0, 3342353, -1610612724, 0, 3342354, -1610612724, 0, 3342355, -1610612724, 0, 3342356, -1610612724, 0, 3342357, -1610612724, 0, 3342358, -1610612724, 0, 3342359, -1610612724, 0, 3342360, -1610612724, 0, 3342361, -1610612724, 0, 3342362, -1610612724, 0, 3342363, -1610612724, 0, 3342364, -1610612724, 0, 3342365, -1610612724, 0, 3342366, -1610612724, 0, 3342367, -1610612724, 0, 3407872, 536870924, 0, 3407873, -1610612724, 0, 3407874, -1610612724, 0, 3407875, -1610612724, 0, 3407876, -1610612724, 0, 3407877, -1610612724, 0, 3407878, -1610612724, 0, 3407879, -1610612724, 0, 3407880, -1610612724, 0, 3407881, -1610612724, 0, 3407882, -1610612724, 0, 3407883, -1610612724, 0, 3407884, -1610612724, 0, 3407885, -1610612724, 0, 3407886, -1610612724, 0, 3407887, -1610612724, 0, 3407888, -1610612724, 0, 3407889, -1610612724, 0, 3407890, -1610612724, 0, 3407891, -1610612724, 0, 3407892, -1610612724, 0, 3407893, -1610612724, 0, 3407894, -1610612724, 0, 3407895, -1610612724, 0, 3407896, -1610612724, 0, 3407897, -1610612724, 0, 3407898, -1610612724, 0, 3407899, -1610612724, 0, 3407900, -1610612724, 0, 3407901, -1610612724, 0, 3407902, -1610612724, 0, 3407903, -1610612724, 0, 3473408, 536870924, 0, 3473409, -1610612724, 0, 3473410, -1610612724, 0, 3473411, -1610612724, 0, 3473412, -1610612724, 0, 3473413, -1610612724, 0, 3473414, -1610612724, 0, 3473415, -1610612724, 0, 3473416, -1610612724, 0, 3473417, -1610612724, 0, 3473418, -1610612724, 0, 3473419, -1610612724, 0, 3473420, -1610612724, 0, 3473421, -1610612724, 0, 3473422, -1610612724, 0, 3473423, -1610612724, 0, 3473424, -1610612724, 0, 3473425, -1610612724, 0, 3473426, -1610612724, 0, 3473427, -1610612724, 0, 3473428, -1610612724, 0, 3473429, -1610612724, 0, 3473430, -1610612724, 0, 3473431, -1610612724, 0, 3473432, -1610612724, 0, 3473433, -1610612724, 0, 3473434, -1610612724, 0, 3473435, -1610612724, 0, 3473436, -1610612724, 0, 3473437, -1610612724, 0, 3473438, -1610612724, 0, 3473439, -1610612724, 0, 3538944, 536870924, 0, 3538945, -1610612724, 0, 3538946, -1610612724, 0, 3538947, -1610612724, 0, 3538948, -1610612724, 0, 3538949, -1610612724, 0, 3538950, -1610612724, 0, 3538951, -1610612724, 0, 3538952, -1610612724, 0, 3538953, -1610612724, 0, 3538954, -1610612724, 0, 3538955, -1610612724, 0, 3538956, -1610612724, 0, 3538957, -1610612724, 0, 3538958, -1610612724, 0, 3538959, -1610612724, 0, 3538960, -1610612724, 0, 3538961, -1610612724, 0, 3538962, -1610612724, 0, 3538963, -1610612724, 0, 3538964, -1610612724, 0, 3538965, -1610612724, 0, 3538966, -1610612724, 0, 3538967, -1610612724, 0, 3538968, -1610612724, 0, 3538969, -1610612724, 0, 3538970, -1610612724, 0, 3538971, -1610612724, 0, 3538972, -1610612724, 0, 3538973, -1610612724, 0, 3538974, -1610612724, 0, 3538975, -1610612724, 0, 3604480, 536870924, 0, 3604481, -1610612724, 0, 3604482, -1610612724, 0, 3604483, -1610612724, 0, 3604484, -1610612724, 0, 3604485, -1610612724, 0, 3604486, -1610612724, 0, 3604487, -1610612724, 0, 3604488, -1610612724, 0, 3604489, -1610612724, 0, 3604490, -1610612724, 0, 3604491, -1610612724, 0, 3604492, -1610612724, 0, 3604493, -1610612724, 0, 3604494, -1610612724, 0, 3604495, -1610612724, 0, 3604496, -1610612724, 0, 3604497, -1610612724, 0, 3604498, -1610612724, 0, 3604499, -1610612724, 0, 3604500, -1610612724, 0, 3604501, -1610612724, 0, 3604502, -1610612724, 0, 3604503, -1610612724, 0, 3604504, -1610612724, 0, 3604505, -1610612724, 0, 3604506, -1610612724, 0, 3604507, -1610612724, 0, 3604508, -1610612724, 0, 3604509, -1610612724, 0, 3604510, -1610612724, 0, 3604511, -1610612724, 0, 3670016, 536870924, 0, 3670017, -1610612724, 0, 3670018, -1610612724, 0, 3670019, -1610612724, 0, 3670020, -1610612724, 0, 3670021, -1610612724, 0, 3670022, -1610612724, 0, 3670023, -1610612724, 0, 3670024, -1610612724, 0, 3670025, -1610612724, 0, 3670026, -1610612724, 0, 3670027, -1610612724, 0, 3670028, -1610612724, 0, 3670029, -1610612724, 0, 3670030, -1610612724, 0, 3670031, -1610612724, 0, 3670032, -1610612724, 0, 3670033, -1610612724, 0, 3670034, -1610612724, 0, 3670035, -1610612724, 0, 3670036, -1610612724, 0, 3670037, -1610612724, 0, 3670038, -1610612724, 0, 3670039, -1610612724, 0, 3670040, -1610612724, 0, 3670041, -1610612724, 0, 3670042, -1610612724, 0, 3670043, -1610612724, 0, 3670044, -1610612724, 0, 3670045, -1610612724, 0, 3670046, -1610612724, 0, 3670047, -1610612724, 0, 3735552, 536870924, 0, 3735553, -1610612724, 0, 3735554, -1610612724, 0, 3735555, -1610612724, 0, 3735556, -1610612724, 0, 3735557, -1610612724, 0, 3735558, -1610612724, 0, 3735559, -1610612724, 0, 3735560, -1610612724, 0, 3735561, -1610612724, 0, 3735562, -1610612724, 0, 3735563, -1610612724, 0, 3735564, -1610612724, 0, 3735565, -1610612724, 0, 3735566, -1610612724, 0, 3735567, -1610612724, 0, 3735568, -1610612724, 0, 3735569, -1610612724, 0, 3735570, -1610612724, 0, 3735571, -1610612724, 0, 3735572, -1610612724, 0, 3735573, -1610612724, 0, 3735574, -1610612724, 0, 3735575, -1610612724, 0, 3735576, -1610612724, 0, 3735577, -1610612724, 0, 3735578, -1610612724, 0, 3735579, -1610612724, 0, 3735580, -1610612724, 0, 3735581, -1610612724, 0, 3735582, -1610612724, 0, 3735583, -1610612724, 0, 3801088, 536870924, 0, 3801089, -1610612724, 0, 3801090, -1610612724, 0, 3801091, -1610612724, 0, 3801092, -1610612724, 0, 3801093, -1610612724, 0, 3801094, -1610612724, 0, 3801095, -1610612724, 0, 3801096, -1610612724, 0, 3801097, -1610612724, 0, 3801098, -1610612724, 0, 3801099, -1610612724, 0, 3801100, -1610612724, 0, 3801101, -1610612724, 0, 3801102, -1610612724, 0, 3801103, -1610612724, 0, 3801104, -1610612724, 0, 3801105, -1610612724, 0, 3801106, -1610612724, 0, 3801107, -1610612724, 0, 3801108, -1610612724, 0, 3801109, -1610612724, 0, 3801110, -1610612724, 0, 3801111, -1610612724, 0, 3801112, -1610612724, 0, 3801113, -1610612724, 0, 3801114, -1610612724, 0, 3801115, -1610612724, 0, 3801116, -1610612724, 0, 3801117, -1610612724, 0, 3801118, -1610612724, 0, 3801119, -1610612724, 0, 3866624, 536870924, 0, 3866625, -1610612724, 0, 3866626, -1610612724, 0, 3866627, -1610612724, 0, 3866628, -1610612724, 0, 3866629, -1610612724, 0, 3866630, -1610612724, 0, 3866631, -1610612724, 0, 3866632, -1610612724, 0, 3866633, -1610612724, 0, 3866634, -1610612724, 0, 3866635, -1610612724, 0, 3866636, -1610612724, 0, 3866637, -1610612724, 0, 3866638, -1610612724, 0, 3866639, -1610612724, 0, 3866640, -1610612724, 0, 3866641, -1610612724, 0, 3866642, -1610612724, 0, 3866643, -1610612724, 0, 3866644, -1610612724, 0, 3866645, -1610612724, 0, 3866646, -1610612724, 0, 3866647, -1610612724, 0, 3866648, -1610612724, 0, 3866649, -1610612724, 0, 3866650, -1610612724, 0, 3866651, -1610612724, 0, 3866652, -1610612724, 0, 3866653, -1610612724, 0, 3866654, -1610612724, 0, 3866655, -1610612724, 0, 3932160, 536870924, 0, 3932161, -1610612724, 0, 3932162, -1610612724, 0, 3932163, -1610612724, 0, 3932164, -1610612724, 0, 3932165, -1610612724, 0, 3932166, -1610612724, 0, 3932167, -1610612724, 0, 3932168, -1610612724, 0, 3932169, -1610612724, 0, 3932170, -1610612724, 0, 3932171, -1610612724, 0, 3932172, -1610612724, 0, 3932173, -1610612724, 0, 3932174, -1610612724, 0, 3932175, -1610612724, 0, 3932176, -1610612724, 0, 3932177, -1610612724, 0, 3932178, -1610612724, 0, 3932179, -1610612724, 0, 3932180, -1610612724, 0, 3932181, -1610612724, 0, 3932182, -1610612724, 0, 3932183, -1610612724, 0, 3932184, -1610612724, 0, 3932185, -1610612724, 0, 3932186, -1610612724, 0, 3932187, -1610612724, 0, 3932188, -1610612724, 0, 3932189, -1610612724, 0, 3932190, -1610612724, 0, 3932191, -1610612724, 0, 3997696, 536870924, 0, 3997697, -1610612724, 0, 3997698, -1610612724, 0, 3997699, -1610612724, 0, 3997700, -1610612724, 0, 3997701, -1610612724, 0, 3997702, -1610612724, 0, 3997703, -1610612724, 0, 3997704, -1610612724, 0, 3997705, -1610612724, 0, 3997706, -1610612724, 0, 3997707, -1610612724, 0, 3997708, -1610612724, 0, 3997709, -1610612724, 0, 3997710, -1610612724, 0, 3997711, -1610612724, 0, 3997712, -1610612724, 0, 3997713, -1610612724, 0, 3997714, -1610612724, 0, 3997715, -1610612724, 0, 3997716, -1610612724, 0, 3997717, -1610612724, 0, 3997718, -1610612724, 0, 3997719, -1610612724, 0, 3997720, -1610612724, 0, 3997721, -1610612724, 0, 3997722, -1610612724, 0, 3997723, -1610612724, 0, 3997724, -1610612724, 0, 3997725, -1610612724, 0, 3997726, -1610612724, 0, 3997727, -1610612724, 0, 4063232, 536870924, 0, 4063233, -1610612724, 0, 4063234, -1610612724, 0, 4063235, -1610612724, 0, 4063236, -1610612724, 0, 4063237, -1610612724, 0, 4063238, -1610612724, 0, 4063239, -1610612724, 0, 4063240, -1610612724, 0, 4063241, -1610612724, 0, 4063242, -1610612724, 0, 4063243, -1610612724, 0, 4063244, -1610612724, 0, 4063245, -1610612724, 0, 4063246, -1610612724, 0, 4063247, -1610612724, 0, 4063248, -1610612724, 0, 4063249, -1610612724, 0, 4063250, -1610612724, 0, 4063251, -1610612724, 0, 4063252, -1610612724, 0, 4063253, -1610612724, 0, 4063254, -1610612724, 0, 4063255, -1610612724, 0, 4063256, -1610612724, 0, 4063257, -1610612724, 0, 4063258, -1610612724, 0, 4063259, -1610612724, 0, 4063260, -1610612724, 0, 4063261, -1610612724, 0, 4063262, -1610612724, 0, 4063263, -1610612724, 0, 4128768, 536870924, 0, 4128769, 12, 0, 4128770, 12, 0, 4128771, 12, 0, 4128772, 12, 0, 4128773, 12, 0, 4128774, 12, 0, 4128775, 12, 0, 4128776, 12, 0, 4128777, 12, 0, 4128778, 12, 0, 4128779, 12, 0, 4128780, 12, 0, 4128781, 12, 0, 4128782, 12, 0, 4128783, 12, 0, 4128784, 12, 0, 4128785, 12, 0, 4128786, 12, 0, 4128787, 12, 0, 4128788, 12, 0, 4128789, 12, 0, 4128790, 12, 0, 4128791, 12, 0, 4128792, 12, 0, 4128793, 12, 0, 4128794, 12, 0, 4128795, 12, 0, 4128796, 12, 0, 4128797, 12, 0, 4128798, 12, 0, 4128799, 12, 0 )

[node name="Rocket" parent="." instance=ExtResource( 4 )]
position = Vector2( 544, 1312 )

[node name="Rocket2" parent="." instance=ExtResource( 4 )]
position = Vector2( 1504, 416 )

[node name="Rocket4" parent="." instance=ExtResource( 4 )]
position = Vector2( 544, 416 )

[node name="Rocket5" parent="." instance=ExtResource( 4 )]
position = Vector2( 1504, 1312 )

[node name="Rocket3" parent="." instance=ExtResource( 4 )]
position = Vector2( 1024, 832 )

[node name="Node2D" parent="." instance=ExtResource( 5 )]
position = Vector2( 1888, 768 )
rotation = -1.57079

[node name="Node2D2" parent="." instance=ExtResource( 5 )]
position = Vector2( 160, 768 )
rotation = -4.71238

[node name="Node2D3" parent="." instance=ExtResource( 5 )]
position = Vector2( 1024, 224 )
rotation = -3.14159

[node name="Non-Newtonian Fluid" parent="." instance=ExtResource( 26 )]
position = Vector2( 1024, 3000 )
z_index = -2

[node name="PressurePlateDoor" parent="." instance=ExtResource( 27 )]
position = Vector2( 1024, 2408 )

[node name="AnimatedSprite" parent="PressurePlateDoor" index="0"]
frame = 4

[node name="DoorTriggerShape" parent="PressurePlateDoor" index="1"]
position = Vector2( 864, -1640 )
shape = SubResource( 1 )

[node name="PressurePlateDoor2" parent="." instance=ExtResource( 27 )]
position = Vector2( 1024, 2488 )

[node name="AnimatedSprite" parent="PressurePlateDoor2" index="0"]
frame = 2

[node name="DoorTriggerShape" parent="PressurePlateDoor2" index="1"]
position = Vector2( 0, -2264 )
shape = SubResource( 2 )

[node name="PressurePlateDoor3" parent="." instance=ExtResource( 27 )]
position = Vector2( 1024, 2568 )

[node name="AnimatedSprite" parent="PressurePlateDoor3" index="0"]
frame = 3

[node name="DoorTriggerShape" parent="PressurePlateDoor3" index="1"]
position = Vector2( -864, -1800 )
shape = SubResource( 3 )

[node name="SpringyPlatform" parent="." instance=ExtResource( 3 )]
position = Vector2( 1024, 1312 )

[editable path="PressurePlateDoor"]

[editable path="PressurePlateDoor2"]

[editable path="PressurePlateDoor3"]
