[gd_scene load_steps=4 format=2]

[ext_resource path="res://sprites/mock/Testing_tile_sets.tres" type="TileSet" id=1]
[ext_resource path="res://scenes/obstacles/DeathArea.tscn" type="PackedScene" id=2]
[ext_resource path="res://scenes/obstacles/Coin.tscn" type="PackedScene" id=3]

[node name="1_000_2_N" type="Node2D"]

[node name="TileMap" type="TileMap" parent="."]
scale = Vector2( 0.5, 0.5 )
tile_set = ExtResource( 1 )
cell_size = Vector2( 128, 128 )
cell_custom_transform = Transform2D( 0, 0, 0, 0, 0, 0 )
format = 1
tile_data = PoolIntArray( 65546, -1073741796, 0, 65547, -1073741796, 0, 65548, -1073741796, 0, 65549, -1073741796, 0, 65550, -1073741796, 0, 65551, -1073741796, 0, 65552, -1073741796, 0, 65553, -1073741796, 0, 65554, -1073741796, 0, 65555, -1073741796, 0, 65556, -1073741796, 0, 131082, -1073741807, 0, 131083, 13, 0, 131084, 13, 0, 131085, 13, 0, 131086, 13, 0, 131087, 13, 0, 131088, 13, 0, 131089, 13, 0, 131090, 13, 0, 131091, 13, 0, 131092, -536870895, 0, 196614, -1073741808, 0, 196618, -2147483635, 0, 196619, 12, 0, 196620, 12, 0, 196621, 12, 0, 196622, 12, 0, 196623, 12, 0, 196624, 12, 0, 196625, 12, 0, 196626, 12, 0, 196627, 12, 0, 196628, -536870899, 0, 196633, -1073741808, 0, 262150, -1073741809, 0, 262154, 1610612753, 0, 262155, 18, 0, 262156, -1073741812, 0, 262157, -1073741812, 0, 262158, -1073741812, 0, 262159, -1073741812, 0, 262160, -1073741812, 0, 262161, -1073741812, 0, 262162, -1073741812, 0, 262163, -1073741812, 0, 262164, -536870899, 0, 262169, -1073741809, 0, 327686, -1073741809, 0, 327687, -1073741796, 0, 327690, -1610612708, 0, 327691, -1073741811, 0, 327692, -1073741812, 0, 327693, 12, 0, 327694, 12, 0, 327695, 12, 0, 327696, 12, 0, 327697, 12, 0, 327698, 12, 0, 327699, -1073741812, 0, 327700, -1610612723, 0, 327705, -1073741809, 0, 393222, 1610612759, 0, 393223, 17, 0, 393227, 1610612753, 0, 393228, 18, 0, 393229, -1073741812, 0, 393230, 12, 0, 393231, 12, 0, 393232, 12, 0, 393233, -1610612724, 0, 393234, 536870930, 0, 393235, 1073741837, 0, 393236, -1610612719, 0, 393241, -2147483633, 0, 458758, -1073741811, 0, 458759, -1610612723, 0, 458763, -1610612708, 0, 458764, -1073741811, 0, 458765, -1073741812, 0, 458766, 12, 0, 458767, 12, 0, 458768, 12, 0, 458769, -1610612724, 0, 458770, -536870899, 0, 458771, -2147483620, 0, 458772, -1610612708, 0, 458777, -2147483633, 0, 524294, -1073741811, 0, 524295, -1610612723, 0, 524296, -1073741796, 0, 524300, -1073741811, 0, 524301, -1073741812, 0, 524302, -1073741812, 0, 524303, 12, 0, 524304, 12, 0, 524305, 12, 0, 524306, -536870899, 0, 524311, -1073741796, 0, 524312, -536870884, 0, 524313, -2147483633, 0, 589829, -1073741796, 0, 589830, -1073741811, 0, 589831, 1610612754, 0, 589832, 17, 0, 589836, -1073741811, 0, 589837, 12, 0, 589838, 12, 0, 589839, 12, 0, 589840, 12, 0, 589841, 12, 0, 589842, -536870899, 0, 589847, -1073741807, 0, 589848, 536870925, 0, 589849, 1073741847, 0, 589850, -1073741796, 0, 655365, -1073741807, 0, 655366, -1610612718, 0, 655367, 12, 0, 655368, -1610612723, 0, 655372, -1073741811, 0, 655373, 12, 0, 655374, 12, 0, 655375, 12, 0, 655376, 12, 0, 655377, 12, 0, 655378, -536870899, 0, 655383, -1073741811, 0, 655384, -1073741812, 0, 655385, 1610612754, 0, 655386, 17, 0, 720901, -1073741811, 0, 720902, 12, 0, 720903, 12, 0, 720904, -1610612723, 0, 720908, 1610612753, 0, 720909, 18, 0, 720910, -1073741812, 0, 720911, 12, 0, 720912, 12, 0, 720913, 12, 0, 720914, -536870899, 0, 720919, -1073741811, 0, 720920, -1073741812, 0, 720921, 12, 0, 720922, -1610612723, 0, 786437, -1073741811, 0, 786438, 12, 0, 786439, 12, 0, 786440, -1610612723, 0, 786444, -1610612708, 0, 786445, -1073741811, 0, 786446, -1073741812, 0, 786447, -1073741812, 0, 786448, -1073741812, 0, 786449, -1073741812, 0, 786450, -1610612723, 0, 786455, -1073741811, 0, 786456, 12, 0, 786457, 12, 0, 786458, -1610612723, 0, 851973, -1073741811, 0, 851974, 12, 0, 851975, 12, 0, 851976, -1610612723, 0, 851981, -1073741811, 0, 851982, 12, 0, 851983, 12, 0, 851984, 12, 0, 851985, 12, 0, 851986, -1610612723, 0, 851991, -1073741811, 0, 851992, 12, 0, 851993, 12, 0, 851994, -1610612723, 0, 917509, -1073741811, 0, 917510, -1073741812, 0, 917511, 12, 0, 917512, -1610612723, 0, 917513, -1073741796, 0, 917517, -1073741811, 0, 917518, 12, 0, 917519, 12, 0, 917520, 12, 0, 917521, 12, 0, 917522, -1610612723, 0, 917527, -1073741811, 0, 917528, 12, 0, 917529, -1073741812, 0, 917530, -1610612723, 0, 983045, -1073741811, 0, 983046, -1073741812, 0, 983047, 12, 0, 983048, 1610612754, 0, 983049, 17, 0, 983053, -1073741811, 0, 983054, 12, 0, 983055, 12, 0, 983056, 12, 0, 983057, 12, 0, 983058, -1610612723, 0, 983063, -2147483635, 0, 983064, 12, 0, 983065, -1073741812, 0, 983066, -1610612723, 0, 1048581, -1073741811, 0, 1048582, 12, 0, 1048583, 12, 0, 1048584, 12, 0, 1048585, -1610612723, 0, 1048589, -1073741811, 0, 1048590, 12, 0, 1048591, 12, 0, 1048592, 12, 0, 1048593, 12, 0, 1048594, -1610612723, 0, 1048599, -2147483635, 0, 1048600, 12, 0, 1048601, 12, 0, 1048602, -1610612723, 0, 1114116, -1073741796, 0, 1114117, -1073741811, 0, 1114118, 12, 0, 1114119, 12, 0, 1114120, -1610612724, 0, 1114121, -1610612723, 0, 1114125, 1610612753, 0, 1114126, 18, 0, 1114127, 12, 0, 1114128, 536870930, 0, 1114129, 1073741837, 0, 1114130, -1610612719, 0, 1114135, -2147483635, 0, 1114136, 12, 0, 1114137, 12, 0, 1114138, -1610612723, 0, 1114139, -1073741796, 0, 1179652, -1073741807, 0, 1179653, -1610612718, 0, 1179654, 12, 0, 1179655, 12, 0, 1179656, 12, 0, 1179657, -1610612723, 0, 1179661, -1610612708, 0, 1179662, -1073741811, 0, 1179663, -1073741812, 0, 1179664, -536870899, 0, 1179665, -2147483620, 0, 1179666, -1610612708, 0, 1179671, -2147483635, 0, 1179672, 12, 0, 1179673, 12, 0, 1179674, 1610612754, 0, 1179675, 17, 0, 1245188, -1073741811, 0, 1245189, 12, 0, 1245190, 12, 0, 1245191, 12, 0, 1245192, 12, 0, 1245193, -1610612723, 0, 1245198, -1073741811, 0, 1245199, 12, 0, 1245200, -536870899, 0, 1245207, -2147483635, 0, 1245208, 12, 0, 1245209, 12, 0, 1245210, 12, 0, 1245211, -1610612723, 0, 1310724, -1073741811, 0, 1310725, -1610612724, 0, 1310726, 12, 0, 1310727, 12, 0, 1310728, 12, 0, 1310729, -1610612723, 0, 1310730, -1073741796, 0, 1310734, -1073741811, 0, 1310735, 12, 0, 1310736, -536870899, 0, 1310741, -1073741796, 0, 1310742, -536870884, 0, 1310743, -2147483635, 0, 1310744, 12, 0, 1310745, 12, 0, 1310746, -1073741812, 0, 1310747, -1610612723, 0, 1376260, -1073741811, 0, 1376261, -1610612724, 0, 1376262, 12, 0, 1376263, 12, 0, 1376264, 12, 0, 1376265, 1610612754, 0, 1376266, 17, 0, 1376270, -1073741811, 0, 1376271, 12, 0, 1376272, -536870899, 0, 1376277, -1073741807, 0, 1376278, 536870925, 0, 1376279, 1073741842, 0, 1376280, 12, 0, 1376281, 12, 0, 1376282, -1073741812, 0, 1376283, -1610612723, 0, 1441796, -1073741811, 0, 1441797, 12, 0, 1441798, 12, 0, 1441799, 12, 0, 1441800, 12, 0, 1441801, 12, 0, 1441802, -1610612723, 0, 1441806, -1073741811, 0, 1441807, 12, 0, 1441808, -536870899, 0, 1441813, -1073741811, 0, 1441814, 12, 0, 1441815, 12, 0, 1441816, 12, 0, 1441817, 12, 0, 1441818, 12, 0, 1441819, -1610612723, 0, 1507332, -1073741811, 0, 1507333, 12, 0, 1507334, 12, 0, 1507335, 12, 0, 1507336, 12, 0, 1507337, 12, 0, 1507338, -1610612723, 0, 1507342, 1610612753, 0, 1507343, 18, 0, 1507344, -536870899, 0, 1507349, -1073741811, 0, 1507350, 12, 0, 1507351, 12, 0, 1507352, 12, 0, 1507353, 12, 0, 1507354, 12, 0, 1507355, -1610612723, 0, 1572868, -1073741811, 0, 1572869, 12, 0, 1572870, 12, 0, 1572871, 12, 0, 1572872, 12, 0, 1572873, 12, 0, 1572874, -1610612723, 0, 1572878, -1610612708, 0, 1572879, -1073741811, 0, 1572880, -1610612723, 0, 1572885, -1073741811, 0, 1572886, 12, 0, 1572887, 12, 0, 1572888, 12, 0, 1572889, 12, 0, 1572890, 12, 0, 1572891, -1610612723, 0, 1638403, -1073741796, 0, 1638404, -1073741811, 0, 1638405, 12, 0, 1638406, 12, 0, 1638407, 12, 0, 1638408, 12, 0, 1638409, -1610612724, 0, 1638410, -1610612723, 0, 1638411, -1073741796, 0, 1638415, -1073741811, 0, 1638416, -1610612723, 0, 1638421, -1073741811, 0, 1638422, -1073741812, 0, 1638423, 12, 0, 1638424, 12, 0, 1638425, 12, 0, 1638426, 12, 0, 1638427, -1610612723, 0, 1638428, -1073741796, 0, 1703939, -1073741807, 0, 1703940, -1610612718, 0, 1703941, 12, 0, 1703942, 12, 0, 1703943, 12, 0, 1703944, 12, 0, 1703945, 12, 0, 1703946, 1610612754, 0, 1703947, 17, 0, 1703951, -1073741811, 0, 1703952, -1610612723, 0, 1703957, -2147483635, 0, 1703958, 12, 0, 1703959, 12, 0, 1703960, 12, 0, 1703961, 12, 0, 1703962, 12, 0, 1703963, 1610612754, 0, 1703964, 17, 0, 1769475, -1073741811, 0, 1769476, 12, 0, 1769477, 12, 0, 1769478, 12, 0, 1769479, 12, 0, 1769480, 12, 0, 1769481, 12, 0, 1769482, 12, 0, 1769483, -1610612723, 0, 1769487, 1610612753, 0, 1769488, -1610612719, 0, 1769493, -2147483635, 0, 1769494, 12, 0, 1769495, 12, 0, 1769496, 12, 0, 1769497, 12, 0, 1769498, 12, 0, 1769499, 12, 0, 1769500, -1610612723, 0, 1835011, -1073741811, 0, 1835012, 12, 0, 1835013, 12, 0, 1835014, 12, 0, 1835015, 12, 0, 1835016, 12, 0, 1835017, 12, 0, 1835018, 12, 0, 1835019, -1610612723, 0, 1835023, -1610612708, 0, 1835024, -1610612708, 0, 1835029, -2147483635, 0, 1835030, 12, 0, 1835031, 12, 0, 1835032, 12, 0, 1835033, 12, 0, 1835034, 12, 0, 1835035, 12, 0, 1835036, -1610612723, 0, 1900547, -1073741811, 0, 1900548, 12, 0, 1900549, 12, 0, 1900550, 12, 0, 1900551, 12, 0, 1900552, 12, 0, 1900553, 12, 0, 1900554, 12, 0, 1900555, -1610612723, 0, 1900565, -2147483635, 0, 1900566, 12, 0, 1900567, 12, 0, 1900568, 12, 0, 1900569, 12, 0, 1900570, 12, 0, 1900571, 12, 0, 1900572, -1610612723, 0, 1966083, -1073741811, 0, 1966084, 1610612748, 0, 1966085, 12, 0, 1966086, 12, 0, 1966087, 12, 0, 1966088, 12, 0, 1966089, 12, 0, 1966090, 1610612748, 0, 1966091, -1610612723, 0, 1966092, 28, 0, 1966100, 536870940, 0, 1966101, -2147483635, 0, 1966102, 12, 0, 1966103, 12, 0, 1966104, 12, 0, 1966105, 12, 0, 1966106, -1073741812, 0, 1966107, -1073741812, 0, 1966108, -1610612723, 0, 2031616, 13, 0, 2031617, 13, 0, 2031618, 13, 0, 2031619, -1610612718, 0, 2031620, 1610612748, 0, 2031621, 1610612748, 0, 2031622, 1610612748, 0, 2031623, 1610612748, 0, 2031624, 1610612748, 0, 2031625, 1610612748, 0, 2031626, 1610612748, 0, 2031627, 1610612754, 0, 2031628, 13, 0, 2031629, 13, 0, 2031630, 13, 0, 2031631, 13, 0, 2031632, 13, 0, 2031633, 13, 0, 2031634, 13, 0, 2031635, 13, 0, 2031636, 536870925, 0, 2031637, 1073741842, 0, 2031638, -1073741812, 0, 2031639, -1073741812, 0, 2031640, -1073741812, 0, 2031641, -1073741812, 0, 2031642, -1073741812, 0, 2031643, -1073741812, 0, 2031644, 1610612754, 0, 2031645, 13, 0, 2031646, 13, 0, 2031647, 13, 0 )

[node name="DeathArea" parent="." instance=ExtResource( 2 )]
position = Vector2( 992, 120 )
rotation = -1.57079
scale = Vector2( 1.01287, 10.96 )

[node name="DeathArea2" parent="." instance=ExtResource( 2 )]
position = Vector2( 1024, 1800 )
rotation = -1.57079
scale = Vector2( 1, 2 )

[node name="DeathArea3" parent="." instance=ExtResource( 2 )]
position = Vector2( 776, 1952 )

[node name="DeathArea4" parent="." instance=ExtResource( 2 )]
position = Vector2( 1336, 1952 )

[node name="DeathArea5" parent="." instance=ExtResource( 2 )]
position = Vector2( 480, 376 )
rotation = -1.57079

[node name="DeathArea23" parent="." instance=ExtResource( 2 )]
position = Vector2( 736, 456 )
rotation = -1.57079

[node name="DeathArea24" parent="." instance=ExtResource( 2 )]
position = Vector2( 544, 568 )
rotation = -1.57079

[node name="DeathArea25" parent="." instance=ExtResource( 2 )]
position = Vector2( 352, 632 )
rotation = -1.57079

[node name="DeathArea26" parent="." instance=ExtResource( 2 )]
position = Vector2( 608, 952 )
rotation = -1.57079

[node name="DeathArea27" parent="." instance=ExtResource( 2 )]
position = Vector2( 288, 1144 )
rotation = -1.57079

[node name="DeathArea28" parent="." instance=ExtResource( 2 )]
position = Vector2( 672, 1336 )
rotation = -1.57079

[node name="DeathArea29" parent="." instance=ExtResource( 2 )]
position = Vector2( 736, 1656 )
rotation = -1.57079

[node name="DeathArea30" parent="." instance=ExtResource( 2 )]
position = Vector2( 224, 1656 )
rotation = -1.57079

[node name="DeathArea6" parent="." instance=ExtResource( 2 )]
position = Vector2( 672, 328 )
rotation = -1.57079

[node name="DeathArea9" parent="." instance=ExtResource( 2 )]
position = Vector2( 1536, 568 )
rotation = -1.57079
scale = Vector2( 1, 1.92 )

[node name="DeathArea10" parent="." instance=ExtResource( 2 )]
position = Vector2( 1696, 632 )
rotation = -1.57079

[node name="DeathArea11" parent="." instance=ExtResource( 2 )]
position = Vector2( 1280, 456 )
rotation = -1.57079
scale = Vector2( 1, 2 )

[node name="DeathArea14" parent="." instance=ExtResource( 2 )]
position = Vector2( 1760, 1144 )
rotation = -1.57079

[node name="DeathArea15" parent="." instance=ExtResource( 2 )]
position = Vector2( 1408, 1336 )
rotation = -1.57079
scale = Vector2( 1, 2 )

[node name="DeathArea16" parent="." instance=ExtResource( 2 )]
position = Vector2( 1152, 1160 )
rotation = -1.57079
scale = Vector2( 1, 2.04 )

[node name="DeathArea17" parent="." instance=ExtResource( 2 )]
position = Vector2( 864, 1160 )
rotation = -1.57079

[node name="DeathArea18" parent="." instance=ExtResource( 2 )]
position = Vector2( 800, 776 )
rotation = -1.57079

[node name="DeathArea20" parent="." instance=ExtResource( 2 )]
position = Vector2( 928, 1544 )
rotation = 1.57079

[node name="DeathArea22" parent="." instance=ExtResource( 2 )]
position = Vector2( 1824, 1656 )
rotation = 1.57079

[node name="Coin13" parent="." instance=ExtResource( 3 )]
position = Vector2( 64, 384 )

[node name="Coin47" parent="." instance=ExtResource( 3 )]
position = Vector2( 1024, 1856 )

[node name="Coin30" parent="." instance=ExtResource( 3 )]
position = Vector2( 1984, 384 )

[node name="Coin31" parent="." instance=ExtResource( 3 )]
position = Vector2( 736, 32 )

[node name="Coin37" parent="." instance=ExtResource( 3 )]
position = Vector2( 992, 32 )

[node name="Coin45" parent="." instance=ExtResource( 3 )]
position = Vector2( 1248, 32 )
