[gd_scene load_steps=7 format=2]

[ext_resource path="res://scenes/obstacles/Turret.tscn" type="PackedScene" id=1]
[ext_resource path="res://scenes/obstacles/Key.tscn" type="PackedScene" id=2]
[ext_resource path="res://scenes/obstacles/TimeReversalCharge.tscn" type="PackedScene" id=3]
[ext_resource path="res://scenes/obstacles/DeathArea.tscn" type="PackedScene" id=4]
[ext_resource path="res://scenes/obstacles/Coin.tscn" type="PackedScene" id=5]
[ext_resource path="res://sprites/mock/Testing_tile_sets.tres" type="TileSet" id=6]

[node name="2A_009_3_K" type="Node2D"]

[node name="TileMap" type="TileMap" parent="."]
scale = Vector2( 0.5, 0.5 )
tile_set = ExtResource( 6 )
cell_size = Vector2( 128, 128 )
cell_custom_transform = Transform2D( 0, 0, 0, 0, 0, 0 )
format = 1
tile_data = PoolIntArray( 31, -1073741811, 0, 65567, -1073741811, 0, 131097, -1073741796, 0, 131098, -1073741796, 0, 131099, -1073741796, 0, 131103, -2147483635, 0, 196615, 536870929, 0, 196616, 536870925, 0, 196617, 536870925, 0, 196618, 536870925, 0, 196619, 536870925, 0, 196620, 536870925, 0, 196621, -536870895, 0, 196629, 536870929, 0, 196630, 536870925, 0, 196631, 536870925, 0, 196632, 536870925, 0, 196633, 536870925, 0, 196634, 536870925, 0, 196635, 536870925, 0, 196636, 536870925, 0, 196637, 536870925, 0, 196638, 536870925, 0, 196639, 1073741842, 0, 262149, 536870942, 0, 262150, 536870929, 0, 262151, 1073741842, 0, 262152, 12, 0, 262153, 12, 0, 262154, 12, 0, 262155, 12, 0, 262156, 12, 0, 262157, -2147483630, 0, 262158, -536870895, 0, 262165, -2147483635, 0, 262166, -1610612724, 0, 262167, -1610612724, 0, 262168, -1610612724, 0, 262169, -1610612724, 0, 262170, -1610612724, 0, 262171, -1610612724, 0, 262172, -1610612724, 0, 262173, -1610612724, 0, 262174, -1610612724, 0, 262175, -1610612724, 0, 327684, 536870942, 0, 327685, 536870929, 0, 327686, 1073741842, 0, 327687, 12, 0, 327688, 12, 0, 327689, -1610612724, 0, 327690, 12, 0, 327691, 12, 0, 327692, 12, 0, 327693, 12, 0, 327694, -2147483630, 0, 327695, -536870895, 0, 327696, -536870882, 0, 327701, -2147483631, 0, 327702, 1073741837, 0, 327703, 1073741837, 0, 327704, 1073741837, 0, 327705, 1073741837, 0, 327706, 1073741837, 0, 327707, 1073741837, 0, 327708, 1073741837, 0, 327709, 1073741837, 0, 327710, 1073741837, 0, 327711, -536870894, 0, 393220, 536870929, 0, 393221, 1073741842, 0, 393222, 12, 0, 393223, 12, 0, 393224, 536870930, 0, 393225, 1073741837, 0, 393226, 1073741837, 0, 393227, 1073741837, 0, 393228, -536870894, 0, 393229, 12, 0, 393230, 12, 0, 393231, -2147483630, 0, 393232, -536870895, 0, 393233, -536870882, 0, 393243, -1610612708, 0, 393244, -1610612708, 0, 393245, -1610612708, 0, 393246, -2147483618, 0, 393247, -1073741811, 0, 458755, 536870929, 0, 458756, 1073741842, 0, 458757, 12, 0, 458758, 12, 0, 458759, 536870930, 0, 458760, 1073741841, 0, 458764, -2147483631, 0, 458765, -536870894, 0, 458766, 12, 0, 458767, 12, 0, 458768, -2147483630, 0, 458769, -536870895, 0, 458770, -536870882, 0, 458779, -1073741796, 0, 458780, -1073741796, 0, 458781, -1073741796, 0, 458782, 536870942, 0, 458783, -1073741811, 0, 524291, -2147483635, 0, 524292, 12, 0, 524293, 12, 0, 524294, 536870930, 0, 524295, 1073741841, 0, 524301, -2147483631, 0, 524302, -536870894, 0, 524303, 12, 0, 524304, 12, 0, 524305, -2147483630, 0, 524306, -536870895, 0, 524314, 536870929, 0, 524315, 536870925, 0, 524316, 536870925, 0, 524317, 536870925, 0, 524318, 536870925, 0, 524319, 1073741842, 0, 589827, -2147483635, 0, 589828, 12, 0, 589829, 536870930, 0, 589830, 1073741841, 0, 589838, -2147483631, 0, 589839, -536870894, 0, 589840, 12, 0, 589841, 12, 0, 589842, -2147483630, 0, 589843, -536870895, 0, 589850, -2147483635, 0, 589851, -1610612724, 0, 589852, -1610612724, 0, 589853, -1610612724, 0, 589854, -1610612724, 0, 589855, -1610612724, 0, 655363, -2147483635, 0, 655364, 536870930, 0, 655365, 1073741841, 0, 655375, -2147483631, 0, 655376, -536870894, 0, 655377, 12, 0, 655378, 12, 0, 655379, -2147483630, 0, 655380, -536870895, 0, 655386, -2147483631, 0, 655387, 1073741837, 0, 655388, 1073741837, 0, 655389, 1073741837, 0, 655390, 1073741837, 0, 655391, -536870894, 0, 720898, 1610612764, 0, 720899, 536870935, 0, 720900, 1073741841, 0, 720912, -2147483631, 0, 720913, -536870894, 0, 720914, 12, 0, 720915, 12, 0, 720916, -2147483630, 0, 720917, -536870895, 0, 720918, -536870882, 0, 720923, -1610612708, 0, 720924, -1610612708, 0, 720925, -1610612708, 0, 720926, -2147483618, 0, 720927, -1073741811, 0, 786435, -2147483632, 0, 786441, 536870929, 0, 786442, 536870925, 0, 786443, -536870895, 0, 786449, -2147483631, 0, 786450, -536870894, 0, 786451, 12, 0, 786452, 12, 0, 786453, -2147483630, 0, 786454, -536870895, 0, 786455, -536870882, 0, 786462, 1610612764, 0, 786463, -1073741811, 0, 851976, 536870929, 0, 851977, 1073741842, 0, 851978, 12, 0, 851979, -2147483630, 0, 851980, -536870895, 0, 851986, -2147483631, 0, 851987, -536870894, 0, 851988, 12, 0, 851989, 12, 0, 851990, -2147483630, 0, 851991, -536870895, 0, 851992, -536870882, 0, 851998, 536870929, 0, 851999, 1073741842, 0, 917511, 536870929, 0, 917512, 1073741842, 0, 917513, 12, 0, 917514, 12, 0, 917515, 12, 0, 917516, -2147483630, 0, 917517, -536870895, 0, 917523, -2147483631, 0, 917524, -536870894, 0, 917525, 12, 0, 917526, 12, 0, 917527, -2147483630, 0, 917528, -536870895, 0, 917534, -2147483631, 0, 917535, -536870894, 0, 983046, 536870929, 0, 983047, 1073741842, 0, 983048, -1610612724, 0, 983049, -1610612724, 0, 983050, -1610612724, 0, 983051, 12, 0, 983052, 12, 0, 983053, -2147483630, 0, 983054, -536870895, 0, 983060, -2147483631, 0, 983061, -536870894, 0, 983062, 12, 0, 983063, 12, 0, 983064, -2147483630, 0, 983065, -536870895, 0, 983071, -1073741811, 0, 1048581, 536870929, 0, 1048582, 1073741842, 0, 1048583, -1610612724, 0, 1048584, -1610612724, 0, 1048585, -1610612724, 0, 1048586, 12, 0, 1048587, 12, 0, 1048588, -1610612724, 0, 1048589, -1610612724, 0, 1048590, -2147483630, 0, 1048591, -536870895, 0, 1048597, -2147483631, 0, 1048598, -536870894, 0, 1048599, 12, 0, 1048600, 12, 0, 1048601, -2147483630, 0, 1048602, -536870895, 0, 1048607, -1073741811, 0, 1114116, 536870929, 0, 1114117, 1073741842, 0, 1114118, -1610612724, 0, 1114119, 12, 0, 1114120, -1610612724, 0, 1114121, 12, 0, 1114122, -1610612724, 0, 1114123, -1610612724, 0, 1114124, -1610612724, 0, 1114125, -1610612724, 0, 1114126, -1610612724, 0, 1114127, -2147483630, 0, 1114128, -536870895, 0, 1114134, -2147483631, 0, 1114135, -536870894, 0, 1114136, 12, 0, 1114137, 12, 0, 1114138, -2147483630, 0, 1114139, -536870895, 0, 1114140, -536870882, 0, 1114143, -1073741811, 0, 1179652, -2147483635, 0, 1179653, -1610612724, 0, 1179654, -1610612724, 0, 1179655, -1610612724, 0, 1179656, 12, 0, 1179657, 12, 0, 1179658, -1610612724, 0, 1179659, -1610612724, 0, 1179660, -1610612724, 0, 1179661, -1610612724, 0, 1179662, -1610612724, 0, 1179663, -1610612724, 0, 1179664, -2147483630, 0, 1179665, -536870895, 0, 1179671, -2147483631, 0, 1179672, -536870894, 0, 1179673, 12, 0, 1179674, 12, 0, 1179675, -2147483630, 0, 1179676, -536870895, 0, 1179679, -1073741811, 0, 1245188, -2147483631, 0, 1245189, 1073741837, 0, 1245190, 1073741837, 0, 1245191, 1073741837, 0, 1245192, 1073741837, 0, 1245193, 1073741837, 0, 1245194, 1073741837, 0, 1245195, 1073741837, 0, 1245196, 1073741837, 0, 1245197, -536870894, 0, 1245198, 12, 0, 1245199, 12, 0, 1245200, 12, 0, 1245201, -2147483630, 0, 1245202, -536870895, 0, 1245208, -2147483631, 0, 1245209, -536870894, 0, 1245210, 12, 0, 1245211, 12, 0, 1245212, -2147483630, 0, 1245213, -536870895, 0, 1245215, -1073741811, 0, 1310724, -1610612708, 0, 1310729, -1610612708, 0, 1310730, -1610612708, 0, 1310731, -1610612708, 0, 1310732, -2147483618, 0, 1310733, -2147483635, 0, 1310734, 12, 0, 1310735, 12, 0, 1310736, 12, 0, 1310737, 12, 0, 1310738, -2147483630, 0, 1310739, -536870895, 0, 1310745, -2147483631, 0, 1310746, -536870894, 0, 1310747, 12, 0, 1310748, 12, 0, 1310749, -2147483630, 0, 1310750, 536870925, 0, 1310751, -1610612718, 0, 1376265, -1073741796, 0, 1376266, -1073741796, 0, 1376267, -1073741796, 0, 1376268, 536870942, 0, 1376269, -2147483635, 0, 1376270, 12, 0, 1376271, 12, 0, 1376272, 12, 0, 1376273, 12, 0, 1376274, 12, 0, 1376275, -2147483630, 0, 1376276, -536870895, 0, 1376282, -2147483631, 0, 1376283, 1073741837, 0, 1376284, 1073741837, 0, 1376285, -536870894, 0, 1376286, 12, 0, 1376287, 12, 0, 1441799, 536870929, 0, 1441800, 536870925, 0, 1441801, 536870925, 0, 1441802, 536870925, 0, 1441803, 536870925, 0, 1441804, 536870925, 0, 1441805, 1073741842, 0, 1441806, 12, 0, 1441807, 12, 0, 1441808, 12, 0, 1441809, 12, 0, 1441810, 12, 0, 1441811, 12, 0, 1441812, -2147483630, 0, 1441813, -536870895, 0, 1441821, -2147483635, 0, 1441822, 12, 0, 1441823, 12, 0, 1507335, -2147483635, 0, 1507336, -1610612724, 0, 1507337, -1610612724, 0, 1507338, -1610612724, 0, 1507339, -1610612724, 0, 1507340, -1610612724, 0, 1507341, 12, 0, 1507342, 12, 0, 1507343, 12, 0, 1507344, 12, 0, 1507345, 12, 0, 1507346, 12, 0, 1507347, 12, 0, 1507348, 12, 0, 1507349, -2147483630, 0, 1507350, -536870895, 0, 1507357, -2147483635, 0, 1507358, 12, 0, 1507359, 12, 0, 1572871, -2147483631, 0, 1572872, 1073741837, 0, 1572873, 1073741837, 0, 1572874, 1073741837, 0, 1572875, 1073741837, 0, 1572876, 1073741837, 0, 1572877, 1073741837, 0, 1572878, 1073741837, 0, 1572879, 1073741837, 0, 1572880, 1073741837, 0, 1572881, 1073741837, 0, 1572882, -536870894, 0, 1572883, 12, 0, 1572884, 12, 0, 1572885, 12, 0, 1572886, -536870899, 0, 1572893, -2147483635, 0, 1572894, 12, 0, 1572895, 12, 0, 1638414, -1610612708, 0, 1638415, -1610612708, 0, 1638416, -1610612708, 0, 1638417, -2147483618, 0, 1638418, -2147483635, 0, 1638419, 12, 0, 1638420, 12, 0, 1638421, 12, 0, 1638422, -536870899, 0, 1638429, -2147483635, 0, 1638430, 12, 0, 1638431, 12, 0, 1703950, -1073741796, 0, 1703951, -1073741796, 0, 1703952, -1073741796, 0, 1703953, 536870942, 0, 1703954, -2147483635, 0, 1703955, 12, 0, 1703956, 12, 0, 1703957, 12, 0, 1703958, -536870899, 0, 1703961, -1073741808, 0, 1703965, -2147483635, 0, 1703966, 12, 0, 1703967, 12, 0, 1769485, 536870929, 0, 1769486, 536870925, 0, 1769487, 536870925, 0, 1769488, 536870925, 0, 1769489, 536870925, 0, 1769490, 1073741842, 0, 1769491, 12, 0, 1769492, 12, 0, 1769493, 12, 0, 1769494, -536870899, 0, 1769497, -1073741809, 0, 1769501, -2147483635, 0, 1769502, 12, 0, 1769503, 12, 0, 1835021, -2147483635, 0, 1835022, -1610612724, 0, 1835023, -1610612724, 0, 1835024, -1610612724, 0, 1835025, -1610612724, 0, 1835026, 12, 0, 1835027, 12, 0, 1835028, 12, 0, 1835029, 12, 0, 1835030, -2147483630, 0, 1835031, 536870925, 0, 1835032, 536870925, 0, 1835033, 1610612760, 0, 1835034, 536870925, 0, 1835035, 536870925, 0, 1835036, 536870925, 0, 1835037, 1073741842, 0, 1835038, 12, 0, 1835039, 12, 0, 1900557, -2147483635, 0, 1900558, -1610612724, 0, 1900559, -1610612724, 0, 1900560, -1610612724, 0, 1900561, -1610612724, 0, 1900562, -1610612724, 0, 1900563, 12, 0, 1900564, 12, 0, 1900565, 12, 0, 1900566, 12, 0, 1900567, 12, 0, 1900568, 12, 0, 1900569, 12, 0, 1900570, 12, 0, 1900571, 12, 0, 1900572, 12, 0, 1900573, 12, 0, 1900574, 12, 0, 1900575, 12, 0, 1966093, -2147483635, 0, 1966094, -1610612724, 0, 1966095, -1610612724, 0, 1966096, -1610612724, 0, 1966097, -1610612724, 0, 1966098, -1610612724, 0, 1966099, -1610612724, 0, 1966100, -1610612724, 0, 1966101, 12, 0, 1966102, 12, 0, 1966103, 12, 0, 1966104, 12, 0, 1966105, 12, 0, 1966106, 12, 0, 1966107, 12, 0, 1966108, 12, 0, 1966109, 12, 0, 1966110, 12, 0, 1966111, 12, 0, 2031616, 13, 0, 2031617, 13, 0, 2031618, 13, 0, 2031619, 13, 0, 2031620, 13, 0, 2031621, 13, 0, 2031622, 13, 0, 2031623, 13, 0, 2031624, 13, 0, 2031625, 13, 0, 2031626, 13, 0, 2031627, 13, 0, 2031628, 13, 0, 2031629, 1073741842, 0, 2031630, -1610612724, 0, 2031631, -1610612724, 0, 2031632, -1610612724, 0, 2031633, -1610612724, 0, 2031634, -1610612724, 0, 2031635, -1610612724, 0, 2031636, -1610612724, 0, 2031637, 12, 0, 2031638, 12, 0, 2031639, 12, 0, 2031640, 12, 0, 2031641, 12, 0, 2031642, 12, 0, 2031643, 12, 0, 2031644, 12, 0, 2031645, 12, 0, 2031646, 12, 0, 2031647, 12, 0 )

[node name="DeathArea" parent="." instance=ExtResource( 4 )]
position = Vector2( 184, 736 )

[node name="DeathArea4" parent="." instance=ExtResource( 4 )]
position = Vector2( 1032, 352 )

[node name="DeathArea24" parent="." instance=ExtResource( 4 )]
position = Vector2( 1056, 376 )
rotation = -1.57079

[node name="DeathArea25" parent="." instance=ExtResource( 4 )]
position = Vector2( 1120, 440 )
rotation = -1.57079

[node name="DeathArea26" parent="." instance=ExtResource( 4 )]
position = Vector2( 1184, 504 )
rotation = -1.57079

[node name="DeathArea27" parent="." instance=ExtResource( 4 )]
position = Vector2( 1440, 760 )
rotation = -1.57079

[node name="DeathArea28" parent="." instance=ExtResource( 4 )]
position = Vector2( 1504, 824 )
rotation = -1.57079

[node name="DeathArea29" parent="." instance=ExtResource( 4 )]
position = Vector2( 1568, 888 )
rotation = -1.57079

[node name="DeathArea30" parent="." instance=ExtResource( 4 )]
position = Vector2( 1824, 1144 )
rotation = -1.57079

[node name="DeathArea5" parent="." instance=ExtResource( 4 )]
position = Vector2( 1096, 416 )

[node name="DeathArea6" parent="." instance=ExtResource( 4 )]
position = Vector2( 1160, 480 )

[node name="DeathArea7" parent="." instance=ExtResource( 4 )]
position = Vector2( 1416, 736 )

[node name="DeathArea8" parent="." instance=ExtResource( 4 )]
position = Vector2( 1480, 800 )

[node name="DeathArea9" parent="." instance=ExtResource( 4 )]
position = Vector2( 1544, 864 )

[node name="DeathArea10" parent="." instance=ExtResource( 4 )]
position = Vector2( 1800, 1120 )

[node name="DeathArea11" parent="." instance=ExtResource( 4 )]
position = Vector2( 1976, 768 )
scale = Vector2( 1, 2.04 )

[node name="DeathArea12" parent="." instance=ExtResource( 4 )]
position = Vector2( 1976, 448 )
scale = Vector2( 1, 2.04 )

[node name="DeathArea13" parent="." instance=ExtResource( 4 )]
position = Vector2( 1856, 712 )
rotation = -1.5708
scale = Vector2( 1, 3.92 )

[node name="DeathArea14" parent="." instance=ExtResource( 4 )]
position = Vector2( 1856, 504 )
rotation = -1.5708
scale = Vector2( 1, 3.92 )

[node name="DeathArea15" parent="." instance=ExtResource( 4 )]
position = Vector2( 1856, 392 )
rotation = -1.5708
scale = Vector2( 1, 3.92 )

[node name="DeathArea18" parent="." instance=ExtResource( 4 )]
position = Vector2( 824, 1344 )
scale = Vector2( 1, 2.04 )

[node name="DeathArea19" parent="." instance=ExtResource( 4 )]
position = Vector2( 704, 1400 )
rotation = -1.5708
scale = Vector2( 1, 3.92 )

[node name="DeathArea20" parent="." instance=ExtResource( 4 )]
position = Vector2( 704, 1288 )
rotation = -1.5708
scale = Vector2( 1, 3.92 )

[node name="DeathArea21" parent="." instance=ExtResource( 4 )]
position = Vector2( 1144, 1664 )
scale = Vector2( 1, 2.04 )

[node name="DeathArea22" parent="." instance=ExtResource( 4 )]
position = Vector2( 1024, 1720 )
rotation = -1.5708
scale = Vector2( 1, 3.92 )

[node name="DeathArea23" parent="." instance=ExtResource( 4 )]
position = Vector2( 1024, 1608 )
rotation = -1.5708
scale = Vector2( 1, 3.92 )

[node name="DeathArea16" parent="." instance=ExtResource( 4 )]
position = Vector2( 1696, 184 )
rotation = -1.5708
scale = Vector2( 1, 3 )

[node name="DeathArea2" parent="." instance=ExtResource( 4 )]
position = Vector2( 288, 376 )
rotation = -1.5708

[node name="DeathArea31" parent="." instance=ExtResource( 4 )]
position = Vector2( 312, 352 )

[node name="DeathArea32" parent="." instance=ExtResource( 4 )]
position = Vector2( 376, 288 )

[node name="DeathArea17" parent="." instance=ExtResource( 4 )]
position = Vector2( 288, 1288 )
rotation = -1.5708

[node name="DeathArea3" parent="." instance=ExtResource( 4 )]
position = Vector2( 352, 312 )
rotation = -1.5708

[node name="Coin65" parent="." instance=ExtResource( 5 )]
position = Vector2( 448, 1344 )

[node name="Coin66" parent="." instance=ExtResource( 5 )]
position = Vector2( 512, 1344 )

[node name="Coin55" parent="." instance=ExtResource( 5 )]
position = Vector2( 672, 608 )

[node name="Coin17" parent="." instance=ExtResource( 5 )]
position = Vector2( 1344, 576 )

[node name="Coin18" parent="." instance=ExtResource( 5 )]
position = Vector2( 1728, 448 )

[node name="Coin9" parent="." instance=ExtResource( 5 )]
position = Vector2( 1664, 896 )

[node name="Coin87" parent="." instance=ExtResource( 5 )]
position = Vector2( 1664, 1600 )

[node name="Coin27" parent="." instance=ExtResource( 5 )]
position = Vector2( 1920, 1152 )

[node name="Key" parent="." instance=ExtResource( 2 )]
position = Vector2( 1568, 1696 )

[node name="TimeReversalCharge" parent="." instance=ExtResource( 3 )]
position = Vector2( 768, 1344 )

[node name="TimeReversalCharge3" parent="." instance=ExtResource( 3 )]
position = Vector2( 1760, 1504 )

[node name="TimeReversalCharge4" parent="." instance=ExtResource( 3 )]
position = Vector2( 1920, 448 )

[node name="Turret" parent="." instance=ExtResource( 1 )]
position = Vector2( 1824, 1696 )
rotation = -1.57079
