[gd_scene load_steps=5 format=2]

[ext_resource path="res://scenes/obstacles/Coin.tscn" type="PackedScene" id=1]
[ext_resource path="res://scenes/obstacles/DeathArea.tscn" type="PackedScene" id=2]
[ext_resource path="res://scenes/obstacles/TimeReversalCharge.tscn" type="PackedScene" id=3]
[ext_resource path="res://sprites/mock/Testing_tile_sets.tres" type="TileSet" id=4]

[node name="2A_004_1_N" type="Node2D"]

[node name="TileMap" type="TileMap" parent="."]
scale = Vector2( 0.5, 0.5 )
tile_set = ExtResource( 4 )
cell_size = Vector2( 128, 128 )
cell_custom_transform = Transform2D( 0, 0, 0, 0, 0, 0 )
format = 1
tile_data = PoolIntArray( 30, -1073741811, 0, 31, -1073741812, 0, 65566, -1073741811, 0, 65567, -1073741812, 0, 131102, -1073741811, 0, 131103, -1073741812, 0, 196638, -1073741811, 0, 196639, -1073741812, 0, 262174, -1073741811, 0, 262175, -1073741812, 0, 327685, -1073741807, 0, 327686, 13, 0, 327687, 13, 0, 327688, 13, 0, 327689, 13, 0, 327690, 13, 0, 327691, 13, 0, 327692, 13, 0, 327693, 17, 0, 327694, 28, 0, 327697, 1610612764, 0, 327698, -1073741807, 0, 327699, 13, 0, 327700, 13, 0, 327701, 13, 0, 327702, 13, 0, 327703, 13, 0, 327704, 13, 0, 327705, 13, 0, 327706, 17, 0, 327710, -1073741811, 0, 327711, -1073741812, 0, 393221, -1073741811, 0, 393222, 12, 0, 393223, 12, 0, 393224, 12, 0, 393225, 12, 0, 393226, 12, 0, 393227, 12, 0, 393228, 12, 0, 393229, -1610612723, 0, 393230, 28, 0, 393233, 1610612764, 0, 393234, -2147483635, 0, 393235, 12, 0, 393236, 12, 0, 393237, 12, 0, 393238, 12, 0, 393239, 12, 0, 393240, 12, 0, 393241, 12, 0, 393242, -1610612723, 0, 393246, -1073741811, 0, 393247, -1073741812, 0, 458757, -1073741811, 0, 458758, 12, 0, 458759, 12, 0, 458760, 12, 0, 458761, 12, 0, 458762, 12, 0, 458763, 12, 0, 458764, 12, 0, 458765, -1610612723, 0, 458766, 28, 0, 458769, 1610612764, 0, 458770, -2147483635, 0, 458771, 12, 0, 458772, 12, 0, 458773, 12, 0, 458774, 12, 0, 458775, 12, 0, 458776, 12, 0, 458777, 12, 0, 458778, -1610612723, 0, 458782, -1073741811, 0, 458783, -1073741812, 0, 524293, -1073741811, 0, 524294, 12, 0, 524295, 12, 0, 524296, 12, 0, 524297, 12, 0, 524298, 12, 0, 524299, 12, 0, 524300, 12, 0, 524301, -1610612723, 0, 524302, 28, 0, 524305, 1610612764, 0, 524306, -2147483635, 0, 524307, 12, 0, 524308, 12, 0, 524309, 12, 0, 524310, 12, 0, 524311, 12, 0, 524312, 12, 0, 524313, 12, 0, 524314, -1610612723, 0, 524318, -1073741811, 0, 524319, -1073741812, 0, 589829, -1073741811, 0, 589830, 12, 0, 589831, 12, 0, 589832, 12, 0, 589833, -1073741806, 0, 589834, 1610612749, 0, 589835, 1610612749, 0, 589836, 1610612749, 0, 589837, -1610612719, 0, 589838, 28, 0, 589841, 1610612764, 0, 589842, -2147483631, 0, 589843, 1073741837, 0, 589844, 1073741837, 0, 589845, 1073741837, 0, 589846, 18, 0, 589847, 12, 0, 589848, 12, 0, 589849, 12, 0, 589850, -1610612723, 0, 589854, -1073741811, 0, 589855, -1073741812, 0, 655365, -1073741811, 0, 655366, 12, 0, 655367, 12, 0, 655368, 12, 0, 655369, -1610612723, 0, 655382, -2147483635, 0, 655383, 12, 0, 655384, 12, 0, 655385, 12, 0, 655386, -1610612723, 0, 655390, -1073741811, 0, 655391, -1073741812, 0, 720901, -1073741811, 0, 720902, 12, 0, 720903, 12, 0, 720904, 12, 0, 720905, -1610612723, 0, 720918, -2147483635, 0, 720919, 12, 0, 720920, 12, 0, 720921, 12, 0, 720922, -1610612723, 0, 720926, -1073741811, 0, 720927, -1073741812, 0, 786437, -1073741811, 0, 786438, 12, 0, 786439, 12, 0, 786440, 12, 0, 786441, -1610612723, 0, 786454, -2147483635, 0, 786455, 12, 0, 786456, 12, 0, 786457, 12, 0, 786458, -1610612723, 0, 786462, -1073741811, 0, 786463, -1073741812, 0, 851973, -1073741811, 0, 851974, 12, 0, 851975, 12, 0, 851976, 12, 0, 851977, -1610612723, 0, 851982, -1073741796, 0, 851983, -1073741796, 0, 851984, -1073741796, 0, 851985, -1073741796, 0, 851990, 1610612753, 0, 851991, 1610612749, 0, 851992, 1610612749, 0, 851993, 1610612749, 0, 851994, -1610612719, 0, 851998, -1073741811, 0, 851999, -1073741812, 0, 917509, -1073741811, 0, 917510, 12, 0, 917511, 12, 0, 917512, 12, 0, 917513, -1610612723, 0, 917517, 1610612764, 0, 917518, -1073741807, 0, 917519, 13, 0, 917520, 13, 0, 917521, 17, 0, 917522, 28, 0, 917534, -1073741811, 0, 917535, -1073741812, 0, 983045, -1073741811, 0, 983046, 12, 0, 983047, 12, 0, 983048, 12, 0, 983049, -1610612723, 0, 983053, 1610612764, 0, 983054, -1073741811, 0, 983055, 12, 0, 983056, 12, 0, 983057, -1610612723, 0, 983058, 28, 0, 983070, -1073741811, 0, 983071, -1073741812, 0, 1048581, -1073741811, 0, 1048582, 12, 0, 1048583, 12, 0, 1048584, 12, 0, 1048585, -1610612723, 0, 1048589, 1610612764, 0, 1048590, -1073741811, 0, 1048591, 12, 0, 1048592, 12, 0, 1048593, -1610612723, 0, 1048594, 28, 0, 1048605, 1610612764, 0, 1048606, -1073741811, 0, 1048607, -1073741812, 0, 1114117, -1073741811, 0, 1114118, 12, 0, 1114119, 12, 0, 1114120, 12, 0, 1114121, -1610612723, 0, 1114125, 1610612764, 0, 1114126, 1610612753, 0, 1114127, 1610612749, 0, 1114128, 1610612749, 0, 1114129, -1610612719, 0, 1114130, 28, 0, 1114140, -1073741796, 0, 1114141, -1073741794, 0, 1114142, -1073741811, 0, 1114143, -1073741812, 0, 1179653, -1073741811, 0, 1179654, 12, 0, 1179655, 12, 0, 1179656, 12, 0, 1179657, -1610612723, 0, 1179662, -1610612708, 0, 1179663, -1610612708, 0, 1179664, -1610612708, 0, 1179665, -1610612708, 0, 1179670, -1073741807, 0, 1179671, 13, 0, 1179672, 13, 0, 1179673, 13, 0, 1179674, 13, 0, 1179675, 13, 0, 1179676, 13, 0, 1179677, 13, 0, 1179678, -1610612718, 0, 1179679, -1073741812, 0, 1245189, -1073741811, 0, 1245190, 12, 0, 1245191, 12, 0, 1245192, 12, 0, 1245193, -1610612723, 0, 1245206, -1073741811, 0, 1245207, 12, 0, 1245208, 12, 0, 1245209, 12, 0, 1245210, 12, 0, 1245211, 12, 0, 1245212, -1073741812, 0, 1245213, -1073741812, 0, 1245214, -1073741812, 0, 1245215, -1073741812, 0, 1310725, -1073741811, 0, 1310726, 12, 0, 1310727, 12, 0, 1310728, 12, 0, 1310729, -1610612723, 0, 1310742, -1073741811, 0, 1310743, 12, 0, 1310744, 12, 0, 1310745, 12, 0, 1310746, 12, 0, 1310747, 12, 0, 1310748, -1073741812, 0, 1310749, -1073741812, 0, 1310750, -1073741812, 0, 1310751, -1073741812, 0, 1376261, -1073741811, 0, 1376262, 12, 0, 1376263, 12, 0, 1376264, 12, 0, 1376265, -1610612723, 0, 1376278, -1073741811, 0, 1376279, 12, 0, 1376280, 12, 0, 1376281, 12, 0, 1376282, 12, 0, 1376283, 12, 0, 1376284, -1073741812, 0, 1376285, -1073741812, 0, 1376286, -1073741812, 0, 1376287, -1073741812, 0, 1441797, -1073741811, 0, 1441798, 12, 0, 1441799, 12, 0, 1441800, 12, 0, 1441801, 1610612754, 0, 1441802, 13, 0, 1441803, 13, 0, 1441804, 13, 0, 1441805, 17, 0, 1441810, -1073741807, 0, 1441811, 13, 0, 1441812, 13, 0, 1441813, 13, 0, 1441814, -1610612718, 0, 1441815, 12, 0, 1441816, 12, 0, 1441817, 12, 0, 1441818, 12, 0, 1441819, 12, 0, 1441820, -1073741812, 0, 1441821, -1073741812, 0, 1441822, -1073741812, 0, 1441823, -1073741812, 0, 1507333, -1073741811, 0, 1507334, 12, 0, 1507335, 12, 0, 1507336, 12, 0, 1507337, 12, 0, 1507338, 12, 0, 1507339, 12, 0, 1507340, 12, 0, 1507341, -1610612723, 0, 1507346, -1073741811, 0, 1507347, 12, 0, 1507348, 12, 0, 1507349, 12, 0, 1507350, 12, 0, 1507351, 12, 0, 1507352, 12, 0, 1507353, 12, 0, 1507354, 12, 0, 1507355, 12, 0, 1507356, -1073741812, 0, 1507357, -1073741812, 0, 1507358, -1073741812, 0, 1507359, -1073741812, 0, 1572869, -1073741811, 0, 1572870, 12, 0, 1572871, 12, 0, 1572872, 12, 0, 1572873, 12, 0, 1572874, 12, 0, 1572875, 12, 0, 1572876, 12, 0, 1572877, -1610612723, 0, 1572882, -1073741811, 0, 1572883, 12, 0, 1572884, 12, 0, 1572885, 12, 0, 1572886, 12, 0, 1572887, 12, 0, 1572888, 12, 0, 1572889, 12, 0, 1572890, 12, 0, 1572891, 12, 0, 1572892, -1073741812, 0, 1572893, -1073741812, 0, 1572894, -1073741812, 0, 1572895, -1073741812, 0, 1638405, -1073741811, 0, 1638406, 12, 0, 1638407, 12, 0, 1638408, 12, 0, 1638409, 12, 0, 1638410, 12, 0, 1638411, 12, 0, 1638412, 12, 0, 1638413, -1610612723, 0, 1638418, -1073741811, 0, 1638419, 12, 0, 1638420, 12, 0, 1638421, 12, 0, 1638422, 12, 0, 1638423, 12, 0, 1638424, 12, 0, 1638425, 12, 0, 1638426, 12, 0, 1638427, 12, 0, 1638428, -1073741812, 0, 1638429, -1073741812, 0, 1638430, -1073741812, 0, 1638431, -1073741812, 0, 1703941, 1610612753, 0, 1703942, 1610612749, 0, 1703943, 1610612749, 0, 1703944, 1610612749, 0, 1703945, 1610612749, 0, 1703946, 1610612749, 0, 1703947, 1610612749, 0, 1703948, 1610612749, 0, 1703949, -1610612719, 0, 1703954, -1073741811, 0, 1703955, 12, 0, 1703956, 12, 0, 1703957, 12, 0, 1703958, 12, 0, 1703959, 12, 0, 1703960, 12, 0, 1703961, 12, 0, 1703962, 12, 0, 1703963, 12, 0, 1703964, -1073741812, 0, 1703965, -1073741812, 0, 1703966, -1073741812, 0, 1703967, -1073741812, 0, 1769490, -1073741811, 0, 1769491, 12, 0, 1769492, 12, 0, 1769493, 12, 0, 1769494, 12, 0, 1769495, 12, 0, 1769496, 12, 0, 1769497, 12, 0, 1769498, 12, 0, 1769499, 12, 0, 1769500, -1073741812, 0, 1769501, -1073741812, 0, 1769502, -1073741812, 0, 1769503, -1073741812, 0, 1835025, 1610612764, 0, 1835026, -1073741811, 0, 1835027, 12, 0, 1835028, 12, 0, 1835029, 12, 0, 1835030, 12, 0, 1835031, 12, 0, 1835032, 12, 0, 1835033, 12, 0, 1835034, 12, 0, 1835035, 12, 0, 1835036, -1073741812, 0, 1835037, -1073741812, 0, 1835038, -1073741812, 0, 1835039, -1073741812, 0, 1900560, -1073741796, 0, 1900561, -1073741794, 0, 1900562, -1073741811, 0, 1900563, -1073741812, 0, 1900564, -1073741812, 0, 1900565, -1073741812, 0, 1900566, -1073741812, 0, 1900567, -1073741812, 0, 1900568, -1073741812, 0, 1900569, -1073741812, 0, 1900570, -1073741812, 0, 1900571, -1073741812, 0, 1900572, -1073741812, 0, 1900573, -1073741812, 0, 1900574, -1073741812, 0, 1900575, -1073741812, 0, 1966080, 13, 0, 1966081, 13, 0, 1966082, 13, 0, 1966083, 13, 0, 1966084, 13, 0, 1966085, 13, 0, 1966086, 13, 0, 1966087, 13, 0, 1966088, 13, 0, 1966089, 13, 0, 1966090, 13, 0, 1966091, 13, 0, 1966092, 13, 0, 1966093, 13, 0, 1966094, 13, 0, 1966095, 13, 0, 1966096, 13, 0, 1966097, 13, 0, 1966098, -1610612718, 0, 1966099, -1073741812, 0, 1966100, -1073741812, 0, 1966101, -1073741812, 0, 1966102, -1073741812, 0, 1966103, -1073741812, 0, 1966104, -1073741812, 0, 1966105, -1073741812, 0, 1966106, -1073741812, 0, 1966107, -1073741812, 0, 1966108, -1073741812, 0, 1966109, -1073741812, 0, 1966110, -1073741812, 0, 1966111, -1073741812, 0, 2031616, 1610612748, 0, 2031617, 1610612748, 0, 2031618, 1610612748, 0, 2031619, 1610612748, 0, 2031620, 1610612748, 0, 2031621, 1610612748, 0, 2031622, 1610612748, 0, 2031623, 1610612748, 0, 2031624, 1610612748, 0, 2031625, 1610612748, 0, 2031626, 1610612748, 0, 2031627, 1610612748, 0, 2031628, 1610612748, 0, 2031629, 1610612748, 0, 2031630, 1610612748, 0, 2031631, 1610612748, 0, 2031632, 1610612748, 0, 2031633, 1610612748, 0, 2031634, 1610612748, 0, 2031635, 1610612748, 0, 2031636, 1610612748, 0, 2031637, 1610612748, 0, 2031638, 1610612748, 0, 2031639, 1610612748, 0, 2031640, 1610612748, 0, 2031641, 1610612748, 0, 2031642, 1610612748, 0, 2031643, 1610612748, 0, 2031644, 1610612748, 0, 2031645, 1610612748, 0, 2031646, 1610612748, 0, 2031647, 1610612748, 0 )

[node name="DeathArea" parent="." instance=ExtResource( 2 )]
position = Vector2( 888, 1024 )
scale = Vector2( 1, 4 )

[node name="DeathArea2" parent="." instance=ExtResource( 2 )]
position = Vector2( 1160, 1024 )
scale = Vector2( 1, 4 )

[node name="DeathArea7" parent="." instance=ExtResource( 2 )]
position = Vector2( 1912, 1088 )
scale = Vector2( 1, 1.96 )

[node name="DeathArea8" parent="." instance=ExtResource( 2 )]
position = Vector2( 1856, 1144 )
rotation = -1.57079
scale = Vector2( 1, 1.96 )

[node name="DeathArea9" parent="." instance=ExtResource( 2 )]
position = Vector2( 1144, 1856 )
scale = Vector2( 1, 1.96 )

[node name="DeathArea10" parent="." instance=ExtResource( 2 )]
position = Vector2( 1088, 1912 )
rotation = -1.57079
scale = Vector2( 1, 1.96 )

[node name="DeathArea5" parent="." instance=ExtResource( 2 )]
position = Vector2( 1144, 480 )
scale = Vector2( 1, 5 )

[node name="DeathArea6" parent="." instance=ExtResource( 2 )]
position = Vector2( 904, 480 )
scale = Vector2( 1, 5 )

[node name="DeathArea3" parent="." instance=ExtResource( 2 )]
position = Vector2( 1024, 888 )
rotation = -1.57079
scale = Vector2( 1, 4 )

[node name="DeathArea4" parent="." instance=ExtResource( 2 )]
position = Vector2( 1024, 1160 )
rotation = -1.57079
scale = Vector2( 1, 4 )

[node name="Coin4" parent="." instance=ExtResource( 1 )]
position = Vector2( 864, 864 )

[node name="Coin5" parent="." instance=ExtResource( 1 )]
position = Vector2( 832, 1024 )

[node name="Coin6" parent="." instance=ExtResource( 1 )]
position = Vector2( 864, 1184 )
rotation = 0.0381957

[node name="Coin15" parent="." instance=ExtResource( 1 )]
position = Vector2( 1216, 1024 )

[node name="Coin40" parent="." instance=ExtResource( 1 )]
position = Vector2( 1056, 1824 )
rotation = 0.0381957

[node name="Coin44" parent="." instance=ExtResource( 1 )]
position = Vector2( 1024, 480 )
rotation = 0.0381957

[node name="TimeReversalCharge" parent="." instance=ExtResource( 3 )]
position = Vector2( 1824, 1056 )
