[gd_scene load_steps=32 format=2]

[ext_resource path="res://scenes/obstacles/Key.tscn" type="PackedScene" id=1]
[ext_resource path="res://scenes/obstacles/Coin.tscn" type="PackedScene" id=2]
[ext_resource path="res://scenes/obstacles/Turret.tscn" type="PackedScene" id=3]
[ext_resource path="res://scenes/obstacles/DeathArea.tscn" type="PackedScene" id=4]
[ext_resource path="res://scripts/PressurePlateDoor.gd" type="Script" id=5]
[ext_resource path="res://scenes/obstacles/BreakablePlatform.tscn" type="PackedScene" id=6]
[ext_resource path="res://scenes/obstacles/Switch.tscn" type="PackedScene" id=7]
[ext_resource path="res://scenes/obstacles/TimeReversalFullCharge.tscn" type="PackedScene" id=8]
[ext_resource path="res://scenes/obstacles/TimeReversalCharge.tscn" type="PackedScene" id=9]
[ext_resource path="res://sprites/mock/Testing_tile_sets.tres" type="TileSet" id=10]
[ext_resource path="res://sprites/Pressure Plate Door Idle/PressurePlateDoor8.png" type="Texture" id=11]
[ext_resource path="res://sprites/Pressure Plate Door Idle/PressurePlateDoor7.png" type="Texture" id=12]
[ext_resource path="res://sprites/Pressure Plate Door Idle/PressurePlateDoor9.png" type="Texture" id=13]
[ext_resource path="res://sprites/Pressure Plate Door Idle/PressurePlateDoor6.png" type="Texture" id=14]
[ext_resource path="res://sprites/Pressure Plate Door Idle/PressurePlateDoor5.png" type="Texture" id=15]
[ext_resource path="res://sprites/Pressure Plate Door Open/PressurePlateDoorOpen8.png" type="Texture" id=16]
[ext_resource path="res://sprites/Pressure Plate Door Open/PressurePlateDoorOpen4.png" type="Texture" id=17]
[ext_resource path="res://sprites/Pressure Plate Door Open/PressurePlateDoorOpen5.png" type="Texture" id=18]
[ext_resource path="res://sprites/Pressure Plate Door Idle/PressurePlateDoor4.png" type="Texture" id=19]
[ext_resource path="res://sprites/Pressure Plate Door Open/PressurePlateDoorOpen2.png" type="Texture" id=20]
[ext_resource path="res://sprites/Pressure Plate Door Idle/PressurePlateDoor1.png" type="Texture" id=21]
[ext_resource path="res://sprites/Pressure Plate Door Open/PressurePlateDoorOpen3.png" type="Texture" id=22]
[ext_resource path="res://sprites/Pressure Plate Door Idle/PressurePlateDoor3.png" type="Texture" id=23]
[ext_resource path="res://sprites/Pressure Plate Door Open/PressurePlateDoorOpen1.png" type="Texture" id=24]
[ext_resource path="res://sprites/Pressure Plate Door Open/PressurePlateDoorOpen6.png" type="Texture" id=25]
[ext_resource path="res://sprites/Pressure Plate Door Open/PressurePlateDoorOpen9.png" type="Texture" id=26]
[ext_resource path="res://sprites/Pressure Plate Door Open/PressurePlateDoorOpen7.png" type="Texture" id=27]
[ext_resource path="res://sprites/Pressure Plate Door Idle/PressurePlateDoor2.png" type="Texture" id=28]

[sub_resource type="SpriteFrames" id=1]
animations = [ {
"frames": [ ExtResource( 26 ) ],
"loop": false,
"name": "open",
"speed": 10.0
}, {
"frames": [ ExtResource( 21 ), ExtResource( 28 ), ExtResource( 23 ), ExtResource( 19 ), ExtResource( 15 ), ExtResource( 14 ), ExtResource( 12 ), ExtResource( 11 ), ExtResource( 13 ) ],
"loop": true,
"name": "closed",
"speed": 10.0
}, {
"frames": [ ExtResource( 24 ), ExtResource( 20 ), ExtResource( 22 ), ExtResource( 17 ), ExtResource( 18 ), ExtResource( 25 ), ExtResource( 27 ), ExtResource( 16 ), ExtResource( 26 ) ],
"loop": false,
"name": "opening",
"speed": 10.0
} ]

[sub_resource type="RectangleShape2D" id=2]
extents = Vector2( 32, 32 )

[sub_resource type="RectangleShape2D" id=3]
extents = Vector2( 160, 32 )

[node name="2A_015_2_K" type="Node2D"]

[node name="TileMap" type="TileMap" parent="."]
scale = Vector2( 0.5, 0.5 )
tile_set = ExtResource( 10 )
cell_size = Vector2( 128, 128 )
cell_custom_transform = Transform2D( 0, 0, 0, 0, 0, 0 )
format = 1
tile_data = PoolIntArray( 5, -1073741811, 0, 6, -1073741812, 0, 7, -1073741812, 0, 8, -1073741812, 0, 9, -1073741812, 0, 10, -1073741812, 0, 11, -1073741812, 0, 12, -1073741812, 0, 13, -1073741812, 0, 14, -1073741812, 0, 15, -1073741812, 0, 16, -1073741812, 0, 17, -1073741812, 0, 18, -1073741812, 0, 19, -1073741812, 0, 20, -1073741812, 0, 21, -1073741812, 0, 22, -1073741812, 0, 23, -1073741812, 0, 24, -1073741812, 0, 25, -1073741812, 0, 26, -1073741812, 0, 27, -1073741812, 0, 28, -1073741812, 0, 29, -1073741812, 0, 30, -1073741812, 0, 31, -1073741812, 0, 65541, -1073741811, 0, 65542, -1073741812, 0, 65543, -1073741812, 0, 65544, -1073741812, 0, 65545, -1073741812, 0, 65546, -1073741812, 0, 65547, -1073741812, 0, 65548, -1073741812, 0, 65549, -1073741812, 0, 65550, -1073741812, 0, 65551, -1073741812, 0, 65552, -1073741812, 0, 65553, -1073741812, 0, 65554, -1073741812, 0, 65555, -1073741812, 0, 65556, -1073741812, 0, 65557, -1073741812, 0, 65558, -1073741812, 0, 65559, -1073741812, 0, 65560, -1073741812, 0, 65561, -1073741812, 0, 65562, -1073741812, 0, 65563, -1073741812, 0, 65564, -1073741812, 0, 65565, -1073741812, 0, 65566, -1073741812, 0, 65567, -1073741812, 0, 131077, -1073741811, 0, 131078, -1073741812, 0, 131079, -1073741812, 0, 131080, -1073741812, 0, 131081, -1073741812, 0, 131082, -1073741812, 0, 131083, -1073741812, 0, 131084, -1073741812, 0, 131085, -1073741812, 0, 131086, -1073741812, 0, 131087, -1073741812, 0, 131088, -1073741812, 0, 131089, -1073741812, 0, 131090, -1073741812, 0, 131091, -1073741812, 0, 131092, -1073741812, 0, 131093, -1073741812, 0, 131094, -1073741812, 0, 131095, -1073741812, 0, 131096, -1073741812, 0, 131097, -1073741812, 0, 131098, -1073741812, 0, 131099, -1073741812, 0, 131100, -1073741812, 0, 131101, -1073741812, 0, 131102, -1073741812, 0, 131103, -1073741812, 0, 196613, 1610612753, 0, 196614, 1610612749, 0, 196615, 1610612749, 0, 196616, 1610612749, 0, 196617, 1610612749, 0, 196618, 1610612749, 0, 196619, 1610612749, 0, 196620, 1610612749, 0, 196621, 1610612749, 0, 196622, 1610612749, 0, 196623, 1610612749, 0, 196624, 1610612749, 0, 196625, 1610612749, 0, 196626, 1610612749, 0, 196627, 1610612749, 0, 196628, 1610612749, 0, 196629, 1610612749, 0, 196630, 1610612749, 0, 196631, 1610612749, 0, 196632, 1610612749, 0, 196633, 1610612749, 0, 196634, 1610612749, 0, 196635, 1610612749, 0, 196636, 18, 0, 196637, -1073741812, 0, 196638, -1073741812, 0, 196639, -1073741812, 0, 262172, -1073741811, 0, 262173, -1073741812, 0, 262174, -1073741812, 0, 262175, -1073741812, 0, 327708, -1073741811, 0, 327709, -1073741812, 0, 327710, -1073741812, 0, 327711, -1073741812, 0, 393244, -1073741811, 0, 393245, -1073741812, 0, 393246, -1073741812, 0, 393247, -1073741812, 0, 458780, -1073741811, 0, 458781, -1073741812, 0, 458782, -1073741812, 0, 458783, -1073741812, 0, 524316, -1073741811, 0, 524317, -1073741812, 0, 524318, -1073741812, 0, 524319, -1073741812, 0, 589824, -1073741807, 0, 589825, 13, 0, 589826, 13, 0, 589827, 13, 0, 589828, 13, 0, 589829, 13, 0, 589830, 13, 0, 589831, 13, 0, 589832, 13, 0, 589833, 13, 0, 589834, 13, 0, 589835, 13, 0, 589836, 13, 0, 589837, 13, 0, 589838, 13, 0, 589839, 13, 0, 589840, 13, 0, 589841, 13, 0, 589842, 13, 0, 589843, 13, 0, 589844, 13, 0, 589845, 13, 0, 589846, 17, 0, 589852, -1073741811, 0, 589853, -1073741812, 0, 589854, -1073741812, 0, 589855, -1073741812, 0, 655360, -1073741811, 0, 655361, -1073741812, 0, 655362, -1073741812, 0, 655363, -1073741812, 0, 655364, -1073741812, 0, 655365, -1073741812, 0, 655366, -1073741812, 0, 655367, -1073741812, 0, 655368, -1073741812, 0, 655369, -1073741812, 0, 655370, -1073741812, 0, 655371, -1073741812, 0, 655372, -1073741812, 0, 655373, -1073741812, 0, 655374, -1073741812, 0, 655375, -1073741812, 0, 655376, -1073741812, 0, 655377, -1073741812, 0, 655378, -1073741812, 0, 655379, -1073741812, 0, 655380, -1073741812, 0, 655381, -1073741812, 0, 655382, -1610612723, 0, 655388, -1073741811, 0, 655389, -1073741812, 0, 655390, -1073741812, 0, 655391, -1073741812, 0, 720896, -1073741811, 0, 720897, -1073741812, 0, 720898, -1073741812, 0, 720899, -1073741812, 0, 720900, -1073741812, 0, 720901, -1073741812, 0, 720902, -1073741812, 0, 720903, -1073741812, 0, 720904, -1073741812, 0, 720905, -1073741812, 0, 720906, -1073741812, 0, 720907, -1073741812, 0, 720908, -1073741812, 0, 720909, -1073741812, 0, 720910, -1073741812, 0, 720911, -1073741812, 0, 720912, -1073741812, 0, 720913, -1073741812, 0, 720914, -1073741812, 0, 720915, -1073741812, 0, 720916, -1073741812, 0, 720917, -1073741812, 0, 720918, -1610612723, 0, 720924, -1073741811, 0, 720925, -1073741812, 0, 720926, -1073741812, 0, 720927, -1073741812, 0, 786432, -1073741811, 0, 786433, -1073741812, 0, 786434, -1073741812, 0, 786435, -1073741806, 0, 786436, 1610612749, 0, 786437, 1610612749, 0, 786438, 1610612749, 0, 786439, 1610612749, 0, 786440, 1610612749, 0, 786441, 1610612749, 0, 786442, 1610612749, 0, 786443, 1610612749, 0, 786444, 1610612749, 0, 786445, 1610612749, 0, 786446, 1610612749, 0, 786447, 1610612749, 0, 786448, 1610612749, 0, 786449, 1610612749, 0, 786450, 1610612749, 0, 786451, 18, 0, 786452, -1073741812, 0, 786453, -1073741812, 0, 786454, -1610612723, 0, 786460, -1073741811, 0, 786461, -1073741812, 0, 786462, -1073741812, 0, 786463, -1073741812, 0, 851968, -1073741811, 0, 851969, -1073741812, 0, 851970, -1073741812, 0, 851971, -1610612723, 0, 851977, -1610612708, 0, 851978, -1610612708, 0, 851979, -1610612708, 0, 851980, -1610612708, 0, 851981, -1610612708, 0, 851987, -1073741811, 0, 851988, -1073741812, 0, 851989, -1073741812, 0, 851990, -1610612723, 0, 851996, -1073741811, 0, 851997, -1073741812, 0, 851998, -1073741812, 0, 851999, -1073741812, 0, 917504, -1073741811, 0, 917505, -1073741812, 0, 917506, -1073741812, 0, 917507, -1610612723, 0, 917523, -1073741811, 0, 917524, -1073741812, 0, 917525, -1073741812, 0, 917526, -1610612723, 0, 917532, -1073741811, 0, 917533, -1073741812, 0, 917534, -1073741812, 0, 917535, -1073741812, 0, 983040, -1073741811, 0, 983041, -1073741812, 0, 983042, -1073741812, 0, 983043, -1610612723, 0, 983059, -1073741811, 0, 983060, -1073741812, 0, 983061, -1073741812, 0, 983062, -1610612723, 0, 983068, -1073741811, 0, 983069, -1073741812, 0, 983070, -1073741812, 0, 983071, -1073741812, 0, 1048576, -1073741811, 0, 1048577, -1073741812, 0, 1048578, -1073741812, 0, 1048579, -1610612723, 0, 1048595, -1073741811, 0, 1048596, -1073741812, 0, 1048597, -1073741812, 0, 1048598, -1610612723, 0, 1048604, -1073741811, 0, 1048605, -1073741812, 0, 1048606, -1073741812, 0, 1048607, -1073741812, 0, 1114112, -1073741811, 0, 1114113, -1073741812, 0, 1114114, -1073741812, 0, 1114115, -1610612723, 0, 1114131, 1610612753, 0, 1114132, 1610612749, 0, 1114133, 1610612749, 0, 1114134, -1610612719, 0, 1114140, -1073741811, 0, 1114141, -1073741812, 0, 1114142, -1073741812, 0, 1114143, -1073741812, 0, 1179648, -1073741811, 0, 1179649, -1073741812, 0, 1179650, -1073741812, 0, 1179651, -1610612723, 0, 1179652, 28, 0, 1179676, -1073741811, 0, 1179677, -1073741812, 0, 1179678, -1073741812, 0, 1179679, -1073741812, 0, 1245184, -1073741811, 0, 1245185, -1073741812, 0, 1245186, -1073741812, 0, 1245187, -1610612723, 0, 1245188, 28, 0, 1245212, -1073741811, 0, 1245213, -1073741812, 0, 1245214, -1073741812, 0, 1245215, -1073741812, 0, 1310720, -1073741811, 0, 1310721, -1073741812, 0, 1310722, -1073741812, 0, 1310723, -1610612723, 0, 1310724, 28, 0, 1310748, -1073741811, 0, 1310749, -1073741812, 0, 1310750, -1073741812, 0, 1310751, -1073741812, 0, 1376256, -1073741811, 0, 1376257, -1073741812, 0, 1376258, -1073741812, 0, 1376259, -1610612723, 0, 1376260, 28, 0, 1376284, -1073741811, 0, 1376285, -1073741812, 0, 1376286, -1073741812, 0, 1376287, -1073741812, 0, 1441792, -1073741811, 0, 1441793, -1073741812, 0, 1441794, -1073741812, 0, 1441795, -1610612723, 0, 1441796, 28, 0, 1441820, -1073741811, 0, 1441821, -1073741812, 0, 1441822, -1073741812, 0, 1441823, -1073741812, 0, 1507328, -1073741811, 0, 1507329, -1073741812, 0, 1507330, -1073741812, 0, 1507331, -1610612723, 0, 1507347, -1073741807, 0, 1507348, 13, 0, 1507349, 13, 0, 1507350, 13, 0, 1507351, 13, 0, 1507352, 13, 0, 1507353, 13, 0, 1507354, 13, 0, 1507355, 13, 0, 1507356, -1610612718, 0, 1507357, -1073741812, 0, 1507358, -1073741812, 0, 1507359, -1073741812, 0, 1572864, -1073741811, 0, 1572865, -1073741812, 0, 1572866, -1073741812, 0, 1572867, -1610612723, 0, 1572883, -1073741811, 0, 1572884, 1610612748, 0, 1572885, 1610612748, 0, 1572886, 1610612748, 0, 1572887, 1610612748, 0, 1572888, 1610612748, 0, 1572889, 1610612748, 0, 1572890, 1610612748, 0, 1572891, 1610612748, 0, 1572892, 1610612748, 0, 1572893, -1073741812, 0, 1572894, -1073741812, 0, 1572895, -1073741812, 0, 1638400, -1073741811, 0, 1638401, -1073741812, 0, 1638402, -1073741812, 0, 1638403, -1610612723, 0, 1638419, -1073741811, 0, 1638420, 1610612748, 0, 1638421, 1610612748, 0, 1638422, 1610612748, 0, 1638423, 1610612748, 0, 1638424, 1610612748, 0, 1638425, 1610612748, 0, 1638426, 1610612748, 0, 1638427, 1610612748, 0, 1638428, 1610612748, 0, 1638429, -1073741812, 0, 1638430, -1073741812, 0, 1638431, -1073741812, 0, 1703936, -1073741811, 0, 1703937, -1073741812, 0, 1703938, -1073741812, 0, 1703939, -1610612723, 0, 1703955, -1073741811, 0, 1703956, 1610612748, 0, 1703957, 1610612748, 0, 1703958, 1610612748, 0, 1703959, 1610612748, 0, 1703960, 1610612748, 0, 1703961, 1610612748, 0, 1703962, 1610612748, 0, 1703963, 1610612748, 0, 1703964, 1610612748, 0, 1703965, -1073741812, 0, 1703966, -1073741812, 0, 1703967, -1073741812, 0, 1769472, -1073741811, 0, 1769473, -1073741812, 0, 1769474, -1073741812, 0, 1769475, -1610612723, 0, 1769481, -1073741796, 0, 1769482, -1073741796, 0, 1769483, -1073741796, 0, 1769484, -1073741796, 0, 1769485, -1073741796, 0, 1769491, -1073741811, 0, 1769492, 1610612748, 0, 1769493, 1610612748, 0, 1769494, 1610612748, 0, 1769495, 1610612748, 0, 1769496, 1610612748, 0, 1769497, 1610612748, 0, 1769498, 1610612748, 0, 1769499, 1610612748, 0, 1769500, 1610612748, 0, 1769501, -1073741812, 0, 1769502, -1073741812, 0, 1769503, -1073741812, 0, 1835008, -1073741811, 0, 1835009, -1073741812, 0, 1835010, -1073741812, 0, 1835011, 1610612754, 0, 1835012, 13, 0, 1835013, 13, 0, 1835014, 13, 0, 1835015, 13, 0, 1835016, 13, 0, 1835017, 13, 0, 1835018, 13, 0, 1835019, 13, 0, 1835020, 13, 0, 1835021, 13, 0, 1835022, 13, 0, 1835023, 13, 0, 1835024, 13, 0, 1835025, 13, 0, 1835026, 13, 0, 1835027, -1610612718, 0, 1835028, -1073741812, 0, 1835029, -1073741812, 0, 1835030, -1073741812, 0, 1835031, -1073741812, 0, 1835032, -1073741812, 0, 1835033, -1073741812, 0, 1835034, -1073741812, 0, 1835035, -1073741812, 0, 1835036, -1073741812, 0, 1835037, -1073741812, 0, 1835038, -1073741812, 0, 1835039, -1073741812, 0, 1900544, -1073741811, 0, 1900545, -1073741812, 0, 1900546, -1073741812, 0, 1900547, -1073741812, 0, 1900548, -1073741812, 0, 1900549, -1073741812, 0, 1900550, -1073741812, 0, 1900551, -1073741812, 0, 1900552, -1073741812, 0, 1900553, -1073741812, 0, 1900554, -1073741812, 0, 1900555, -1073741812, 0, 1900556, -1073741812, 0, 1900557, -1073741812, 0, 1900558, -1073741812, 0, 1900559, -1073741812, 0, 1900560, -1073741812, 0, 1900561, -1073741812, 0, 1900562, -1073741812, 0, 1900563, -1073741812, 0, 1900564, -1073741812, 0, 1900565, -1073741812, 0, 1900566, -1073741812, 0, 1900567, -1073741812, 0, 1900568, -1073741812, 0, 1900569, -1073741812, 0, 1900570, -1073741812, 0, 1900571, -1073741812, 0, 1900572, -1073741812, 0, 1900573, -1073741812, 0, 1900574, -1073741812, 0, 1900575, -1073741812, 0, 1966080, -1073741811, 0, 1966081, -1073741812, 0, 1966082, -1073741812, 0, 1966083, -1073741812, 0, 1966084, -1073741812, 0, 1966085, -1073741812, 0, 1966086, -1073741812, 0, 1966087, -1073741812, 0, 1966088, -1073741812, 0, 1966089, -1073741812, 0, 1966090, -1073741812, 0, 1966091, -1073741812, 0, 1966092, -1073741812, 0, 1966093, -1073741812, 0, 1966094, -1073741812, 0, 1966095, -1073741812, 0, 1966096, -1073741812, 0, 1966097, -1073741812, 0, 1966098, -1073741812, 0, 1966099, -1073741812, 0, 1966100, -1073741812, 0, 1966101, -1073741812, 0, 1966102, -1073741812, 0, 1966103, -1073741812, 0, 1966104, -1073741812, 0, 1966105, -1073741812, 0, 1966106, -1073741812, 0, 1966107, -1073741812, 0, 1966108, -1073741812, 0, 1966109, -1073741812, 0, 1966110, -1073741812, 0, 1966111, -1073741812, 0, 2031616, -1073741812, 0, 2031617, -1073741812, 0, 2031618, -1073741812, 0, 2031619, -1073741812, 0, 2031620, -1073741812, 0, 2031621, -1073741812, 0, 2031622, -1073741812, 0, 2031623, -1073741812, 0, 2031624, -1073741812, 0, 2031625, -1073741812, 0, 2031626, -1073741812, 0, 2031627, -1073741812, 0, 2031628, -1073741812, 0, 2031629, -1073741812, 0, 2031630, -1073741812, 0, 2031631, -1073741812, 0, 2031632, -1073741812, 0, 2031633, -1073741812, 0, 2031634, -1073741812, 0, 2031635, -1073741812, 0, 2031636, -1073741812, 0, 2031637, -1073741812, 0, 2031638, -1073741812, 0, 2031639, -1073741812, 0, 2031640, -1073741812, 0, 2031641, -1073741812, 0, 2031642, -1073741812, 0, 2031643, -1073741812, 0, 2031644, -1073741812, 0, 2031645, -1073741812, 0, 2031646, -1073741812, 0, 2031647, -1073741812, 0 )

[node name="BreakablePlatform2" parent="." instance=ExtResource( 6 )]
position = Vector2( 672, 1312 )

[node name="BreakablePlatform3" parent="." instance=ExtResource( 6 )]
position = Vector2( 672, 1248 )

[node name="BreakablePlatform4" parent="." instance=ExtResource( 6 )]
position = Vector2( 736, 1248 )

[node name="BreakablePlatform5" parent="." instance=ExtResource( 6 )]
position = Vector2( 800, 1248 )

[node name="BreakablePlatform10" parent="." instance=ExtResource( 6 )]
position = Vector2( 672, 1184 )

[node name="BreakablePlatform11" parent="." instance=ExtResource( 6 )]
position = Vector2( 736, 1184 )

[node name="BreakablePlatform12" parent="." instance=ExtResource( 6 )]
position = Vector2( 800, 1184 )

[node name="BreakablePlatform13" parent="." instance=ExtResource( 6 )]
position = Vector2( 672, 1440 )

[node name="BreakablePlatform14" parent="." instance=ExtResource( 6 )]
position = Vector2( 736, 1440 )

[node name="BreakablePlatform15" parent="." instance=ExtResource( 6 )]
position = Vector2( 800, 1440 )

[node name="BreakablePlatform6" parent="." instance=ExtResource( 6 )]
position = Vector2( 800, 1312 )

[node name="BreakablePlatform7" parent="." instance=ExtResource( 6 )]
position = Vector2( 800, 1376 )

[node name="BreakablePlatform16" parent="." instance=ExtResource( 6 )]
position = Vector2( 864, 1248 )

[node name="BreakablePlatform17" parent="." instance=ExtResource( 6 )]
position = Vector2( 864, 1184 )

[node name="BreakablePlatform18" parent="." instance=ExtResource( 6 )]
position = Vector2( 864, 1440 )

[node name="BreakablePlatform19" parent="." instance=ExtResource( 6 )]
position = Vector2( 864, 1312 )

[node name="BreakablePlatform20" parent="." instance=ExtResource( 6 )]
position = Vector2( 864, 1376 )

[node name="BreakablePlatform21" parent="." instance=ExtResource( 6 )]
position = Vector2( 608, 1248 )

[node name="BreakablePlatform22" parent="." instance=ExtResource( 6 )]
position = Vector2( 608, 1184 )

[node name="BreakablePlatform23" parent="." instance=ExtResource( 6 )]
position = Vector2( 608, 1440 )

[node name="BreakablePlatform24" parent="." instance=ExtResource( 6 )]
position = Vector2( 608, 1312 )

[node name="BreakablePlatform25" parent="." instance=ExtResource( 6 )]
position = Vector2( 608, 1376 )

[node name="BreakablePlatform8" parent="." instance=ExtResource( 6 )]
position = Vector2( 736, 1376 )

[node name="BreakablePlatform9" parent="." instance=ExtResource( 6 )]
position = Vector2( 672, 1376 )

[node name="Turret" parent="." instance=ExtResource( 3 )]
position = Vector2( 1184, 872 )
rotation = -1.57079
maximum_rotation = 0

[node name="Turret4" parent="." instance=ExtResource( 3 )]
position = Vector2( 1184, 1760 )
maximum_rotation = 0

[node name="Turret2" parent="." instance=ExtResource( 3 )]
position = Vector2( 288, 864 )
rotation = -3.14159
maximum_rotation = 0

[node name="Turret3" parent="." instance=ExtResource( 3 )]
position = Vector2( 288, 1760 )
rotation = -6.28318
minimum_rotation = 0

[node name="DeathArea3" parent="." instance=ExtResource( 4 )]
position = Vector2( 264, 1312 )
scale = Vector2( 1, 4.92 )

[node name="DeathArea5" parent="." instance=ExtResource( 4 )]
position = Vector2( 736, 1784 )
rotation = 1.57079
scale = Vector2( 1, 4.92 )

[node name="DeathArea6" parent="." instance=ExtResource( 4 )]
position = Vector2( 736, 840 )
rotation = 1.57079
scale = Vector2( 1, 4.92 )

[node name="Coin" parent="." instance=ExtResource( 2 )]
position = Vector2( 416, 1632 )

[node name="Coin2" parent="." instance=ExtResource( 2 )]
position = Vector2( 1056, 992 )

[node name="Coin30" parent="." instance=ExtResource( 2 )]
position = Vector2( 416, 1312 )

[node name="Coin5" parent="." instance=ExtResource( 2 )]
position = Vector2( 800, 1376 )

[node name="Coin6" parent="." instance=ExtResource( 2 )]
position = Vector2( 672, 1376 )

[node name="Coin9" parent="." instance=ExtResource( 2 )]
position = Vector2( 800, 1056 )

[node name="Coin11" parent="." instance=ExtResource( 2 )]
position = Vector2( 672, 1056 )

[node name="Coin18" parent="." instance=ExtResource( 2 )]
position = Vector2( 544, 1440 )

[node name="Coin20" parent="." instance=ExtResource( 2 )]
position = Vector2( 672, 1568 )

[node name="Coin16" parent="." instance=ExtResource( 2 )]
position = Vector2( 736, 992 )

[node name="Coin26" parent="." instance=ExtResource( 2 )]
position = Vector2( 672, 1248 )

[node name="TimeReversalCharge2" parent="." instance=ExtResource( 9 )]
position = Vector2( 416, 992 )

[node name="TimeReversalCharge3" parent="." instance=ExtResource( 9 )]
position = Vector2( 800, 1248 )

[node name="PressurePlateDoor" type="Area2D" parent="."]
position = Vector2( 1312, 1312 )
rotation = 1.57079
z_index = -1
script = ExtResource( 5 )

[node name="AnimatedSprite" type="AnimatedSprite" parent="PressurePlateDoor"]
frames = SubResource( 1 )
animation = "closed"
frame = 2
playing = true

[node name="DoorTriggerShape" type="CollisionShape2D" parent="PressurePlateDoor"]
position = Vector2( 128, -192 )
shape = SubResource( 2 )

[node name="DoorHitbox" type="KinematicBody2D" parent="PressurePlateDoor"]

[node name="DoorHitboxShape" type="CollisionShape2D" parent="PressurePlateDoor/DoorHitbox"]
shape = SubResource( 3 )

[node name="Key" parent="." instance=ExtResource( 1 )]
position = Vector2( 736, 1312 )
z_index = 3

[node name="TimeReversalFullCharge" parent="." instance=ExtResource( 8 )]
position = Vector2( 1440, 1312 )

[node name="Node2D" parent="." instance=ExtResource( 7 )]
position = Vector2( 1504, 1440 )
[connection signal="body_entered" from="PressurePlateDoor" to="PressurePlateDoor" method="_on_Door_body_entered"]
[connection signal="animation_finished" from="PressurePlateDoor/AnimatedSprite" to="PressurePlateDoor" method="_on_AnimatedSprite_animation_finished"]
