[gd_scene load_steps=6 format=2]

[ext_resource path="res://sprites/mock/Testing_tile_sets.tres" type="TileSet" id=1]
[ext_resource path="res://scenes/obstacles/DeathArea.tscn" type="PackedScene" id=2]
[ext_resource path="res://scenes/obstacles/Coin.tscn" type="PackedScene" id=4]
[ext_resource path="res://scenes/obstacles/Rocket.tscn" type="PackedScene" id=5]
[ext_resource path="res://scenes/obstacles/BreakablePlatform.tscn" type="PackedScene" id=6]

[node name="2A_030_2_N" type="Node2D"]

[node name="TileMap" type="TileMap" parent="."]
scale = Vector2( 0.5, 0.5 )
tile_set = ExtResource( 1 )
cell_size = Vector2( 128, 128 )
cell_custom_transform = Transform2D( 0, 0, 0, 0, 0, 0 )
format = 1
tile_data = PoolIntArray( 0, -1073741807, 0, 1, 13, 0, 2, 13, 0, 3, 13, 0, 4, 13, 0, 5, 13, 0, 6, 13, 0, 7, 17, 0, 18, -1073741807, 0, 19, 13, 0, 20, 13, 0, 21, 13, 0, 22, 13, 0, 23, 13, 0, 24, 13, 0, 25, 13, 0, 26, 13, 0, 27, 13, 0, 28, 13, 0, 29, 13, 0, 30, 13, 0, 31, -1610612718, 0, 65536, -1073741811, 0, 65537, 12, 0, 65538, 12, 0, 65539, 12, 0, 65540, 12, 0, 65541, 12, 0, 65542, 12, 0, 65543, -1610612723, 0, 65554, 1610612753, 0, 65555, 18, 0, 65556, 12, 0, 65557, 12, 0, 65558, 12, 0, 65559, 12, 0, 65560, 12, 0, 65561, 12, 0, 65562, 12, 0, 65563, 12, 0, 65564, 12, 0, 65565, 12, 0, 65566, 12, 0, 65567, 12, 0, 131072, -1073741811, 0, 131073, 12, 0, 131074, 12, 0, 131075, 12, 0, 131076, 12, 0, 131077, 12, 0, 131078, 12, 0, 131079, 1610612754, 0, 131080, 13, 0, 131081, 17, 0, 131090, 1610612766, 0, 131091, 1610612753, 0, 131092, 18, 0, 131093, 12, 0, 131094, 12, 0, 131095, 12, 0, 131096, 12, 0, 131097, 12, 0, 131098, 12, 0, 131099, 12, 0, 131100, 12, 0, 131101, 12, 0, 131102, 12, 0, 131103, 12, 0, 196608, -1073741811, 0, 196609, 12, 0, 196610, 12, 0, 196611, 12, 0, 196612, 12, 0, 196613, 12, 0, 196614, 12, 0, 196615, 12, 0, 196616, 12, 0, 196617, 1610612754, 0, 196618, 13, 0, 196619, 13, 0, 196620, 13, 0, 196621, 13, 0, 196622, 17, 0, 196628, 1610612753, 0, 196629, 18, 0, 196630, 12, 0, 196631, 12, 0, 196632, 12, 0, 196633, 12, 0, 196634, 12, 0, 196635, 12, 0, 196636, 12, 0, 196637, 12, 0, 196638, 12, 0, 196639, 12, 0, 262144, -1073741811, 0, 262145, 12, 0, 262146, 12, 0, 262147, 12, 0, 262148, 12, 0, 262149, 12, 0, 262150, 12, 0, 262151, 12, 0, 262152, 12, 0, 262153, 12, 0, 262154, 12, 0, 262155, 12, 0, 262156, 12, 0, 262157, 12, 0, 262158, 1610612754, 0, 262159, 17, 0, 262165, -1073741811, 0, 262166, 12, 0, 262167, 12, 0, 262168, 12, 0, 262169, 12, 0, 262170, 12, 0, 262171, 12, 0, 262172, 12, 0, 262173, 12, 0, 262174, 12, 0, 262175, 12, 0, 327680, -1073741811, 0, 327681, 12, 0, 327682, 12, 0, 327683, 12, 0, 327684, 12, 0, 327685, 12, 0, 327686, 12, 0, 327687, 12, 0, 327688, 12, 0, 327689, 12, 0, 327690, 12, 0, 327691, 12, 0, 327692, 12, 0, 327693, 12, 0, 327694, 12, 0, 327695, 1610612754, 0, 327696, 17, 0, 327701, 1610612753, 0, 327702, 18, 0, 327703, 12, 0, 327704, 12, 0, 327705, 12, 0, 327706, 12, 0, 327707, 12, 0, 327708, 12, 0, 327709, 12, 0, 327710, 12, 0, 327711, 12, 0, 393216, -1073741811, 0, 393217, 12, 0, 393218, 12, 0, 393219, 12, 0, 393220, 12, 0, 393221, 12, 0, 393222, 12, 0, 393223, 12, 0, 393224, 12, 0, 393225, 12, 0, 393226, 12, 0, 393227, 12, 0, 393228, 12, 0, 393229, 12, 0, 393230, 12, 0, 393231, 12, 0, 393232, 1610612754, 0, 393233, 17, 0, 393234, 28, 0, 393238, 1610612753, 0, 393239, 18, 0, 393240, 12, 0, 393241, 12, 0, 393242, 12, 0, 393243, 12, 0, 393244, 12, 0, 393245, 12, 0, 393246, 12, 0, 393247, 12, 0, 458752, -1073741811, 0, 458753, 12, 0, 458754, 12, 0, 458755, 12, 0, 458756, 12, 0, 458757, 12, 0, 458758, 12, 0, 458759, 12, 0, 458760, 12, 0, 458761, 12, 0, 458762, 12, 0, 458763, 12, 0, 458764, 12, 0, 458765, 12, 0, 458766, 12, 0, 458767, 12, 0, 458768, 12, 0, 458769, -1610612723, 0, 458770, 30, 0, 458771, -1073741796, 0, 458775, -1073741811, 0, 458776, 12, 0, 458777, 12, 0, 458778, 12, 0, 458779, 12, 0, 458780, 12, 0, 458781, 12, 0, 458782, 12, 0, 458783, 12, 0, 524288, -1073741811, 0, 524289, 12, 0, 524290, 12, 0, 524291, 12, 0, 524292, 12, 0, 524293, 12, 0, 524294, 12, 0, 524295, 12, 0, 524296, 12, 0, 524297, 12, 0, 524298, 12, 0, 524299, 12, 0, 524300, 12, 0, 524301, 12, 0, 524302, 12, 0, 524303, 12, 0, 524304, 12, 0, 524305, 1610612754, 0, 524306, 13, 0, 524307, 17, 0, 524308, 28, 0, 524311, -1073741811, 0, 524312, 12, 0, 524313, 12, 0, 524314, 12, 0, 524315, 12, 0, 524316, 12, 0, 524317, 12, 0, 524318, 12, 0, 524319, 12, 0, 589824, -1073741811, 0, 589825, 12, 0, 589826, 12, 0, 589827, 12, 0, 589828, 12, 0, 589829, 12, 0, 589830, -1073741806, 0, 589831, 1610612749, 0, 589832, 1610612749, 0, 589833, 1610612749, 0, 589834, 1610612749, 0, 589835, 1610612749, 0, 589836, 1610612749, 0, 589837, 1610612749, 0, 589838, 18, 0, 589839, 12, 0, 589840, 12, 0, 589841, 12, 0, 589842, -1073741806, 0, 589843, -1610612719, 0, 589844, 28, 0, 589847, -1073741811, 0, 589848, 12, 0, 589849, 12, 0, 589850, 12, 0, 589851, 12, 0, 589852, 12, 0, 589853, 12, 0, 589854, 12, 0, 589855, 12, 0, 655360, -1073741811, 0, 655361, 12, 0, 655362, 12, 0, 655363, 12, 0, 655364, 12, 0, 655365, -1073741806, 0, 655366, -1610612719, 0, 655374, 1610612753, 0, 655375, 1610612749, 0, 655376, 1610612749, 0, 655377, 1610612749, 0, 655378, -1610612719, 0, 655383, -1073741811, 0, 655384, 12, 0, 655385, 12, 0, 655386, 12, 0, 655387, 12, 0, 655388, 12, 0, 655389, 12, 0, 655390, 12, 0, 655391, 12, 0, 720896, -1073741811, 0, 720897, 12, 0, 720898, 12, 0, 720899, 12, 0, 720900, 12, 0, 720901, -1610612723, 0, 720919, -1073741811, 0, 720920, 12, 0, 720921, 12, 0, 720922, 12, 0, 720923, 12, 0, 720924, 12, 0, 720925, 12, 0, 720926, 12, 0, 720927, 12, 0, 786432, -1073741811, 0, 786433, 12, 0, 786434, 12, 0, 786435, 12, 0, 786436, 12, 0, 786437, -1610612723, 0, 786454, -1073741807, 0, 786455, -1610612718, 0, 786456, 12, 0, 786457, 12, 0, 786458, 12, 0, 786459, 12, 0, 786460, 12, 0, 786461, 12, 0, 786462, 12, 0, 786463, 12, 0, 851968, -1073741811, 0, 851969, 12, 0, 851970, 12, 0, 851971, 12, 0, 851972, 12, 0, 851973, 1610612754, 0, 851974, 17, 0, 851988, -1073741807, 0, 851989, 13, 0, 851990, -1610612718, 0, 851991, 12, 0, 851992, 12, 0, 851993, 12, 0, 851994, 12, 0, 851995, 12, 0, 851996, 12, 0, 851997, 12, 0, 851998, 12, 0, 851999, 12, 0, 917504, -1073741811, 0, 917505, 12, 0, 917506, 12, 0, 917507, 12, 0, 917508, 12, 0, 917509, 12, 0, 917510, -1610612723, 0, 917519, -1073741807, 0, 917520, 13, 0, 917521, 13, 0, 917522, 13, 0, 917523, 13, 0, 917524, -1610612718, 0, 917525, 12, 0, 917526, 12, 0, 917527, 12, 0, 917528, 12, 0, 917529, 12, 0, 917530, 12, 0, 917531, 12, 0, 917532, 12, 0, 917533, 12, 0, 917534, 12, 0, 917535, 12, 0, 983040, -1073741811, 0, 983041, 12, 0, 983042, 12, 0, 983043, 12, 0, 983044, 12, 0, 983045, 12, 0, 983046, 1610612754, 0, 983047, 17, 0, 983055, -1073741811, 0, 983056, 12, 0, 983057, 12, 0, 983058, 12, 0, 983059, 12, 0, 983060, 12, 0, 983061, 12, 0, 983062, 12, 0, 983063, 12, 0, 983064, 12, 0, 983065, 12, 0, 983066, 12, 0, 983067, 12, 0, 983068, 12, 0, 983069, 12, 0, 983070, 12, 0, 983071, 12, 0, 1048576, -1073741811, 0, 1048577, 12, 0, 1048578, 12, 0, 1048579, 12, 0, 1048580, 12, 0, 1048581, 12, 0, 1048582, 12, 0, 1048583, 1610612754, 0, 1048584, 17, 0, 1048589, 1610612764, 0, 1048590, -1073741807, 0, 1048591, -1610612718, 0, 1048592, 12, 0, 1048593, 12, 0, 1048594, 12, 0, 1048595, 12, 0, 1048596, 12, 0, 1048597, 12, 0, 1048598, 12, 0, 1048599, 12, 0, 1048600, 12, 0, 1048601, 12, 0, 1048602, 12, 0, 1048603, 12, 0, 1048604, 12, 0, 1048605, 12, 0, 1048606, 12, 0, 1048607, 12, 0, 1114112, -1073741811, 0, 1114113, 12, 0, 1114114, 12, 0, 1114115, 12, 0, 1114116, 12, 0, 1114117, 12, 0, 1114118, 12, 0, 1114119, 12, 0, 1114120, -1610612723, 0, 1114125, 1610612764, 0, 1114126, 1610612753, 0, 1114127, 18, 0, 1114128, 12, 0, 1114129, 12, 0, 1114130, 12, 0, 1114131, 12, 0, 1114132, 12, 0, 1114133, 12, 0, 1114134, 12, 0, 1114135, 12, 0, 1114136, 12, 0, 1114137, 12, 0, 1114138, 12, 0, 1114139, 12, 0, 1114140, 12, 0, 1114141, 12, 0, 1114142, 12, 0, 1114143, 12, 0, 1179648, -1073741811, 0, 1179649, 12, 0, 1179650, 12, 0, 1179651, 12, 0, 1179652, 12, 0, 1179653, 12, 0, 1179654, 12, 0, 1179655, 12, 0, 1179656, 1610612754, 0, 1179657, 17, 0, 1179663, 1610612753, 0, 1179664, 1610612749, 0, 1179665, 1610612749, 0, 1179666, 1610612749, 0, 1179667, 18, 0, 1179668, 12, 0, 1179669, 12, 0, 1179670, 12, 0, 1179671, 12, 0, 1179672, 12, 0, 1179673, 12, 0, 1179674, 12, 0, 1179675, 12, 0, 1179676, 12, 0, 1179677, 12, 0, 1179678, 12, 0, 1179679, 12, 0, 1245184, -1073741811, 0, 1245185, 12, 0, 1245186, 12, 0, 1245187, 12, 0, 1245188, 12, 0, 1245189, 12, 0, 1245190, 12, 0, 1245191, 12, 0, 1245192, 12, 0, 1245193, -1610612723, 0, 1245203, 1610612753, 0, 1245204, 1610612749, 0, 1245205, 1610612749, 0, 1245206, 1610612749, 0, 1245207, 18, 0, 1245208, 12, 0, 1245209, 12, 0, 1245210, 12, 0, 1245211, 12, 0, 1245212, 12, 0, 1245213, 12, 0, 1245214, 12, 0, 1245215, 12, 0, 1310720, -1073741811, 0, 1310721, 12, 0, 1310722, 12, 0, 1310723, 12, 0, 1310724, 12, 0, 1310725, 12, 0, 1310726, 12, 0, 1310727, 12, 0, 1310728, 12, 0, 1310729, 1610612754, 0, 1310730, 17, 0, 1310731, 28, 0, 1310743, 1610612753, 0, 1310744, 18, 0, 1310745, 12, 0, 1310746, 12, 0, 1310747, 12, 0, 1310748, 12, 0, 1310749, 12, 0, 1310750, 12, 0, 1310751, 12, 0, 1376256, -1073741811, 0, 1376257, -1073741806, 0, 1376258, 1610612749, 0, 1376259, 1610612749, 0, 1376260, 18, 0, 1376261, 12, 0, 1376262, 12, 0, 1376263, 12, 0, 1376264, -1073741806, 0, 1376265, 1610612749, 0, 1376266, -1610612719, 0, 1376267, 28, 0, 1376280, 1610612753, 0, 1376281, 18, 0, 1376282, 12, 0, 1376283, 12, 0, 1376284, 12, 0, 1376285, 12, 0, 1376286, 12, 0, 1376287, 12, 0, 1441792, 1610612753, 0, 1441793, -1610612719, 0, 1441796, 1610612753, 0, 1441797, 1610612749, 0, 1441798, 18, 0, 1441799, -1073741806, 0, 1441800, -1610612719, 0, 1441817, -1073741811, 0, 1441818, 12, 0, 1441819, 12, 0, 1441820, 12, 0, 1441821, 12, 0, 1441822, 12, 0, 1441823, 12, 0, 1507334, 1610612753, 0, 1507335, -1610612719, 0, 1507353, -1073741811, 0, 1507354, 12, 0, 1507355, 12, 0, 1507356, 12, 0, 1507357, 12, 0, 1507358, 12, 0, 1507359, 12, 0, 1572889, -1073741811, 0, 1572890, 12, 0, 1572891, 12, 0, 1572892, 12, 0, 1572893, 12, 0, 1572894, 12, 0, 1572895, 12, 0, 1638423, -1073741807, 0, 1638424, 13, 0, 1638425, -1610612718, 0, 1638426, 12, 0, 1638427, 12, 0, 1638428, 12, 0, 1638429, 12, 0, 1638430, 12, 0, 1638431, 12, 0, 1703946, -1073741807, 0, 1703947, 13, 0, 1703948, 17, 0, 1703958, -1073741807, 0, 1703959, -1610612718, 0, 1703960, 12, 0, 1703961, 12, 0, 1703962, 12, 0, 1703963, 12, 0, 1703964, 12, 0, 1703965, 12, 0, 1703966, 12, 0, 1703967, 12, 0, 1769478, -1073741807, 0, 1769479, 13, 0, 1769480, 13, 0, 1769481, 13, 0, 1769482, -1610612718, 0, 1769483, 12, 0, 1769484, 1610612754, 0, 1769485, 13, 0, 1769486, 13, 0, 1769487, 17, 0, 1769492, -1073741807, 0, 1769493, 13, 0, 1769494, -1610612718, 0, 1769495, 12, 0, 1769496, 12, 0, 1769497, 12, 0, 1769498, 12, 0, 1769499, 12, 0, 1769500, 12, 0, 1769501, 12, 0, 1769502, 12, 0, 1769503, 12, 0, 1835009, -1073741807, 0, 1835010, 13, 0, 1835011, 13, 0, 1835012, 13, 0, 1835013, 13, 0, 1835014, -1610612718, 0, 1835015, 12, 0, 1835016, 12, 0, 1835017, 12, 0, 1835018, 12, 0, 1835019, 12, 0, 1835020, 12, 0, 1835021, 12, 0, 1835022, 12, 0, 1835023, 1610612754, 0, 1835024, 13, 0, 1835025, 13, 0, 1835026, 13, 0, 1835027, 13, 0, 1835028, -1610612718, 0, 1835029, 12, 0, 1835030, 12, 0, 1835031, 12, 0, 1835032, 12, 0, 1835033, 12, 0, 1835034, 12, 0, 1835035, 12, 0, 1835036, 12, 0, 1835037, 12, 0, 1835038, 12, 0, 1835039, 12, 0, 1900544, -1073741807, 0, 1900545, -1610612718, 0, 1900546, 12, 0, 1900547, 12, 0, 1900548, 12, 0, 1900549, 12, 0, 1900550, 12, 0, 1900551, 12, 0, 1900552, 12, 0, 1900553, 12, 0, 1900554, 12, 0, 1900555, 12, 0, 1900556, 12, 0, 1900557, 12, 0, 1900558, 12, 0, 1900559, 12, 0, 1900560, 12, 0, 1900561, 12, 0, 1900562, 12, 0, 1900563, 12, 0, 1900564, 12, 0, 1900565, 12, 0, 1900566, 12, 0, 1900567, 12, 0, 1900568, 12, 0, 1900569, 12, 0, 1900570, 12, 0, 1900571, 12, 0, 1900572, 12, 0, 1900573, 12, 0, 1900574, 12, 0, 1900575, 12, 0, 1966080, -1073741811, 0, 1966081, 12, 0, 1966082, 12, 0, 1966083, 12, 0, 1966084, 12, 0, 1966085, 12, 0, 1966086, 12, 0, 1966087, 12, 0, 1966088, 12, 0, 1966089, 12, 0, 1966090, 12, 0, 1966091, 12, 0, 1966092, 12, 0, 1966093, 12, 0, 1966094, 12, 0, 1966095, 12, 0, 1966096, 12, 0, 1966097, 12, 0, 1966098, 12, 0, 1966099, 12, 0, 1966100, 12, 0, 1966101, 12, 0, 1966102, 12, 0, 1966103, 12, 0, 1966104, 12, 0, 1966105, 12, 0, 1966106, 12, 0, 1966107, 12, 0, 1966108, 12, 0, 1966109, 12, 0, 1966110, 12, 0, 1966111, 12, 0, 2031616, -1610612718, 0, 2031617, 12, 0, 2031618, 12, 0, 2031619, 12, 0, 2031620, 12, 0, 2031621, 12, 0, 2031622, 12, 0, 2031623, 12, 0, 2031624, 12, 0, 2031625, 12, 0, 2031626, 12, 0, 2031627, 12, 0, 2031628, 12, 0, 2031629, 12, 0, 2031630, 12, 0, 2031631, 12, 0, 2031632, 12, 0, 2031633, 12, 0, 2031634, 12, 0, 2031635, 12, 0, 2031636, 12, 0, 2031637, 12, 0, 2031638, 12, 0, 2031639, 12, 0, 2031640, 12, 0, 2031641, 12, 0, 2031642, 12, 0, 2031643, 12, 0, 2031644, 12, 0, 2031645, 12, 0, 2031646, 12, 0, 2031647, 12, 0 )

[node name="DeathArea" parent="." instance=ExtResource( 2 )]
position = Vector2( 1288, 576 )
scale = Vector2( 1, 1.96 )

[node name="DeathArea4" parent="." instance=ExtResource( 2 )]
position = Vector2( 1160, 448 )
scale = Vector2( 1, 1.96 )

[node name="DeathArea5" parent="." instance=ExtResource( 2 )]
position = Vector2( 1216, 504 )
rotation = 1.57079
scale = Vector2( 1, 1.96 )

[node name="DeathArea2" parent="." instance=ExtResource( 2 )]
position = Vector2( 888, 1088 )
scale = Vector2( 1, 1.96 )

[node name="DeathArea3" parent="." instance=ExtResource( 2 )]
position = Vector2( 712, 1344 )
scale = Vector2( 1, 1.96 )

[node name="Rocket" parent="." instance=ExtResource( 5 )]
position = Vector2( 192, 1472 )

[node name="Rocket2" parent="." instance=ExtResource( 5 )]
position = Vector2( 544, 864 )

[node name="Rocket3" parent="." instance=ExtResource( 5 )]
position = Vector2( 672, 736 )

[node name="Rocket6" parent="." instance=ExtResource( 5 )]
position = Vector2( 1216, 448 )

[node name="Rocket7" parent="." instance=ExtResource( 5 )]
position = Vector2( 1152, 192 )

[node name="Coin" parent="." instance=ExtResource( 4 )]
position = Vector2( 1568, 1504 )
z_index = 2

[node name="BreakablePlatform" parent="." instance=ExtResource( 6 )]
position = Vector2( 1568, 1440 )

[node name="BreakablePlatform2" parent="." instance=ExtResource( 6 )]
position = Vector2( 1568, 1504 )

[node name="BreakablePlatform3" parent="." instance=ExtResource( 6 )]
position = Vector2( 1568, 1568 )

[node name="BreakablePlatform4" parent="." instance=ExtResource( 6 )]
position = Vector2( 1504, 1568 )

[node name="BreakablePlatform5" parent="." instance=ExtResource( 6 )]
position = Vector2( 1504, 1504 )

[node name="BreakablePlatform6" parent="." instance=ExtResource( 6 )]
position = Vector2( 1504, 1440 )

[node name="BreakablePlatform7" parent="." instance=ExtResource( 6 )]
position = Vector2( 1504, 1376 )

[node name="Coin2" parent="." instance=ExtResource( 4 )]
position = Vector2( 576, 768 )

[node name="Coin3" parent="." instance=ExtResource( 4 )]
position = Vector2( 640, 832 )

[node name="Coin4" parent="." instance=ExtResource( 4 )]
position = Vector2( 1120, 1504 )

[node name="Coin6" parent="." instance=ExtResource( 4 )]
position = Vector2( 1568, 1568 )
z_index = 2

[node name="Coin5" parent="." instance=ExtResource( 4 )]
position = Vector2( 1568, 1440 )
z_index = 2

[node name="Rocket4" parent="." instance=ExtResource( 5 )]
position = Vector2( 1120, 1584 )

[node name="Rocket5" parent="." instance=ExtResource( 5 )]
position = Vector2( 1120, 1424 )

[node name="DeathArea6" parent="." instance=ExtResource( 2 )]
position = Vector2( 1208, 160 )

[node name="DeathArea7" parent="." instance=ExtResource( 2 )]
position = Vector2( 1184, 136 )
rotation = 1.57079
