[gd_scene load_steps=6 format=2]

[ext_resource path="res://scenes/obstacles/TimeReversalCharge.tscn" type="PackedScene" id=1]
[ext_resource path="res://scenes/obstacles/Rocket.tscn" type="PackedScene" id=2]
[ext_resource path="res://scenes/obstacles/Coin.tscn" type="PackedScene" id=3]
[ext_resource path="res://scenes/obstacles/DeathArea.tscn" type="PackedScene" id=4]
[ext_resource path="res://sprites/mock/Testing_tile_sets.tres" type="TileSet" id=5]

[node name="2P_001_3_N" type="Node2D"]

[node name="TileMap" type="TileMap" parent="."]
scale = Vector2( 0.5, 0.5 )
tile_set = ExtResource( 5 )
cell_size = Vector2( 128, 128 )
cell_custom_transform = Transform2D( 0, 0, 0, 0, 0, 0 )
format = 1
tile_data = PoolIntArray( 0, 1610612749, 0, 1, 18, 0, 2, -1073741812, 0, 3, -1073741812, 0, 4, -1073741812, 0, 5, -1073741812, 0, 6, -1073741812, 0, 7, -1073741812, 0, 8, -1073741812, 0, 9, -1073741812, 0, 10, -1073741812, 0, 11, -1073741812, 0, 12, -1073741812, 0, 13, -1073741806, 0, 14, 1610612749, 0, 15, 1610612749, 0, 16, 1610612749, 0, 17, 1610612749, 0, 18, 1610612749, 0, 19, 1610612749, 0, 20, 1610612749, 0, 21, 1610612749, 0, 22, 1610612749, 0, 23, 1610612749, 0, 24, 1610612749, 0, 25, 1610612749, 0, 26, 1610612749, 0, 27, 1610612749, 0, 28, 1610612749, 0, 29, 1610612749, 0, 30, 1610612749, 0, 31, 1610612749, 0, 65537, -2147483635, 0, 65538, -536870900, 0, 65539, -536870900, 0, 65540, -536870900, 0, 65541, -536870900, 0, 65542, -536870900, 0, 65543, -536870900, 0, 65544, -536870900, 0, 65545, -536870900, 0, 65546, -536870900, 0, 65547, -536870900, 0, 65548, -536870900, 0, 65549, -1610612723, 0, 131073, -1073741811, 0, 131074, -536870900, 0, 131075, -536870900, 0, 131076, -536870900, 0, 131077, -536870900, 0, 131078, -536870900, 0, 131079, -536870900, 0, 131080, -536870900, 0, 131081, -536870900, 0, 131082, -536870900, 0, 131083, -536870900, 0, 131084, -536870900, 0, 131085, -1610612723, 0, 196609, 1610612753, 0, 196610, 18, 0, 196611, -536870900, 0, 196612, -536870900, 0, 196613, -536870900, 0, 196614, -536870900, 0, 196615, -536870900, 0, 196616, -536870900, 0, 196617, -536870900, 0, 196618, -536870900, 0, 196619, -536870900, 0, 196620, -1073741806, 0, 196621, -1610612719, 0, 262146, -1073741811, 0, 262147, -536870900, 0, 262148, -536870900, 0, 262149, -536870900, 0, 262150, -536870900, 0, 262151, -536870900, 0, 262152, -536870900, 0, 262153, -536870900, 0, 262154, -536870900, 0, 262155, -536870900, 0, 262156, -1610612723, 0, 262161, -1073741796, 0, 262162, -1073741796, 0, 262163, -1073741796, 0, 262168, -1073741807, 0, 262169, 13, 0, 262170, 13, 0, 262171, 13, 0, 262172, 13, 0, 262173, 13, 0, 262174, 13, 0, 262175, 17, 0, 327682, -1073741811, 0, 327683, -536870900, 0, 327684, -536870900, 0, 327685, -536870900, 0, 327686, -536870900, 0, 327687, -536870900, 0, 327688, -536870900, 0, 327689, -536870900, 0, 327690, -536870900, 0, 327691, -536870900, 0, 327692, -1610612723, 0, 327696, 1610612764, 0, 327697, -1073741807, 0, 327698, 13, 0, 327699, 17, 0, 327700, 28, 0, 327704, -1073741811, 0, 327705, 12, 0, 327706, 12, 0, 327707, 12, 0, 327708, 12, 0, 327709, 12, 0, 327710, 12, 0, 327711, -1610612723, 0, 393218, -1073741811, 0, 393219, -536870900, 0, 393220, -536870900, 0, 393221, -536870900, 0, 393222, -536870900, 0, 393223, -536870900, 0, 393224, -536870900, 0, 393225, -536870900, 0, 393226, -536870900, 0, 393227, -536870900, 0, 393228, -1610612723, 0, 393232, 1610612764, 0, 393233, 1610612753, 0, 393234, 1610612749, 0, 393235, -1610612719, 0, 393236, 28, 0, 393240, -1073741811, 0, 393241, 12, 0, 393242, 12, 0, 393243, 12, 0, 393244, 12, 0, 393245, 12, 0, 393246, 12, 0, 393247, -1610612723, 0, 458754, 1610612753, 0, 458755, 18, 0, 458756, -536870900, 0, 458757, -536870900, 0, 458758, -536870900, 0, 458759, -536870900, 0, 458760, -536870900, 0, 458761, -536870900, 0, 458762, -536870900, 0, 458763, -1073741806, 0, 458764, -1610612719, 0, 458769, -1610612708, 0, 458770, -1610612708, 0, 458771, -1610612708, 0, 458776, -1073741811, 0, 458777, 12, 0, 458778, 12, 0, 458779, 12, 0, 458780, 12, 0, 458781, 12, 0, 458782, 12, 0, 458783, -1610612723, 0, 524291, -1073741811, 0, 524292, -536870900, 0, 524293, -536870900, 0, 524294, -536870900, 0, 524295, -536870900, 0, 524296, -536870900, 0, 524297, -536870900, 0, 524298, -536870900, 0, 524299, -1610612723, 0, 524311, 536870929, 0, 524312, -1610612718, 0, 524313, 12, 0, 524314, 12, 0, 524315, 12, 0, 524316, 12, 0, 524317, 12, 0, 524318, 12, 0, 524319, -1610612723, 0, 589827, -1073741811, 0, 589828, -536870900, 0, 589829, -536870900, 0, 589830, -536870900, 0, 589831, -536870900, 0, 589832, -536870900, 0, 589833, -536870900, 0, 589834, -536870900, 0, 589835, -1610612723, 0, 589847, -2147483635, 0, 589848, -536870900, 0, 589849, 12, 0, 589850, 12, 0, 589851, 12, 0, 589852, 12, 0, 589853, 12, 0, 589854, 12, 0, 589855, -1610612723, 0, 655363, -1073741811, 0, 655364, -536870900, 0, 655365, -536870900, 0, 655366, -536870900, 0, 655367, -536870900, 0, 655368, -536870900, 0, 655369, -536870900, 0, 655370, -536870900, 0, 655371, -1610612723, 0, 655383, -2147483635, 0, 655384, -536870900, 0, 655385, 12, 0, 655386, 12, 0, 655387, 12, 0, 655388, 12, 0, 655389, 12, 0, 655390, 12, 0, 655391, -1610612723, 0, 720899, 1610612753, 0, 720900, 18, 0, 720901, -536870900, 0, 720902, -536870900, 0, 720903, -536870900, 0, 720904, -536870900, 0, 720905, -536870900, 0, 720906, -1073741806, 0, 720907, -1610612719, 0, 720919, -2147483635, 0, 720920, -536870900, 0, 720921, 12, 0, 720922, 12, 0, 720923, 12, 0, 720924, 12, 0, 720925, 12, 0, 720926, 12, 0, 720927, -1610612723, 0, 786436, -1073741811, 0, 786437, -536870900, 0, 786438, -536870900, 0, 786439, -536870900, 0, 786440, -536870900, 0, 786441, -536870900, 0, 786442, -1610612723, 0, 786447, -1073741796, 0, 786448, -1073741796, 0, 786449, -1073741796, 0, 786454, 536870929, 0, 786455, 1073741842, 0, 786456, -536870900, 0, 786457, 12, 0, 786458, 12, 0, 786459, 12, 0, 786460, 12, 0, 786461, 12, 0, 786462, 12, 0, 786463, -1610612723, 0, 851972, -1073741811, 0, 851973, -536870900, 0, 851974, -536870900, 0, 851975, -536870900, 0, 851976, -536870900, 0, 851977, -536870900, 0, 851978, -1610612723, 0, 851982, 1610612764, 0, 851983, -1073741807, 0, 851984, 13, 0, 851985, 17, 0, 851986, 28, 0, 851990, -2147483635, 0, 851991, -536870900, 0, 851992, -536870900, 0, 851993, 12, 0, 851994, 12, 0, 851995, 12, 0, 851996, 12, 0, 851997, 12, 0, 851998, 12, 0, 851999, -1610612723, 0, 917508, -1073741811, 0, 917509, -536870900, 0, 917510, -536870900, 0, 917511, -536870900, 0, 917512, -536870900, 0, 917513, -536870900, 0, 917514, -1610612723, 0, 917518, 1610612764, 0, 917519, -1073741811, 0, 917520, -1073741806, 0, 917521, -1610612719, 0, 917522, 28, 0, 917526, -2147483635, 0, 917527, -536870900, 0, 917528, -536870900, 0, 917529, 12, 0, 917530, 12, 0, 917531, 12, 0, 917532, 12, 0, 917533, 12, 0, 917534, 12, 0, 917535, -1610612723, 0, 983044, 1610612753, 0, 983045, 18, 0, 983046, -536870900, 0, 983047, -536870900, 0, 983048, -536870900, 0, 983049, -1073741806, 0, 983050, -1610612719, 0, 983054, 1610612764, 0, 983055, -1073741811, 0, 983056, -1610612723, 0, 983057, -1610612706, 0, 983062, -2147483635, 0, 983063, -536870900, 0, 983064, -536870900, 0, 983065, 12, 0, 983066, 12, 0, 983067, 12, 0, 983068, 12, 0, 983069, 12, 0, 983070, 12, 0, 983071, -1610612723, 0, 1048581, -1073741811, 0, 1048582, -536870900, 0, 1048583, -536870900, 0, 1048584, -536870900, 0, 1048585, -1610612723, 0, 1048590, -1073741794, 0, 1048591, -1073741811, 0, 1048592, -1610612723, 0, 1048593, 28, 0, 1048597, 536870929, 0, 1048598, 1073741842, 0, 1048599, -536870900, 0, 1048600, -536870900, 0, 1048601, 12, 0, 1048602, 12, 0, 1048603, 12, 0, 1048604, 12, 0, 1048605, 12, 0, 1048606, 12, 0, 1048607, -1610612723, 0, 1114117, -1073741811, 0, 1114118, -536870900, 0, 1114119, -536870900, 0, 1114120, -536870900, 0, 1114121, -1610612723, 0, 1114125, 1610612764, 0, 1114126, -1073741807, 0, 1114127, -1610612718, 0, 1114128, -1610612723, 0, 1114129, 28, 0, 1114133, -2147483635, 0, 1114134, -536870900, 0, 1114135, -536870900, 0, 1114136, -536870900, 0, 1114137, 12, 0, 1114138, 12, 0, 1114139, 12, 0, 1114140, 12, 0, 1114141, 12, 0, 1114142, 12, 0, 1114143, -1610612723, 0, 1179653, -1073741811, 0, 1179654, -536870900, 0, 1179655, -536870900, 0, 1179656, -536870900, 0, 1179657, -1610612723, 0, 1179661, 1610612764, 0, 1179662, 1610612753, 0, 1179663, 1610612749, 0, 1179664, -1610612719, 0, 1179665, 28, 0, 1179669, -2147483635, 0, 1179670, -536870900, 0, 1179671, -536870900, 0, 1179672, -536870900, 0, 1179673, 12, 0, 1179674, 12, 0, 1179675, 12, 0, 1179676, 12, 0, 1179677, 12, 0, 1179678, 12, 0, 1179679, -1610612723, 0, 1245189, 1610612753, 0, 1245190, 18, 0, 1245191, -536870900, 0, 1245192, -1073741806, 0, 1245193, -1610612719, 0, 1245198, -1610612708, 0, 1245199, -1610612708, 0, 1245200, -1610612708, 0, 1245205, -2147483635, 0, 1245206, -536870900, 0, 1245207, -536870900, 0, 1245208, -536870900, 0, 1245209, 12, 0, 1245210, 12, 0, 1245211, 12, 0, 1245212, 12, 0, 1245213, 12, 0, 1245214, 12, 0, 1245215, -1610612723, 0, 1310726, -1073741811, 0, 1310727, -536870900, 0, 1310728, -1610612723, 0, 1310740, 536870929, 0, 1310741, 1073741842, 0, 1310742, -536870900, 0, 1310743, -536870900, 0, 1310744, -536870900, 0, 1310745, 12, 0, 1310746, 12, 0, 1310747, 12, 0, 1310748, 12, 0, 1310749, 12, 0, 1310750, 12, 0, 1310751, -1610612723, 0, 1376262, -1073741811, 0, 1376263, -536870900, 0, 1376264, -1610612723, 0, 1376276, -2147483635, 0, 1376277, -536870900, 0, 1376278, -536870900, 0, 1376279, -536870900, 0, 1376280, -536870900, 0, 1376281, 12, 0, 1376282, 12, 0, 1376283, 12, 0, 1376284, 12, 0, 1376285, 12, 0, 1376286, 12, 0, 1376287, -1610612723, 0, 1441798, -1073741811, 0, 1441799, -536870900, 0, 1441800, -1610612723, 0, 1441812, -2147483635, 0, 1441813, -536870900, 0, 1441814, -536870900, 0, 1441815, -536870900, 0, 1441816, -536870900, 0, 1441817, 12, 0, 1441818, 12, 0, 1441819, 12, 0, 1441820, 12, 0, 1441821, 12, 0, 1441822, 12, 0, 1441823, -1610612723, 0, 1507334, 1610612753, 0, 1507335, 24, 0, 1507336, -1610612719, 0, 1507348, -2147483635, 0, 1507349, -536870900, 0, 1507350, -536870900, 0, 1507351, -536870900, 0, 1507352, -536870900, 0, 1507353, 12, 0, 1507354, 12, 0, 1507355, 12, 0, 1507356, 12, 0, 1507357, 12, 0, 1507358, 12, 0, 1507359, -1610612723, 0, 1572871, -1610612721, 0, 1572876, -1073741796, 0, 1572877, -1073741796, 0, 1572878, -1073741796, 0, 1572883, 536870929, 0, 1572884, 1073741842, 0, 1572885, -536870900, 0, 1572886, -536870900, 0, 1572887, -536870900, 0, 1572888, -536870900, 0, 1572889, 12, 0, 1572890, 12, 0, 1572891, 12, 0, 1572892, 12, 0, 1572893, 12, 0, 1572894, 12, 0, 1572895, -1610612723, 0, 1638407, -1610612721, 0, 1638411, 1610612764, 0, 1638412, -1073741807, 0, 1638413, 13, 0, 1638414, 17, 0, 1638415, 28, 0, 1638419, -2147483635, 0, 1638420, -536870900, 0, 1638421, -536870900, 0, 1638422, -536870900, 0, 1638423, -536870900, 0, 1638424, -536870900, 0, 1638425, 12, 0, 1638426, 12, 0, 1638427, 12, 0, 1638428, 12, 0, 1638429, 12, 0, 1638430, 12, 0, 1638431, -1610612723, 0, 1703943, -1610612720, 0, 1703947, 1610612764, 0, 1703948, 1610612753, 0, 1703949, 1610612749, 0, 1703950, -1610612719, 0, 1703951, 28, 0, 1703955, -2147483635, 0, 1703956, -536870900, 0, 1703957, -536870900, 0, 1703958, -536870900, 0, 1703959, -536870900, 0, 1703960, -536870900, 0, 1703961, 12, 0, 1703962, 12, 0, 1703963, 12, 0, 1703964, 12, 0, 1703965, 12, 0, 1703966, 12, 0, 1703967, -1610612723, 0, 1769484, -1610612708, 0, 1769485, -1610612708, 0, 1769486, -1610612708, 0, 1769491, -2147483635, 0, 1769492, -536870900, 0, 1769493, -536870900, 0, 1769494, -536870900, 0, 1769495, -536870900, 0, 1769496, -536870900, 0, 1769497, 12, 0, 1769498, 12, 0, 1769499, 12, 0, 1769500, 12, 0, 1769501, 12, 0, 1769502, 12, 0, 1769503, -1610612723, 0, 1835026, 536870929, 0, 1835027, 1073741842, 0, 1835028, -536870900, 0, 1835029, -536870900, 0, 1835030, -536870900, 0, 1835031, -536870900, 0, 1835032, -536870900, 0, 1835033, 12, 0, 1835034, 12, 0, 1835035, 12, 0, 1835036, 12, 0, 1835037, 12, 0, 1835038, 12, 0, 1835039, -1610612723, 0, 1900562, -2147483635, 0, 1900563, -536870900, 0, 1900564, -536870900, 0, 1900565, -536870900, 0, 1900566, -536870900, 0, 1900567, -536870900, 0, 1900568, -536870900, 0, 1900569, 12, 0, 1900570, 12, 0, 1900571, 12, 0, 1900572, 12, 0, 1900573, 12, 0, 1900574, 12, 0, 1900575, -1610612723, 0, 1966098, -2147483635, 0, 1966099, -536870900, 0, 1966100, -536870900, 0, 1966101, -536870900, 0, 1966102, -536870900, 0, 1966103, 1610612748, 0, 1966104, 1610612748, 0, 1966105, 12, 0, 1966106, 12, 0, 1966107, 12, 0, 1966108, 12, 0, 1966109, 12, 0, 1966110, 12, 0, 1966111, -1610612723, 0, 2031616, 13, 0, 2031617, 13, 0, 2031618, 13, 0, 2031619, 13, 0, 2031620, 13, 0, 2031621, 13, 0, 2031622, 13, 0, 2031623, 13, 0, 2031624, 13, 0, 2031625, 13, 0, 2031626, 13, 0, 2031627, 13, 0, 2031628, 13, 0, 2031629, 13, 0, 2031630, 13, 0, 2031631, 13, 0, 2031632, 13, 0, 2031633, 13, 0, 2031634, -1610612718, 0, 2031635, -1073741812, 0, 2031636, -1073741812, 0, 2031637, -1073741812, 0, 2031638, -1073741812, 0, 2031639, -1073741812, 0, 2031640, -1073741812, 0, 2031641, 12, 0, 2031642, 12, 0, 2031643, 12, 0, 2031644, 12, 0, 2031645, 12, 0, 2031646, 12, 0, 2031647, 1610612754, 0 )

[node name="DeathArea" parent="." instance=ExtResource( 4 )]
position = Vector2( 864, 1592 )
rotation = -1.57079
scale = Vector2( 1, 3.04 )

[node name="DeathArea2" parent="." instance=ExtResource( 4 )]
position = Vector2( 864, 1736 )
rotation = -1.57079
scale = Vector2( 1, 3.04 )

[node name="DeathArea3" parent="." instance=ExtResource( 4 )]
position = Vector2( 968, 1664 )
scale = Vector2( 1, 1.92 )

[node name="DeathArea4" parent="." instance=ExtResource( 4 )]
position = Vector2( 760, 1664 )
scale = Vector2( 1, 1.92 )

[node name="DeathArea5" parent="." instance=ExtResource( 4 )]
position = Vector2( 1184, 312 )
rotation = -1.57079
scale = Vector2( 1, 3.04 )

[node name="DeathArea6" parent="." instance=ExtResource( 4 )]
position = Vector2( 1184, 456 )
rotation = -1.57079
scale = Vector2( 1, 3.04 )

[node name="DeathArea7" parent="." instance=ExtResource( 4 )]
position = Vector2( 1288, 384 )
scale = Vector2( 1, 1.92 )

[node name="DeathArea8" parent="." instance=ExtResource( 4 )]
position = Vector2( 1080, 384 )
scale = Vector2( 1, 1.92 )

[node name="DeathArea9" parent="." instance=ExtResource( 4 )]
position = Vector2( 1056, 824 )
rotation = -1.57079
scale = Vector2( 1, 3.04 )

[node name="DeathArea11" parent="." instance=ExtResource( 4 )]
position = Vector2( 1160, 896 )
scale = Vector2( 1, 1.92 )

[node name="DeathArea14" parent="." instance=ExtResource( 4 )]
position = Vector2( 992, 1224 )
rotation = -1.57079
scale = Vector2( 1, 3.04 )

[node name="DeathArea15" parent="." instance=ExtResource( 4 )]
position = Vector2( 1096, 1088 )
scale = Vector2( 1, 3.96 )

[node name="DeathArea17" parent="." instance=ExtResource( 4 )]
position = Vector2( 952, 960 )
scale = Vector2( 1, 3.96 )

[node name="DeathArea16" parent="." instance=ExtResource( 4 )]
position = Vector2( 888, 1152 )
scale = Vector2( 1, 1.92 )

[node name="DeathArea10" parent="." instance=ExtResource( 4 )]
position = Vector2( 928, 1080 )
rotation = 1.57079

[node name="DeathArea12" parent="." instance=ExtResource( 4 )]
position = Vector2( 1120, 968 )
rotation = 1.57079

[node name="TimeReversalCharge" parent="." instance=ExtResource( 1 )]
position = Vector2( 1152, 640 )

[node name="TimeReversalCharge2" parent="." instance=ExtResource( 1 )]
position = Vector2( 896, 1408 )

[node name="Rocket" parent="." instance=ExtResource( 2 )]
position = Vector2( 95, 289 )

[node name="Rocket2" parent="." instance=ExtResource( 2 )]
position = Vector2( 159, 545 )

[node name="Rocket3" parent="." instance=ExtResource( 2 )]
position = Vector2( 223, 801 )

[node name="Rocket4" parent="." instance=ExtResource( 2 )]
position = Vector2( 287, 1057 )

[node name="Rocket5" parent="." instance=ExtResource( 2 )]
position = Vector2( 351, 1313 )

[node name="Rocket6" parent="." instance=ExtResource( 2 )]
position = Vector2( 415, 1569 )

[node name="Rocket7" parent="." instance=ExtResource( 2 )]
position = Vector2( 479, 1761 )

[node name="Rocket8" parent="." instance=ExtResource( 2 )]
position = Vector2( 1088, 1408 )

[node name="Rocket9" parent="." instance=ExtResource( 2 )]
position = Vector2( 1088, 640 )

[node name="Rocket10" parent="." instance=ExtResource( 2 )]
position = Vector2( 1311, 1096 )

[node name="Rocket11" parent="." instance=ExtResource( 2 )]
position = Vector2( 1448, 392 )

[node name="Rocket12" parent="." instance=ExtResource( 2 )]
position = Vector2( 736, 1120 )

[node name="Coin" parent="." instance=ExtResource( 3 )]
position = Vector2( 1192, 1096 )

[node name="Coin2" parent="." instance=ExtResource( 3 )]
position = Vector2( 800, 1120 )

[node name="Coin3" parent="." instance=ExtResource( 3 )]
position = Vector2( 1024, 1408 )

[node name="Coin4" parent="." instance=ExtResource( 3 )]
position = Vector2( 1384, 392 )
