[gd_scene load_steps=10 format=2]

[ext_resource path="res://scenes/obstacles/GravityChangeArea.tscn" type="PackedScene" id=1]
[ext_resource path="res://scenes/obstacles/NoFallDeathArea.tscn" type="PackedScene" id=2]
[ext_resource path="res://scenes/obstacles/GravityChangeAnimation.tscn" type="PackedScene" id=3]
[ext_resource path="res://scenes/obstacles/Key.tscn" type="PackedScene" id=4]
[ext_resource path="res://scenes/obstacles/SpringyPlatform.tscn" type="PackedScene" id=5]
[ext_resource path="res://scenes/obstacles/Coin.tscn" type="PackedScene" id=6]
[ext_resource path="res://scenes/obstacles/TimeReversalCharge.tscn" type="PackedScene" id=7]
[ext_resource path="res://scenes/obstacles/DeathArea.tscn" type="PackedScene" id=8]
[ext_resource path="res://sprites/mock/Testing_tile_sets.tres" type="TileSet" id=9]

[node name="3_011_2_K" type="Node2D"]

[node name="TileMap" type="TileMap" parent="."]
scale = Vector2( 0.5, 0.5 )
tile_set = ExtResource( 9 )
cell_size = Vector2( 128, 128 )
cell_custom_transform = Transform2D( 0, 0, 0, 0, 0, 0 )
format = 1
tile_data = PoolIntArray( 0, -536870894, 0, 1, 12, 0, 2, 12, 0, 3, 12, 0, 4, -1073741806, 0, 5, 1073741837, 0, 6, 1073741837, 0, 7, 1073741837, 0, 8, 1073741837, 0, 9, 18, 0, 10, 12, 0, 11, 12, 0, 12, 12, 0, 13, 12, 0, 14, 12, 0, 15, 12, 0, 16, 12, 0, 17, 12, 0, 18, 12, 0, 19, 12, 0, 20, -1073741806, 0, 21, 1073741837, 0, 22, 1073741837, 0, 23, 18, 0, 24, 12, 0, 25, 12, 0, 26, 12, 0, 27, 12, 0, 28, 12, 0, 29, 12, 0, 30, 12, 0, 31, 12, 0, 65536, -2147483635, 0, 65537, 12, 0, 65538, 12, 0, 65539, 12, 0, 65540, -536870899, 0, 65545, 1610612753, 0, 65546, 1073741837, 0, 65547, 1073741837, 0, 65548, 1073741837, 0, 65549, 1073741837, 0, 65550, 18, 0, 65551, 12, 0, 65552, 12, 0, 65553, -1073741806, 0, 65554, 1073741837, 0, 65555, 1073741837, 0, 65556, -1610612719, 0, 65559, 1610612753, 0, 65560, 1073741837, 0, 65561, 1073741837, 0, 65562, 1073741837, 0, 65563, 1073741837, 0, 65564, 18, 0, 65565, 12, 0, 65566, 12, 0, 65567, 12, 0, 131072, -2147483635, 0, 131073, 12, 0, 131074, 12, 0, 131075, 12, 0, 131076, -536870899, 0, 131086, 1610612753, 0, 131087, 18, 0, 131088, 12, 0, 131089, -536870899, 0, 131090, 28, 0, 131100, 1610612753, 0, 131101, 18, 0, 131102, 12, 0, 131103, 12, 0, 196608, -2147483635, 0, 196609, 12, 0, 196610, 12, 0, 196611, 12, 0, 196612, 1610612754, 0, 196613, 17, 0, 196623, -2147483635, 0, 196624, -1073741806, 0, 196625, -1610612719, 0, 196626, 28, 0, 196637, -2147483635, 0, 196638, 12, 0, 196639, 12, 0, 262144, -2147483635, 0, 262145, 12, 0, 262146, 12, 0, 262147, 12, 0, 262148, 12, 0, 262149, 1610612754, 0, 262150, 536870925, 0, 262151, 17, 0, 262159, 1610612753, 0, 262160, -1610612719, 0, 262164, -1073741808, 0, 262167, 536870929, 0, 262168, 536870925, 0, 262169, -536870895, 0, 262173, -2147483635, 0, 262174, 12, 0, 262175, 12, 0, 327680, -2147483635, 0, 327681, 12, 0, 327682, 12, 0, 327683, 12, 0, 327684, 12, 0, 327685, 12, 0, 327686, 12, 0, 327687, -536870899, 0, 327691, -1073741807, 0, 327692, 17, 0, 327700, -536870897, 0, 327703, -2147483635, 0, 327704, 12, 0, 327705, -2147483630, 0, 327706, -536870895, 0, 327709, -2147483635, 0, 327710, 12, 0, 327711, 12, 0, 393216, -2147483635, 0, 393217, 12, 0, 393218, 12, 0, 393219, 12, 0, 393220, 12, 0, 393221, 12, 0, 393222, 12, 0, 393223, -536870899, 0, 393227, -1073741811, 0, 393228, -1610612723, 0, 393235, -1073741807, 0, 393236, 1073741847, 0, 393239, -2147483635, 0, 393240, 12, 0, 393241, 12, 0, 393242, -536870899, 0, 393245, -2147483635, 0, 393246, 12, 0, 393247, 12, 0, 458752, -2147483635, 0, 458753, 12, 0, 458754, 12, 0, 458755, 12, 0, 458756, 12, 0, 458757, 12, 0, 458758, 12, 0, 458759, -536870899, 0, 458763, -1073741811, 0, 458764, -1610612723, 0, 458771, -2147483635, 0, 458772, -536870899, 0, 458775, -2147483635, 0, 458776, 12, 0, 458777, 12, 0, 458778, -536870899, 0, 458781, -2147483635, 0, 458782, 12, 0, 458783, 12, 0, 524288, -2147483635, 0, 524289, 12, 0, 524290, 12, 0, 524291, 12, 0, 524292, 12, 0, 524293, 12, 0, 524294, 12, 0, 524295, -536870899, 0, 524298, -1073741807, 0, 524299, -1610612718, 0, 524300, 1610612754, 0, 524301, 13, 0, 524302, 17, 0, 524305, -1073741807, 0, 524306, 13, 0, 524307, -1610612718, 0, 524308, -536870899, 0, 524311, -2147483635, 0, 524312, 12, 0, 524313, 12, 0, 524314, -536870899, 0, 524317, -2147483635, 0, 524318, 18, 0, 524319, 12, 0, 589824, -2147483635, 0, 589825, 12, 0, 589826, 12, 0, 589827, 12, 0, 589828, 12, 0, 589829, 12, 0, 589830, 12, 0, 589831, -536870899, 0, 589834, -1073741811, 0, 589835, 12, 0, 589836, 12, 0, 589837, 12, 0, 589838, -1610612723, 0, 589841, -1073741811, 0, 589842, 12, 0, 589843, 12, 0, 589844, -536870899, 0, 589847, -2147483635, 0, 589848, 12, 0, 589849, 12, 0, 589850, -536870899, 0, 589853, 1610612753, 0, 589854, 1073741837, 0, 589855, 18, 0, 655360, 536870935, 0, 655361, 1073741837, 0, 655362, 1073741837, 0, 655363, 1073741837, 0, 655364, 1073741837, 0, 655365, 1073741837, 0, 655366, 18, 0, 655367, -536870899, 0, 655370, -1073741811, 0, 655371, 12, 0, 655372, 12, 0, 655373, 12, 0, 655374, -1610612723, 0, 655377, -1073741811, 0, 655378, 12, 0, 655379, 12, 0, 655380, -536870899, 0, 655383, -2147483635, 0, 655384, 12, 0, 655385, 12, 0, 655386, -536870899, 0, 655391, -2147483635, 0, 720896, -536870897, 0, 720902, 1610612753, 0, 720903, -1610612719, 0, 720906, 1610612753, 0, 720907, 1610612749, 0, 720908, 1610612749, 0, 720909, 1610612749, 0, 720910, -1610612719, 0, 720913, -2147483631, 0, 720914, 1073741837, 0, 720915, 1073741837, 0, 720916, 1073741841, 0, 720919, -2147483631, 0, 720920, 1073741837, 0, 720921, 1073741837, 0, 720922, 1073741841, 0, 720927, -2147483635, 0, 786432, -536870897, 0, 786463, -2147483635, 0, 851968, -536870897, 0, 851974, 1610612752, 0, 851975, 15, 0, 851976, 15, 0, 851977, 15, 0, 851978, 15, 0, 851979, 15, 0, 851980, 15, 0, 851981, 15, 0, 851982, 15, 0, 851983, 15, 0, 851984, 15, 0, 851985, 15, 0, 851986, 15, 0, 851987, 15, 0, 851988, 15, 0, 851989, 15, 0, 851990, 15, 0, 851991, 15, 0, 851992, 15, 0, 851993, 15, 0, 851994, 16, 0, 851999, -2147483635, 0, 917504, -536870897, 0, 917535, -2147483635, 0, 983040, -536870897, 0, 983046, -1073741807, 0, 983047, 13, 0, 983048, 13, 0, 983049, 13, 0, 983050, 13, 0, 983051, 13, 0, 983052, 13, 0, 983053, 13, 0, 983054, 13, 0, 983055, 13, 0, 983056, 13, 0, 983057, 13, 0, 983058, 13, 0, 983059, 13, 0, 983060, 13, 0, 983061, 13, 0, 983062, 13, 0, 983063, 13, 0, 983064, 13, 0, 983065, 13, 0, 983066, 13, 0, 983067, 13, 0, 983068, 13, 0, 983069, 13, 0, 983070, 13, 0, 983071, -1610612718, 0, 1048576, -536870897, 0, 1048582, 1610612753, 0, 1048583, 1610612749, 0, 1048584, 1610612749, 0, 1048585, 1610612749, 0, 1048586, 1610612749, 0, 1048587, 1610612749, 0, 1048588, 1610612749, 0, 1048589, 1610612749, 0, 1048590, 1610612749, 0, 1048591, 1610612749, 0, 1048592, 1610612749, 0, 1048593, 1610612749, 0, 1048594, 1610612749, 0, 1048595, 1610612749, 0, 1048596, 1610612749, 0, 1048597, 1610612749, 0, 1048598, 1610612749, 0, 1048599, 1610612749, 0, 1048600, 1610612749, 0, 1048601, 1610612749, 0, 1048602, 1610612749, 0, 1048603, 1610612749, 0, 1048604, 1610612749, 0, 1048605, 1610612749, 0, 1048606, 1610612749, 0, 1048607, 18, 0, 1114112, -536870897, 0, 1114143, -1073741811, 0, 1179648, -536870897, 0, 1179654, 1610612752, 0, 1179655, 15, 0, 1179656, 15, 0, 1179657, 15, 0, 1179658, 15, 0, 1179659, 15, 0, 1179660, 15, 0, 1179661, 15, 0, 1179662, 15, 0, 1179663, 15, 0, 1179664, 15, 0, 1179665, 15, 0, 1179666, 15, 0, 1179667, 15, 0, 1179668, 15, 0, 1179669, 15, 0, 1179670, 15, 0, 1179671, 15, 0, 1179672, 15, 0, 1179673, 15, 0, 1179674, 16, 0, 1179679, -1073741811, 0, 1245184, -536870897, 0, 1245215, -1073741811, 0, 1310720, -536870897, 0, 1310726, -1073741807, 0, 1310727, 13, 0, 1310728, 13, 0, 1310729, 13, 0, 1310730, 17, 0, 1310733, -1073741807, 0, 1310734, 13, 0, 1310735, 13, 0, 1310736, 13, 0, 1310737, 13, 0, 1310738, 13, 0, 1310739, 13, 0, 1310740, 17, 0, 1310743, -1073741807, 0, 1310744, 13, 0, 1310745, 13, 0, 1310746, 17, 0, 1310751, -1073741811, 0, 1376256, 1610612759, 0, 1376257, 13, 0, 1376258, -536870895, 0, 1376262, -1073741811, 0, 1376263, 12, 0, 1376264, 12, 0, 1376265, 12, 0, 1376266, -1610612723, 0, 1376269, -1073741811, 0, 1376270, 12, 0, 1376271, 12, 0, 1376272, 12, 0, 1376273, 12, 0, 1376274, 12, 0, 1376275, 12, 0, 1376276, -1610612723, 0, 1376279, -1073741811, 0, 1376280, 12, 0, 1376281, -1073741806, 0, 1376282, -1610612719, 0, 1376287, -1073741811, 0, 1441792, -2147483635, 0, 1441793, 536870930, 0, 1441794, 1073741841, 0, 1441798, -1073741811, 0, 1441799, 12, 0, 1441800, 12, 0, 1441801, 12, 0, 1441802, -1610612723, 0, 1441805, -1073741811, 0, 1441806, 12, 0, 1441807, 12, 0, 1441808, 12, 0, 1441809, 12, 0, 1441810, 12, 0, 1441811, 12, 0, 1441812, -1610612723, 0, 1441815, -1073741811, 0, 1441816, 12, 0, 1441817, -1610612723, 0, 1441821, -1073741807, 0, 1441822, 13, 0, 1441823, -1610612718, 0, 1507328, -2147483631, 0, 1507329, 1073741841, 0, 1507334, -1073741811, 0, 1507335, 12, 0, 1507336, 12, 0, 1507337, 12, 0, 1507338, -1610612723, 0, 1507341, -1073741811, 0, 1507342, 12, 0, 1507343, 12, 0, 1507344, 12, 0, 1507345, 12, 0, 1507346, 12, 0, 1507347, 12, 0, 1507348, -1610612723, 0, 1507351, -1073741811, 0, 1507352, 12, 0, 1507353, -1610612723, 0, 1507357, -1073741811, 0, 1507358, 12, 0, 1507359, 12, 0, 1572869, -1073741807, 0, 1572870, -1610612718, 0, 1572871, 12, 0, 1572872, 12, 0, 1572873, 12, 0, 1572874, -1610612723, 0, 1572877, 1610612753, 0, 1572878, 18, 0, 1572879, 12, 0, 1572880, 12, 0, 1572881, 12, 0, 1572882, 12, 0, 1572883, 12, 0, 1572884, -1610612723, 0, 1572887, -1073741811, 0, 1572888, -1073741806, 0, 1572889, -1610612719, 0, 1572893, -1073741811, 0, 1572894, 12, 0, 1572895, 12, 0, 1638405, -1073741811, 0, 1638406, 12, 0, 1638407, 12, 0, 1638408, 12, 0, 1638409, -1073741806, 0, 1638410, -1610612719, 0, 1638414, 1610612753, 0, 1638415, 1610612749, 0, 1638416, 18, 0, 1638417, 12, 0, 1638418, 12, 0, 1638419, 12, 0, 1638420, -1610612723, 0, 1638423, 1610612753, 0, 1638424, -1610612719, 0, 1638429, -1073741811, 0, 1638430, 12, 0, 1638431, 12, 0, 1703940, -1073741807, 0, 1703941, -1610612718, 0, 1703942, -1073741806, 0, 1703943, 1610612749, 0, 1703944, 1610612749, 0, 1703945, -1610612719, 0, 1703952, 1610612753, 0, 1703953, 1610612749, 0, 1703954, 18, 0, 1703955, -1073741806, 0, 1703956, -1610612719, 0, 1703965, -1073741811, 0, 1703966, 12, 0, 1703967, 12, 0, 1769474, -1073741807, 0, 1769475, 13, 0, 1769476, -1610612718, 0, 1769477, 12, 0, 1769478, -1610612723, 0, 1769490, -1073741811, 0, 1769491, -1610612723, 0, 1769501, -1073741811, 0, 1769502, 12, 0, 1769503, 12, 0, 1835009, -1073741807, 0, 1835010, -1610612718, 0, 1835011, 12, 0, 1835012, 12, 0, 1835013, 12, 0, 1835014, -1610612723, 0, 1835026, 1610612753, 0, 1835027, -1610612719, 0, 1835036, -1073741807, 0, 1835037, -1610612718, 0, 1835038, 12, 0, 1835039, 12, 0, 1900544, -1073741807, 0, 1900545, -1610612718, 0, 1900546, 12, 0, 1900547, 12, 0, 1900548, 12, 0, 1900549, 12, 0, 1900550, -1610612723, 0, 1900557, -1073741807, 0, 1900558, 13, 0, 1900559, 17, 0, 1900569, -1073741807, 0, 1900570, 13, 0, 1900571, 13, 0, 1900572, -1610612718, 0, 1900573, 12, 0, 1900574, 12, 0, 1900575, 12, 0, 1966080, -1073741811, 0, 1966081, 12, 0, 1966082, 12, 0, 1966083, 12, 0, 1966084, 12, 0, 1966085, 12, 0, 1966086, 1610612754, 0, 1966087, 13, 0, 1966088, 13, 0, 1966089, 13, 0, 1966090, 13, 0, 1966091, 13, 0, 1966092, 13, 0, 1966093, -1610612718, 0, 1966094, 12, 0, 1966095, 1610612754, 0, 1966096, 17, 0, 1966101, -1073741807, 0, 1966102, 13, 0, 1966103, 13, 0, 1966104, 13, 0, 1966105, -1610612718, 0, 1966106, 12, 0, 1966107, 12, 0, 1966108, 12, 0, 1966109, 12, 0, 1966110, 12, 0, 1966111, 12, 0, 2031616, -1610612718, 0, 2031617, 12, 0, 2031618, 12, 0, 2031619, 12, 0, 2031620, 12, 0, 2031621, 12, 0, 2031622, 12, 0, 2031623, 12, 0, 2031624, 12, 0, 2031625, 12, 0, 2031626, 12, 0, 2031627, 12, 0, 2031628, 12, 0, 2031629, 12, 0, 2031630, 12, 0, 2031631, 12, 0, 2031632, 1610612754, 0, 2031633, 13, 0, 2031634, 13, 0, 2031635, 13, 0, 2031636, 13, 0, 2031637, -1610612718, 0, 2031638, 12, 0, 2031639, 12, 0, 2031640, 12, 0, 2031641, 12, 0, 2031642, 12, 0, 2031643, 12, 0, 2031644, 12, 0, 2031645, 12, 0, 2031646, 12, 0, 2031647, 12, 0 )

[node name="GravityChangeArea" parent="." instance=ExtResource( 1 )]
position = Vector2( 1376, 1632 )
rotation = 3.14159

[node name="Node2D" parent="." instance=ExtResource( 3 )]
position = Vector2( 1376, 1632 )
rotation = 3.14159

[node name="GravityChangeArea2" parent="." instance=ExtResource( 1 )]
position = Vector2( 1440, 1632 )
rotation = 3.14159

[node name="Node2D2" parent="." instance=ExtResource( 3 )]
position = Vector2( 1440, 1632 )
rotation = 3.14159

[node name="GravityChangeArea14" parent="." instance=ExtResource( 1 )]
position = Vector2( 736, 1568 )
rotation = 3.14159

[node name="Node2D14" parent="." instance=ExtResource( 3 )]
position = Vector2( 736, 1568 )
rotation = 3.14159

[node name="GravityChangeArea15" parent="." instance=ExtResource( 1 )]
position = Vector2( 800, 1568 )
rotation = 3.14159

[node name="Node2D15" parent="." instance=ExtResource( 3 )]
position = Vector2( 800, 1568 )
rotation = 3.14159

[node name="GravityChangeArea3" parent="." instance=ExtResource( 1 )]
position = Vector2( 1408, 1888 )
rotation = 3.14159

[node name="Node2D3" parent="." instance=ExtResource( 3 )]
position = Vector2( 1408, 1888 )
rotation = 3.14159

[node name="GravityChangeArea16" parent="." instance=ExtResource( 1 )]
position = Vector2( 736, 1840 )
rotation = 3.14159

[node name="Node2D16" parent="." instance=ExtResource( 3 )]
position = Vector2( 736, 1840 )
rotation = 3.14159

[node name="GravityChangeArea18" parent="." instance=ExtResource( 1 )]
position = Vector2( 800, 1696 )
rotation = 3.14159

[node name="Node2D18" parent="." instance=ExtResource( 3 )]
position = Vector2( 800, 1696 )
rotation = 3.14159

[node name="GravityChangeArea4" parent="." instance=ExtResource( 1 )]
position = Vector2( 1440, 1248 )
rotation = 7.85397

[node name="Node2D4" parent="." instance=ExtResource( 3 )]
position = Vector2( 1440, 1248 )
rotation = 7.85397

[node name="GravityChangeArea5" parent="." instance=ExtResource( 1 )]
position = Vector2( 1376, 1248 )
rotation = 7.85397

[node name="Node2D5" parent="." instance=ExtResource( 3 )]
position = Vector2( 1376, 1248 )
rotation = 7.85397

[node name="GravityChangeArea6" parent="." instance=ExtResource( 1 )]
position = Vector2( 800, 1248 )
rotation = 7.85397

[node name="Node2D6" parent="." instance=ExtResource( 3 )]
position = Vector2( 800, 1248 )
rotation = 7.85397

[node name="GravityChangeArea7" parent="." instance=ExtResource( 1 )]
position = Vector2( 736, 1248 )
rotation = 7.85397

[node name="Node2D7" parent="." instance=ExtResource( 3 )]
position = Vector2( 736, 1248 )
rotation = 7.85397

[node name="GravityChangeArea8" parent="." instance=ExtResource( 1 )]
position = Vector2( 576, 1248 )
rotation = 7.85397

[node name="Node2D8" parent="." instance=ExtResource( 3 )]
position = Vector2( 576, 1248 )
rotation = 7.85397

[node name="GravityChangeArea10" parent="." instance=ExtResource( 1 )]
position = Vector2( 952, 1248 )
rotation = 7.85397

[node name="Node2D10" parent="." instance=ExtResource( 3 )]
position = Vector2( 952, 1248 )
rotation = 7.85397

[node name="GravityChangeArea11" parent="." instance=ExtResource( 1 )]
position = Vector2( 1088, 1248 )
rotation = 7.85397

[node name="Node2D11" parent="." instance=ExtResource( 3 )]
position = Vector2( 1088, 1248 )
rotation = 7.85397

[node name="GravityChangeArea13" parent="." instance=ExtResource( 1 )]
position = Vector2( 1696, 1248 )
rotation = 7.85397

[node name="Node2D13" parent="." instance=ExtResource( 3 )]
position = Vector2( 1696, 1248 )
rotation = 7.85397

[node name="GravityChangeArea36" parent="." instance=ExtResource( 1 )]
position = Vector2( 1568, 1248 )
rotation = 7.85397

[node name="Node2D36" parent="." instance=ExtResource( 3 )]
position = Vector2( 1568, 1248 )
rotation = 7.85397

[node name="GravityChangeArea12" parent="." instance=ExtResource( 1 )]
position = Vector2( 1224, 1248 )
rotation = 7.85397

[node name="Node2D12" parent="." instance=ExtResource( 3 )]
position = Vector2( 1224, 1248 )
rotation = 7.85397

[node name="GravityChangeArea9" parent="." instance=ExtResource( 1 )]
position = Vector2( 416, 1248 )
rotation = 7.85397

[node name="Node2D9" parent="." instance=ExtResource( 3 )]
position = Vector2( 416, 1248 )
rotation = 7.85397

[node name="GravityChangeArea37" parent="." instance=ExtResource( 1 )]
position = Vector2( 1440, 800 )
rotation = 7.85397

[node name="Node2D37" parent="." instance=ExtResource( 3 )]
position = Vector2( 1440, 800 )
rotation = 7.85397

[node name="GravityChangeArea38" parent="." instance=ExtResource( 1 )]
position = Vector2( 1376, 800 )
rotation = 7.85397

[node name="Node2D38" parent="." instance=ExtResource( 3 )]
position = Vector2( 1376, 800 )
rotation = 7.85397

[node name="GravityChangeArea39" parent="." instance=ExtResource( 1 )]
position = Vector2( 736, 800 )
rotation = 7.85397

[node name="Node2D39" parent="." instance=ExtResource( 3 )]
position = Vector2( 736, 800 )
rotation = 7.85397

[node name="GravityChangeArea48" parent="." instance=ExtResource( 1 )]
position = Vector2( 864, 800 )
rotation = 7.85397

[node name="Node2D48" parent="." instance=ExtResource( 3 )]
position = Vector2( 864, 800 )
rotation = 7.85397

[node name="GravityChangeArea40" parent="." instance=ExtResource( 1 )]
position = Vector2( 608, 800 )
rotation = 7.85397

[node name="Node2D40" parent="." instance=ExtResource( 3 )]
position = Vector2( 608, 800 )
rotation = 7.85397

[node name="GravityChangeArea41" parent="." instance=ExtResource( 1 )]
position = Vector2( 544, 800 )
rotation = 7.85397

[node name="Node2D41" parent="." instance=ExtResource( 3 )]
position = Vector2( 544, 800 )
rotation = 7.85397

[node name="GravityChangeArea49" parent="." instance=ExtResource( 1 )]
position = Vector2( 608, 544 )
rotation = 6.28318

[node name="Node2D49" parent="." instance=ExtResource( 3 )]
position = Vector2( 608, 544 )
rotation = 6.28318

[node name="GravityChangeArea50" parent="." instance=ExtResource( 1 )]
position = Vector2( 544, 544 )
rotation = 6.28318

[node name="Node2D50" parent="." instance=ExtResource( 3 )]
position = Vector2( 544, 544 )
rotation = 6.28318

[node name="GravityChangeArea51" parent="." instance=ExtResource( 1 )]
position = Vector2( 1056, 544 )
rotation = 6.28318

[node name="Node2D51" parent="." instance=ExtResource( 3 )]
position = Vector2( 1056, 544 )
rotation = 6.28318

[node name="GravityChangeArea52" parent="." instance=ExtResource( 1 )]
position = Vector2( 992, 544 )
rotation = 6.28318

[node name="Node2D52" parent="." instance=ExtResource( 3 )]
position = Vector2( 992, 544 )
rotation = 6.28318

[node name="GravityChangeArea59" parent="." instance=ExtResource( 1 )]
position = Vector2( 544, 288 )
rotation = 6.28318

[node name="Node2D59" parent="." instance=ExtResource( 3 )]
position = Vector2( 544, 288 )
rotation = 6.28318

[node name="GravityChangeArea60" parent="." instance=ExtResource( 1 )]
position = Vector2( 672, 160 )
rotation = 6.28318

[node name="Node2D60" parent="." instance=ExtResource( 3 )]
position = Vector2( 672, 160 )
rotation = 6.28318

[node name="GravityChangeArea61" parent="." instance=ExtResource( 1 )]
position = Vector2( 544, 416 )
rotation = 6.28318

[node name="Node2D61" parent="." instance=ExtResource( 3 )]
position = Vector2( 544, 416 )
rotation = 6.28318

[node name="GravityChangeArea53" parent="." instance=ExtResource( 1 )]
position = Vector2( 1440, 288 )
rotation = 6.28318

[node name="Node2D53" parent="." instance=ExtResource( 3 )]
position = Vector2( 1440, 288 )
rotation = 6.28318

[node name="GravityChangeArea54" parent="." instance=ExtResource( 1 )]
position = Vector2( 1376, 288 )
rotation = 6.28318

[node name="Node2D54" parent="." instance=ExtResource( 3 )]
position = Vector2( 1376, 288 )
rotation = 6.28318

[node name="GravityChangeArea57" parent="." instance=ExtResource( 1 )]
position = Vector2( 1056, 352 )
rotation = 6.28318

[node name="Node2D57" parent="." instance=ExtResource( 3 )]
position = Vector2( 1056, 352 )
rotation = 6.28318

[node name="GravityChangeArea58" parent="." instance=ExtResource( 1 )]
position = Vector2( 992, 352 )
rotation = 6.28318

[node name="Node2D58" parent="." instance=ExtResource( 3 )]
position = Vector2( 992, 352 )
rotation = 6.28318

[node name="GravityChangeArea55" parent="." instance=ExtResource( 1 )]
position = Vector2( 1440, 96 )
rotation = 6.28318

[node name="Node2D55" parent="." instance=ExtResource( 3 )]
position = Vector2( 1440, 96 )
rotation = 6.28318

[node name="GravityChangeArea56" parent="." instance=ExtResource( 1 )]
position = Vector2( 1376, 96 )
rotation = 6.28318

[node name="Node2D56" parent="." instance=ExtResource( 3 )]
position = Vector2( 1376, 96 )
rotation = 6.28318

[node name="GravityChangeArea42" parent="." instance=ExtResource( 1 )]
position = Vector2( 992, 800 )
rotation = 7.85397

[node name="Node2D42" parent="." instance=ExtResource( 3 )]
position = Vector2( 992, 800 )
rotation = 7.85397

[node name="GravityChangeArea43" parent="." instance=ExtResource( 1 )]
position = Vector2( 1056, 800 )
rotation = 7.85397

[node name="Node2D43" parent="." instance=ExtResource( 3 )]
position = Vector2( 1056, 800 )
rotation = 7.85397

[node name="GravityChangeArea44" parent="." instance=ExtResource( 1 )]
position = Vector2( 1696, 800 )
rotation = 7.85397

[node name="Node2D44" parent="." instance=ExtResource( 3 )]
position = Vector2( 1696, 800 )
rotation = 7.85397

[node name="GravityChangeArea45" parent="." instance=ExtResource( 1 )]
position = Vector2( 1568, 800 )
rotation = 7.85397

[node name="Node2D45" parent="." instance=ExtResource( 3 )]
position = Vector2( 1568, 800 )
rotation = 7.85397

[node name="GravityChangeArea46" parent="." instance=ExtResource( 1 )]
position = Vector2( 1216, 800 )
rotation = 7.85397

[node name="Node2D46" parent="." instance=ExtResource( 3 )]
position = Vector2( 1216, 800 )
rotation = 7.85397

[node name="GravityChangeArea47" parent="." instance=ExtResource( 1 )]
position = Vector2( 416, 800 )
rotation = 7.85397

[node name="Node2D47" parent="." instance=ExtResource( 3 )]
position = Vector2( 416, 800 )
rotation = 7.85397

[node name="GravityChangeArea62" parent="." instance=ExtResource( 1 )]
position = Vector2( 672, 416 )
rotation = 7.85397

[node name="Node2D62" parent="." instance=ExtResource( 3 )]
position = Vector2( 672, 416 )
rotation = 7.85397

[node name="GravityChangeArea17" parent="." instance=ExtResource( 1 )]
position = Vector2( 416, 1120 )
rotation = 4.71238

[node name="Node2D17" parent="." instance=ExtResource( 3 )]
position = Vector2( 416, 1120 )
rotation = 4.71238

[node name="GravityChangeArea19" parent="." instance=ExtResource( 1 )]
position = Vector2( 576, 1120 )
rotation = 4.71238

[node name="Node2D19" parent="." instance=ExtResource( 3 )]
position = Vector2( 576, 1120 )
rotation = 4.71238

[node name="GravityChangeArea20" parent="." instance=ExtResource( 1 )]
position = Vector2( 736, 1120 )
rotation = 4.71238

[node name="Node2D20" parent="." instance=ExtResource( 3 )]
position = Vector2( 736, 1120 )
rotation = 4.71238

[node name="GravityChangeArea21" parent="." instance=ExtResource( 1 )]
position = Vector2( 896, 1120 )
rotation = 4.71238

[node name="Node2D21" parent="." instance=ExtResource( 3 )]
position = Vector2( 896, 1120 )
rotation = 4.71238

[node name="GravityChangeArea22" parent="." instance=ExtResource( 1 )]
position = Vector2( 1056, 1120 )
rotation = 4.71238

[node name="Node2D22" parent="." instance=ExtResource( 3 )]
position = Vector2( 1056, 1120 )
rotation = 4.71238

[node name="GravityChangeArea23" parent="." instance=ExtResource( 1 )]
position = Vector2( 1216, 1120 )
rotation = 4.71238

[node name="Node2D23" parent="." instance=ExtResource( 3 )]
position = Vector2( 1216, 1120 )
rotation = 4.71238

[node name="GravityChangeArea24" parent="." instance=ExtResource( 1 )]
position = Vector2( 1376, 1120 )
rotation = 4.71238

[node name="Node2D24" parent="." instance=ExtResource( 3 )]
position = Vector2( 1376, 1120 )
rotation = 4.71238

[node name="GravityChangeArea25" parent="." instance=ExtResource( 1 )]
position = Vector2( 1536, 1120 )
rotation = 4.71238

[node name="Node2D25" parent="." instance=ExtResource( 3 )]
position = Vector2( 1536, 1120 )
rotation = 4.71238

[node name="GravityChangeArea26" parent="." instance=ExtResource( 1 )]
position = Vector2( 1696, 1120 )
rotation = 4.71238

[node name="Node2D26" parent="." instance=ExtResource( 3 )]
position = Vector2( 1696, 1120 )
rotation = 4.71238

[node name="GravityChangeArea27" parent="." instance=ExtResource( 1 )]
position = Vector2( 416, 928 )
rotation = 4.71238

[node name="Node2D27" parent="." instance=ExtResource( 3 )]
position = Vector2( 416, 928 )
rotation = 4.71238

[node name="GravityChangeArea28" parent="." instance=ExtResource( 1 )]
position = Vector2( 576, 928 )
rotation = 4.71238

[node name="Node2D28" parent="." instance=ExtResource( 3 )]
position = Vector2( 576, 928 )
rotation = 4.71238

[node name="GravityChangeArea29" parent="." instance=ExtResource( 1 )]
position = Vector2( 736, 928 )
rotation = 4.71238

[node name="Node2D29" parent="." instance=ExtResource( 3 )]
position = Vector2( 736, 928 )
rotation = 4.71238

[node name="GravityChangeArea30" parent="." instance=ExtResource( 1 )]
position = Vector2( 896, 928 )
rotation = 4.71238

[node name="Node2D30" parent="." instance=ExtResource( 3 )]
position = Vector2( 896, 928 )
rotation = 4.71238

[node name="GravityChangeArea31" parent="." instance=ExtResource( 1 )]
position = Vector2( 1056, 928 )
rotation = 4.71238

[node name="Node2D31" parent="." instance=ExtResource( 3 )]
position = Vector2( 1056, 928 )
rotation = 4.71238

[node name="GravityChangeArea32" parent="." instance=ExtResource( 1 )]
position = Vector2( 1216, 928 )
rotation = 4.71238

[node name="Node2D32" parent="." instance=ExtResource( 3 )]
position = Vector2( 1216, 928 )
rotation = 4.71238

[node name="GravityChangeArea33" parent="." instance=ExtResource( 1 )]
position = Vector2( 1376, 928 )
rotation = 4.71238

[node name="Node2D33" parent="." instance=ExtResource( 3 )]
position = Vector2( 1376, 928 )
rotation = 4.71238

[node name="GravityChangeArea34" parent="." instance=ExtResource( 1 )]
position = Vector2( 1536, 928 )
rotation = 4.71238

[node name="Node2D34" parent="." instance=ExtResource( 3 )]
position = Vector2( 1536, 928 )
rotation = 4.71238

[node name="GravityChangeArea35" parent="." instance=ExtResource( 1 )]
position = Vector2( 1696, 928 )
rotation = 4.71238

[node name="Node2D35" parent="." instance=ExtResource( 3 )]
position = Vector2( 1696, 928 )
rotation = 4.71238

[node name="SpringyPlatform" parent="." instance=ExtResource( 5 )]
position = Vector2( 1888, 1248 )
rotation = 1.57079

[node name="SpringyPlatform2" parent="." instance=ExtResource( 5 )]
position = Vector2( 1888, 800 )
rotation = 1.57079

[node name="SpringyPlatform3" parent="." instance=ExtResource( 5 )]
position = Vector2( 160, 864 )
rotation = 1.57079

[node name="SpringyPlatform4" parent="." instance=ExtResource( 5 )]
position = Vector2( 160, 1184 )
rotation = 1.57079

[node name="NoFallDeathArea" parent="." instance=ExtResource( 2 )]
position = Vector2( 160, 1024 )
rotation = 1.57079
scale = Vector2( 2.32, 3 )

[node name="NoFallDeathArea2" parent="." instance=ExtResource( 2 )]
position = Vector2( 1880, 1024 )
rotation = 1.57079
scale = Vector2( 3, 3.28 )

[node name="Coin" parent="." instance=ExtResource( 6 )]
position = Vector2( 480, 1856 )

[node name="Coin2" parent="." instance=ExtResource( 6 )]
position = Vector2( 608, 1856 )

[node name="Coin3" parent="." instance=ExtResource( 6 )]
position = Vector2( 544, 1888 )

[node name="Coin4" parent="." instance=ExtResource( 6 )]
position = Vector2( 544, 1760 )

[node name="Coin5" parent="." instance=ExtResource( 6 )]
position = Vector2( 608, 1792 )

[node name="Coin6" parent="." instance=ExtResource( 6 )]
position = Vector2( 480, 1792 )

[node name="TimeReversalCharge" parent="." instance=ExtResource( 7 )]
position = Vector2( 544, 1824 )

[node name="Key" parent="." instance=ExtResource( 4 )]
position = Vector2( 448, 152 )

[node name="DeathArea" parent="." instance=ExtResource( 8 )]
position = Vector2( 1159, 190 )
scale = Vector2( 1, 2.04 )
